sku,store_view_code,attribute_set_code,product_type,categories,product_websites,name,description,short_description,weight,product_online,tax_class_name,visibility,price,special_price,special_price_from_date,special_price_to_date,url_key,meta_title,meta_keywords,meta_description,created_at,updated_at,new_from_date,new_to_date,display_product_options_in,map_price,msrp_price,map_enabled,gift_message_available,custom_design,custom_design_from,custom_design_to,custom_layout_update,page_layout,product_options_container,msrp_display_actual_price_type,country_of_manufacture,additional_attributes,qty,out_of_stock_qty,use_config_min_qty,is_qty_decimal,allow_backorders,use_config_backorders,min_cart_qty,use_config_min_sale_qty,max_cart_qty,use_config_max_sale_qty,is_in_stock,notify_on_stock_below,use_config_notify_stock_qty,manage_stock,use_config_manage_stock,use_config_qty_increments,qty_increments,use_config_enable_qty_inc,enable_qty_increments,is_decimal_divided,website_id,related_skus,related_position,crosssell_skus,crosssell_position,upsell_skus,upsell_position,hide_from_product_page,custom_options,bundle_price_type,bundle_sku_type,bundle_price_view,bundle_weight_type,bundle_values,bundle_shipment_type,configurable_variations,configurable_variation_labels,associated_skus,errors
Product-Test-XS-Black-m,,Top,simple,"Default Category/Men/Tops/Hoodies & Sweatshirts,Default Category/Collections/Eco Friendly,Default Category",base,"Product Test Hoodie-XS-Black","<p>test test test</p>
<p>test product config import</p>",,1,1,"Taxable Goods","Not Visible Individually",52,,,,product-test-hoodie-xs-black-m,,,,"1/7/19, 3:30 AM","1/7/19, 3:30 AM",,,"Block after Info Column",,,,,,,,,,,"Use config",,"am_shipping_type=Group A,color=Black,size=XS",60,0,1,0,0,1,1,1,0,1,1,,1,0,1,1,0,1,0,0,0,,,,,,,,,,,,,,,,,,"Product with specified SKU not found"
Product-Test-XS-Gray-m,,Top,simple,"Default Category/Men/Tops/Hoodies & Sweatshirts,Default Category/Collections/Eco Friendly,Default Category",base,"Product Test Hoodie-XS-Gray","<p>test test test</p>
<p>test product config import</p>",,1,1,"Taxable Goods","Not Visible Individually",52,,,,product-test-hoodie-xs-gray-m,,,,"1/7/19, 3:30 AM","1/7/19, 3:30 AM",,,"Block after Info Column",,,,,,,,,,,"Use config",,"am_shipping_type=Group A,color=Gray,size=XS",100,0,1,0,0,1,1,1,0,1,1,,1,0,1,1,0,1,0,0,0,,,,,,,,,,,,,,,,,,"Product with specified SKU not found"
Product-Test-XS-Orange-m,,Top,simple,"Default Category/Men/Tops/Hoodies & Sweatshirts,Default Category/Collections/Eco Friendly,Default Category",base,"Product Test Hoodie-XS-Orange","<p>test test test</p>
<p>test product config import</p>",,1,1,"Taxable Goods","Not Visible Individually",52,,,,product-test-hoodie-xs-orange-m,,,,"1/7/19, 3:30 AM","1/7/19, 3:30 AM",,,"Block after Info Column",,,,,,,,,,,"Use config",,"am_shipping_type=Group A,color=Orange,size=XS",60,0,1,0,0,1,1,1,0,1,1,,1,0,1,1,0,1,0,0,0,,,,,,,,,,,,,,,,,,"Product with specified SKU not found"
Product-Test-S-Black-m,,Top,simple,"Default Category/Men/Tops/Hoodies & Sweatshirts,Default Category/Collections/Eco Friendly,Default Category",base,"Product Test Hoodie-S-Black","<p>test test test</p>
<p>test product config import</p>",,1,1,"Taxable Goods","Not Visible Individually",52,,,,product-test-hoodie-s-black-m,,,,"1/7/19, 3:30 AM","1/7/19, 3:30 AM",,,"Block after Info Column",,,,,,,,,,,"Use config",,"am_shipping_type=Group A,color=Black,size=S",100,0,1,0,0,1,1,1,0,1,1,,1,0,1,1,0,1,0,0,0,,,,,,,,,,,,,,,,,,"Product with specified SKU not found"
Product-Test-S-Gray-m,,Top,simple,"Default Category/Men/Tops/Hoodies & Sweatshirts,Default Category/Collections/Eco Friendly,Default Category",base,"Product Test Hoodie-S-Gray","<p>test test test</p>
<p>test product config import</p>",,1,1,"Taxable Goods","Not Visible Individually",52,,,,product-test-hoodie-s-gray-m,,,,"1/7/19, 3:30 AM","1/7/19, 3:30 AM",,,"Block after Info Column",,,,,,,,,,,"Use config",,"am_shipping_type=Group A,color=Gray,size=S",100,0,1,0,0,1,1,1,0,1,1,,1,0,1,1,0,1,0,0,0,,,,,,,,,,,,,,,,,,"Product with specified SKU not found"
Product-Test-S-Orange-m,,Top,simple,"Default Category/Men/Tops/Hoodies & Sweatshirts,Default Category/Collections/Eco Friendly,Default Category",base,"Product Test Hoodie-S-Orange","<p>test test test</p>
<p>test product config import</p>",,1,1,"Taxable Goods","Not Visible Individually",52,,,,product-test-hoodie-s-orange-m,,,,"1/7/19, 3:30 AM","1/7/19, 3:30 AM",,,"Block after Info Column",,,,,,,,,,,"Use config",,"am_shipping_type=Group A,color=Orange,size=S",100,0,1,0,0,1,1,1,0,1,1,,1,0,1,1,0,1,0,0,0,,,,,,,,,,,,,,,,,,"Product with specified SKU not found"
Product-Test-M-Black-m,,Top,simple,"Default Category/Men/Tops/Hoodies & Sweatshirts,Default Category/Collections/Eco Friendly,Default Category",base,"Product Test Hoodie-M-Black","<p>test test test</p>
<p>test product config import</p>",,1,1,"Taxable Goods","Not Visible Individually",52,,,,product-test-hoodie-m-black-m,,,,"1/7/19, 3:30 AM","1/7/19, 3:30 AM",,,"Block after Info Column",,,,,,,,,,,"Use config",,"am_shipping_type=Group A,color=Black,size=M",100,0,1,0,0,1,1,1,0,1,1,,1,0,1,1,0,1,0,0,0,,,,,,,,,,,,,,,,,,"Product with specified SKU not found"
Product-Test-M-Gray-m,,Top,simple,"Default Category/Men/Tops/Hoodies & Sweatshirts,Default Category/Collections/Eco Friendly,Default Category",base,"Product Test Hoodie-M-Gray","<p>test test test</p>
<p>test product config import</p>",,1,1,"Taxable Goods","Not Visible Individually",52,,,,product-test-hoodie-m-gray-m,,,,"1/7/19, 3:30 AM","1/7/19, 3:30 AM",,,"Block after Info Column",,,,,,,,,,,"Use config",,"am_shipping_type=Group A,color=Gray,size=M",100,0,1,0,0,1,1,1,0,1,1,,1,0,1,1,0,1,0,0,0,,,,,,,,,,,,,,,,,,"Product with specified SKU not found"
Product-Test-M-Orange-m,,Top,simple,"Default Category/Men/Tops/Hoodies & Sweatshirts,Default Category/Collections/Eco Friendly,Default Category",base,"Product Test Hoodie-M-Orange","<p>test test test</p>
<p>test product config import</p>",,1,1,"Taxable Goods","Not Visible Individually",52,,,,product-test-hoodie-m-orange-m,,,,"1/7/19, 3:30 AM","1/7/19, 3:30 AM",,,"Block after Info Column",,,,,,,,,,,"Use config",,"am_shipping_type=Group A,color=Orange,size=M",100,0,1,0,0,1,1,1,0,1,1,,1,0,1,1,0,1,0,0,0,,,,,,,,,,,,,,,,,,"Product with specified SKU not found"
Product-Test-L-Black-m,,Top,simple,"Default Category/Men/Tops/Hoodies & Sweatshirts,Default Category/Collections/Eco Friendly,Default Category",base,"Product Test Hoodie-L-Black","<p>test test test</p>
<p>test product config import</p>",,1,1,"Taxable Goods","Not Visible Individually",52,,,,product-test-hoodie-l-black-m,,,,"1/7/19, 3:30 AM","1/7/19, 3:30 AM",,,"Block after Info Column",,,,,,,,,,,"Use config",,"am_shipping_type=Group A,color=Black,size=L",100,0,1,0,0,1,1,1,0,1,1,,1,0,1,1,0,1,0,0,0,,,,,,,,,,,,,,,,,,"Product with specified SKU not found"
Product-Test-L-Gray-m,,Top,simple,"Default Category/Men/Tops/Hoodies & Sweatshirts,Default Category/Collections/Eco Friendly,Default Category",base,"Product Test Hoodie-L-Gray","<p>test test test</p>
<p>test product config import</p>",,1,1,"Taxable Goods","Not Visible Individually",52,,,,product-test-hoodie-l-gray-m,,,,"1/7/19, 3:30 AM","1/7/19, 3:30 AM",,,"Block after Info Column",,,,,,,,,,,"Use config",,"am_shipping_type=Group A,color=Gray,size=L",100,0,1,0,0,1,1,1,0,1,1,,1,0,1,1,0,1,0,0,0,,,,,,,,,,,,,,,,,,"Product with specified SKU not found"
Product-Test-L-Orange-m,,Top,simple,"Default Category/Men/Tops/Hoodies & Sweatshirts,Default Category/Collections/Eco Friendly,Default Category",base,"Product Test Hoodie-L-Orange","<p>test test test</p>
<p>test product config import</p>",,1,1,"Taxable Goods","Not Visible Individually",52,,,,product-test-hoodie-l-orange-m,,,,"1/7/19, 3:30 AM","1/7/19, 3:30 AM",,,"Block after Info Column",,,,,,,,,,,"Use config",,"am_shipping_type=Group A,color=Orange,size=L",100,0,1,0,0,1,1,1,0,1,1,,1,0,1,1,0,1,0,0,0,,,,,,,,,,,,,,,,,,"Product with specified SKU not found"
Product-Test-XL-Black-m,,Top,simple,"Default Category/Men/Tops/Hoodies & Sweatshirts,Default Category/Collections/Eco Friendly,Default Category",base,"Product Test Hoodie-XL-Black","<p>test test test</p>
<p>test product config import</p>",,1,1,"Taxable Goods","Not Visible Individually",52,,,,product-test-hoodie-xl-black-m,,,,"1/7/19, 3:30 AM","1/7/19, 3:30 AM",,,"Block after Info Column",,,,,,,,,,,"Use config",,"am_shipping_type=Group A,color=Black,size=XL",100,0,1,0,0,1,1,1,0,1,1,,1,0,1,1,0,1,0,0,0,,,,,,,,,,,,,,,,,,"Product with specified SKU not found"
Product-Test-XL-Gray-m,,Top,simple,"Default Category/Men/Tops/Hoodies & Sweatshirts,Default Category/Collections/Eco Friendly,Default Category",base,"Product Test Hoodie-XL-Gray","<p>test test test</p>
<p>test product config import</p>",,1,1,"Taxable Goods","Not Visible Individually",52,,,,product-test-hoodie-xl-gray-m,,,,"1/7/19, 3:30 AM","1/7/19, 3:30 AM",,,"Block after Info Column",,,,,,,,,,,"Use config",,"am_shipping_type=Group A,color=Gray,size=XL",100,0,1,0,0,1,1,1,0,1,1,,1,0,1,1,0,1,0,0,0,,,,,,,,,,,,,,,,,,"Product with specified SKU not found"
Product-Test-XL-Orange-m,,Top,simple,"Default Category/Men/Tops/Hoodies & Sweatshirts,Default Category/Collections/Eco Friendly,Default Category",base,"Product Test Hoodie-XL-Orange","<p>test test test</p>
<p>test product config import</p>",,1,1,"Taxable Goods","Not Visible Individually",52,,,,product-test-hoodie-xl-orange-m,,,,"1/7/19, 3:30 AM","1/7/19, 3:30 AM",,,"Block after Info Column",,,,,,,,,,,"Use config",,"am_shipping_type=Group A,color=Orange,size=XL",100,0,1,0,0,1,1,1,0,1,1,,1,0,1,1,0,1,0,0,0,,,,,,,,,,,,,,,,,,"Product with specified SKU not found"
Product-Test-m,,Top,configurable,"Default Category/Men/Tops/Hoodies & Sweatshirts,Default Category/Collections/Eco Friendly,Default Category",base,"Product Test","<p>test test test</p>
<p>test product config import</p>",,,1,"Taxable Goods","Catalog, Search",52,,,,product-test-m,,,,"1/7/19, 3:30 AM","1/7/19, 3:30 AM",,,"Block after Info Column",,,,,,,,,,,"Use config",,"am_shipping_type=Group A,climate=All-Weather|Cool|Indoor|Spring|Windy,eco_collection=Yes,erin_recommends=No,material=Wool,new=No,pattern=Color-Blocked,performance_fabric=No,sale=Yes",0,0,1,0,0,1,1,1,0,1,1,,1,0,1,1,0,1,0,0,0,,,,,,,,,,,,,,,"sku=Product-Test-XS-Orange,size=XS,color=Orange|sku=Product-Test-XS-Gray,size=XS,color=Gray|sku=Product-Test-XS-Black,size=XS,color=Black|sku=Product-Test-S-Orange,size=S,color=Orange|sku=Product-Test-S-Gray,size=S,color=Gray|sku=Product-Test-S-Black,size=S,color=Black|sku=Product-Test-M-Orange,size=M,color=Orange|sku=Product-Test-M-Gray,size=M,color=Gray|sku=Product-Test-M-Black,size=M,color=Black|sku=Product-Test-L-Gray,size=L,color=Gray|sku=Product-Test-L-Black,size=L,color=Black|sku=Product-Test-L-Orange,size=L,color=Orange|sku=Product-Test-XL-Orange,size=XL,color=Orange|sku=Product-Test-XL-Gray,size=XL,color=Gray|sku=Product-Test-XL-Black,size=XL,color=Black","size=Size,color=Color",,"Product with specified SKU not found"
