sku,attribute_set_code,product_type,categories,product_websites,name,description,short_description,weight,price,special_price,special_price_from_date,special_price_to_date,product_online,qty,is_in_stock,tax_class_name,visibility,meta_title,meta_keywords,meta_description,base_image,base_image_label,small_image,small_image_label,thumbnail_image,thumbnail_image_label
FW-01,Bag,simple,Default Category/Fashion/women/colthing/dresses,base,Wholesale Dress,<p>2018 Women Apparel Offer Shoulder Embroidered Design Wholesale Dress</p>,<p>2018 Women Apparel Offer Shoulder Embroidered Design Wholesale Dress</p>,1,5.91,3.91,4/25/2019,5/10/2019,1,100,1,Taxable Goods,"Catalog, Search",,,,1.jpg,Image,1.jpg,Image,1.jpg,Image
FW-02,Bag,simple,Default Category/fashion/women/colthing/dresses,base,fashion dress,<p>women clothing 2017 mix colour off the shoulder cotton fashion dress</p>,<p>women clothing 2017 mix colour off the shoulder cotton fashion dress</p>,1,3,1,4/25/2019,5/10/2019,1,100,1,Taxable Goods,"Catalog, Search",,,,2.jpg,Image,2.jpg,Image,2.jpg,Image
FW-03,Bag,simple,Default Category/fashion/women/colthing/dresses,base,Waistline Women Dress,ASM ANNA 2019 New Summer Women Clothing Elegant Slim Thin Strapless Boat Neck Off Shoulder Waistline Women Dress</p>,ASM ANNA 2019 New Summer Women Clothing Elegant Slim Thin Strapless Boat Neck Off Shoulder Waistline Women Dress</p>,1,27.39,25.39,4/25/2019,5/10/2019,1,100,1,Taxable Goods,"Catalog, Search",,,,3.jpg,Image,3.jpg,Image,3.jpg,Image
FW-04,Bag,simple,Default Category/fashion/women/colthing/dresses,base,dress shirt,<p>Gray evening stretch print fabric for ladies high waist half sleeve maxi women printed dress shirt</p>,<p>Gray evening stretch print fabric for ladies high waist half sleeve maxi women printed dress shirt</p>,1,15.6,13.6,4/25/2019,5/10/2019,1,100,1,Taxable Goods,"Catalog, Search",,,,4.jpg,Image,4.jpg,Image,4.jpg,Image
FW-05,Bag,simple,Default Category/fashion/women/colthing/dresses,base,Chiffon Dress,<p>Irufushi Superior High Quality New Fashion Retro Vintage Casual Slim fit Floral Caramel Breathable Girl/Women Chiffon Dress</p>,<p>Irufushi Superior High Quality New Fashion Retro Vintage Casual Slim fit Floral Caramel Breathable Girl/Women Chiffon Dress</p>,1,14,12,4/25/2019,5/10/2019,1,100,1,Taxable Goods,"Catalog, Search",,,,5.jpg,Image,5.jpg,Image,5.jpg,Image
FW-06,Bag,simple,Default Category/fashion/women/colthing/jumpsuits,base,Denim Cargo Jumpsuit,<p> Sleeveless Denim Cargo Jumpsuit Women (Accept OEM)  </p>,<p> Sleeveless Denim Cargo Jumpsuit Women (Accept OEM)  </p>,1,10,8,4/25/2019,5/10/2019,1,100,1,Taxable Goods,"Catalog, Search",,,,6.jpg,Image,6.jpg,Image,6.jpg,Image
FW-07,Bag,simple,Default Category/fashion/women/colthing/jumpsuits,base,Jumpsuits for OEM,<p> 2018 women Jumpsuits for OEM ODM  </p>,<p> 2018 women Jumpsuits for OEM ODM  </p>,1,23,21,4/25/2019,5/10/2019,1,100,1,Taxable Goods,"Catalog, Search",,,,7.jpg,Image,7.jpg,Image,7.jpg,Image
FW-08,Bag,simple,Default Category/fashion/women/colthing/jumpsuits,base,Ladies Jumpsuit,<p>  Newest Sleeveless Belt Fashion Women Ladies Jumpsuit </p>,<p>  Newest Sleeveless Belt Fashion Women Ladies Jumpsuit </p>,1,3,1,4/25/2019,5/10/2019,1,100,1,Taxable Goods,"Catalog, Search",,,,8.jpg,Image,8.jpg,Image,8.jpg,Image
FW-09,Bag,simple,Default Category/fashion/women/colthing/jumpsuits,base,bodycon jumpsuit,<p>  Wholesaler cross striped 100% linen clothing women bodycon jumpsuit </p>,<p>  Wholesaler cross striped 100% linen clothing women bodycon jumpsuit </p>,1,12.5,10.5,4/25/2019,5/10/2019,1,100,1,Taxable Goods,"Catalog, Search",,,,9.jpg,Image,9.jpg,Image,9.jpg,Image
FW-10,Bag,simple,Default Category/fashion/women/colthing/jumpsuits,base,Suspender Jumpsuits,<p> Feelingirl New Fashionblack Front Button Women Suspender Jumpsuits  </p>,<p> Feelingirl New Fashionblack Front Button Women Suspender Jumpsuits  </p>,1,7.63,5.63,4/25/2019,5/10/2019,1,100,1,Taxable Goods,"Catalog, Search",,,,10.jpg,Image,10.jpg,Image,10.jpg,Image
FW-11,Bag,simple,Default Category/fashion/women/colthing/tops,base, Lady's Top Blouse,<p> High-end Custom Models White Ruffle Front Short Sleeve Solid Pleated Lady's Top Blouse for Women  </p>,<p> High-end Custom Models White Ruffle Front Short Sleeve Solid Pleated Lady's Top Blouse for Women  </p>,1,8,6,4/25/2019,5/10/2019,1,100,1,Taxable Goods,"Catalog, Search",,,,11.jpg,Image,11.jpg,Image,11.jpg,Image
FW-12,Bag,simple,Default Category/fashion/women/colthing/tops,base,Charcoal Garden,<p> New Women Tops With Charcoal Garden Notch Neck Pin Tuck Tunic Women Blouse Women Clothing  </p>,<p> New Women Tops With Charcoal Garden Notch Neck Pin Tuck Tunic Women Blouse Women Clothing  </p>,1,9.47,7.47,4/25/2019,5/10/2019,1,100,1,Taxable Goods,"Catalog, Search",,,,12.jpg,Image,12.jpg,Image,12.jpg,Image
FW-13,Bag,simple,Default Category/fashion/women/colthing/tops,base,V-neck shirts,<p>  2019 Spring Sexy V-neck shirts 100% Silk TOP Blue Green Printed Women blouse </p>,<p>  2019 Spring Sexy V-neck shirts 100% Silk TOP Blue Green Printed Women blouse </p>,1,27.8,25.8,4/25/2019,5/10/2019,1,100,1,Taxable Goods,"Catalog, Search",,,,13.jpg,Image,13.jpg,Image,13.jpg,Image
FW-14,Bag,simple,Default Category/fashion/women/colthing/tops,base,Casual Tops,<p>  TOP096 China Manufacturer Women Plain Color Casual Tops 2018 </p>,<p>  TOP096 China Manufacturer Women Plain Color Casual Tops 2018 </p>,1,5.8,3.8,4/25/2019,5/10/2019,1,100,1,Taxable Goods,"Catalog, Search",,,,14.jpg,Image,14.jpg,Image,14.jpg,Image
FW-15,Bag,simple,Default Category/fashion/women/colthing/tops,base,beaded panel top,<p> EU fashion plaid raglan crewneck pleat dolman beaded panel top  </p>,<p> EU fashion plaid raglan crewneck pleat dolman beaded panel top  </p>,1,17,15,4/25/2019,5/10/2019,1,100,1,Taxable Goods,"Catalog, Search",,,,15.jpg,Image,15.jpg,Image,15.jpg,Image
FW-16,Bag,simple,Default Category/fashion/women/colthing/jeans,base, fancy cheap denim jeans,<p>  latest low price jeans trousers women fancy cheap denim jeans in 2018 </p>,<p>  latest low price jeans trousers women fancy cheap denim jeans in 2018 </p>,1,9.3,7.3,4/25/2019,5/10/2019,1,100,1,Taxable Goods,"Catalog, Search",,,,16.jpg,Image,16.jpg,Image,16.jpg,Image
FW-17,Bag,simple,Default Category/fashion/women/colthing/jeans,base, Treated Women Jeans,<p>  Top Quality Skinny Girl Low Waist Treated Women Jeans </p>,<p>  Top Quality Skinny Girl Low Waist Treated Women Jeans </p>,1,6,4,4/25/2019,5/10/2019,1,100,1,Taxable Goods,"Catalog, Search",,,,17.png,Image,17.png,Image,17.png,Image
FW-18,Bag,simple,Default Category/fashion/women/colthing/jeans,base,Disstressed Women Jean,<p> Hot Sale Sexy Skinny Ripped Disstressed Women Jeans  </p>,<p> Hot Sale Sexy Skinny Ripped Disstressed Women Jeans  </p>,1,10,8,4/25/2019,5/10/2019,1,100,1,Taxable Goods,"Catalog, Search",,,,18.jpg,Image,18.jpg,Image,18.jpg,Image
FW-19,Bag,simple,Default Category/fashion/women/colthing/jeans,base,Pencil skinny women Jeans ,<p> 2018 Fashion private label High Waist Denim Pencil skinny women Jeans  </p>,<p> 2018 Fashion private label High Waist Denim Pencil skinny women Jeans  </p>,1,5.7,3.7,4/25/2019,5/10/2019,1,100,1,Taxable Goods,"Catalog, Search",,,,19.jpg,Image,19.jpg,Image,19.jpg,Image
FW-20,Bag,simple,Default Category/fashion/women/colthing/jeans,base,Skinny Women Denim Jeans,<p> 2018 Latest Fashion Washed Embroidery Jeans Sexy Skinny Women Denim Jeans Pants  </p>,<p> 2018 Latest Fashion Washed Embroidery Jeans Sexy Skinny Women Denim Jeans Pants  </p>,1,8,6,4/25/2019,5/10/2019,1,100,1,Taxable Goods,"Catalog, Search",,,,20.jpg,Image,20.jpg,Image,20.jpg,Image
FW-21,Bag,simple,Default Category/fashion/women/colthing/sportswear,base,Women's Yoga Fitness Pants,<p>  New Factory Price Sportswear Women's Yoga Fitness Pants </p>,<p>  New Factory Price Sportswear Women's Yoga Fitness Pants </p>,1,6.5,4.5,4/25/2019,5/10/2019,1,100,1,Taxable Goods,"Catalog, Search",,,,21.jpg,Image,21.jpg,Image,21.jpg,Image
FW-22,Bag,simple,Default Category/fashion/women/colthing/sportswear,base, Women's Cropped Yoga Leggings Pants,<p>  Custom Breathable Women Sportswear Compression Tight Women's Cropped Yoga Leggings Pants </p>,<p>  Custom Breathable Women Sportswear Compression Tight Women's Cropped Yoga Leggings Pants </p>,1,10.79,,,,1,100,1,Taxable Goods,"Catalog, Search",,,,22.jpg,Image,22.jpg,Image,22.jpg,Image
FW-23,Bag,simple,Default Category/fashion/women/colthing/sportswear,base,Sportswear Cheap Price,<p>   Plain Tracksuits Women Two Piece Jogger Sportswear Cheap Price</p>,<p>   Plain Tracksuits Women Two Piece Jogger Sportswear Cheap Price</p>,1,8.75,,,,1,100,1,Taxable Goods,"Catalog, Search",,,,23.jpg,Image,23.jpg,Image,23.jpg,Image
FW-24,Bag,simple,Default Category/fashion/women/colthing/sportswear,base, New Design Sexy Activewear Suits,<p>  Toplook Snake Print Yoga Set New Design Sexy Activewear Suits Workout Clothing For Women Sportswear S83 </p>,<p>  Toplook Snake Print Yoga Set New Design Sexy Activewear Suits Workout Clothing For Women Sportswear S83 </p>,1,5,,,,1,100,1,Taxable Goods,"Catalog, Search",,,,24.jpg,Image,24.jpg,Image,24.jpg,Image
FW-25,Bag,simple,Default Category/fashion/women/colthing/sportswear,base, ladies leggings sublimation,<p>  Wholesale young ladies leggings sublimation printed custom yoga leggins women sportswear </p>,<p>  Wholesale young ladies leggings sublimation printed custom yoga leggins women sportswear </p>,1,9.11,,,,1,100,1,Taxable Goods,"Catalog, Search",,,,25.jpg,Image,25.jpg,Image,25.jpg,Image
FW-26,Bag,simple,Default Category/fashion/women/colthing/sleepwear,base, Beautiful Wedding Floral ,<p> Beautiful Wedding Floral Satin Robe Kimono Printing Robe  </p>,<p> Beautiful Wedding Floral Satin Robe Kimono Printing Robe  </p>,1,5,,,,1,100,1,Taxable Goods,"Catalog, Search",,,,26.jpg,Image,26.jpg,Image,26.jpg,Image
FW-27,Bag,simple,Default Category/fashion/women/colthing/sleepwear,base,women's poplin sleepwear,<p>  custom your logo women's poplin sleepwear ladies home wear suits solid pajamas </p>,<p>  custom your logo women's poplin sleepwear ladies home wear suits solid pajamas </p>,1,2.8,,,,1,100,1,Taxable Goods,"Catalog, Search",,,,27.jpg,Image,27.jpg,Image,27.jpg,Image
FW-28,Bag,simple,Default Category/fashion/women/colthing/sleepwear,base,Night Dress Sleepwear,<p> Wholesale Quality Cheap Long Sleeve Night gown japanese kimono silk pyjamas for women/Women's Robe Pink Night Dress Sleepwear  </p>,<p> Wholesale Quality Cheap Long Sleeve Night gown japanese kimono silk pyjamas for women/Women's Robe Pink Night Dress Sleepwear  </p>,1,3.7,,,,1,100,1,Taxable Goods,"Catalog, Search",,,,28.jpg,Image,28.jpg,Image,28.jpg,Image
FW-29,Bag,simple,Default Category/fashion/women/colthing/sleepwear,base,Sexy Satin Sleepwear,<p>  Lady Sleepwear Manufacturer Summer Printed Woman Sexy Satin Sleepwear </p>,<p>  Lady Sleepwear Manufacturer Summer Printed Woman Sexy Satin Sleepwear </p>,1,11.5,,,,1,100,1,Taxable Goods,"Catalog, Search",,,,29.jpg,Image,29.jpg,Image,29.jpg,Image
FW-30,Bag,simple,Default Category/fashion/women/colthing/sleepwear,base,pajamas women sleepwear,<p>  Hot selling pajamas women sleepwear </p>,<p>  Hot selling pajamas women sleepwear </p>,1,7.85,,,,1,100,1,Taxable Goods,"Catalog, Search",,,,30.jpg,Image,30.jpg,Image,30.jpg,Image
FW-31,Bag,simple,Default Category/fashion/women/colthing/skirts,base, lady tulle skirt,<p>  Latest long women wholesale lady tulle skirt </p>,<p>  Latest long women wholesale lady tulle skirt </p>,1,8.5,,,,1,100,1,Taxable Goods,"Catalog, Search",,,,31.jpg,Image,31.jpg,Image,31.jpg,Image
FW-32,Bag,simple,Default Category/fashion/women/colthing/skirts,base,embroidery suede skirt,<p>  2018 Summer A-Line skirt women embroidery suede skirt </p>,<p>  2018 Summer A-Line skirt women embroidery suede skirt </p>,1,10,,,,1,100,1,Taxable Goods,"Catalog, Search",,,,32.jpg,Image,32.jpg,Image,32.jpg,Image
FW-33,Bag,simple,Default Category/fashion/women/colthing/skirts,base,New Design Women Skir,"<p> Summer Skirts Women, Wholesale Sexy Skirt 2017, New Design Women Skirt  </p>","<p> Summer Skirts Women, Wholesale Sexy Skirt 2017, New Design Women Skirt  </p>",1,2.5,,,,1,100,1,Taxable Goods,"Catalog, Search",,,,33.jpg,Image,33.jpg,Image,33.jpg,Image
FW-34,Bag,simple,Default Category/fashion/women/colthing/skirts,base, Women Pleated Skirts ,<p> Factory Price Wholesale Casual Long Pink Women Pleated Skirts  </p>,<p> Factory Price Wholesale Casual Long Pink Women Pleated Skirts  </p>,1,9.45,,,,1,100,1,Taxable Goods,"Catalog, Search",,,,34.jpg,Image,34.jpg,Image,34.jpg,Image
FW-35,Bag,simple,Default Category/fashion/women/colthing/skirts,base,Ruffles Skirt Autumn,<p>  Casual Mid-calf Beading Lady Maxi Ruffles Skirt Autumn Women Skirts </p>,<p>  Casual Mid-calf Beading Lady Maxi Ruffles Skirt Autumn Women Skirts </p>,1,10.77,,,,1,100,1,Taxable Goods,"Catalog, Search",,,,35.jpg,Image,35.jpg,Image,35.jpg,Image
FW-36,Bag,simple,Default Category/fashion/women/colthing/jackets & coats,base,faux fur pu jacket leather,<p> Custom suede slim outerwear women winter faux fur pu jacket leather coat  </p>,<p> Custom suede slim outerwear women winter faux fur pu jacket leather coat  </p>,1,25,,,,1,100,1,Taxable Goods,"Catalog, Search",,,,36.jpg,Image,36.jpg,Image,36.jpg,Image
FW-37,Bag,simple,Default Category/fashion/women/colthing/jackets & coats,base, Spring Fashion Style Leather Coat,<p> JKK FUR 2018 New Arrival Genuine Leather Sheepskin Jacket Women Spring Fashion Style Leather Coat S8005  </p>,<p> JKK FUR 2018 New Arrival Genuine Leather Sheepskin Jacket Women Spring Fashion Style Leather Coat S8005  </p>,1,70,,,,1,100,1,Taxable Goods,"Catalog, Search",,,,37.jpg,Image,37.jpg,Image,37.jpg,Image
FW-38,Bag,simple,Default Category/fashion/women/colthing/jackets & coats,base, trendy ladies jeans coats,<p>  Fashion Women&amp;quot;s patchwork denim jackets trendy ladies jeans coats wx298 </p>,<p>  Fashion Women&amp;quot;s patchwork denim jackets trendy ladies jeans coats wx298 </p>,1,9.5,,,,1,100,1,Taxable Goods,"Catalog, Search",,,,38.jpg,Image,38.jpg,Image,38.jpg,Image
FW-39,Bag,simple,Default Category/fashion/women/colthing/jackets & coats,base,Winter Coat Women ,<p>  Fur Hood Puffer Jacket Winter Coat Women </p>,<p>  Fur Hood Puffer Jacket Winter Coat Women </p>,1,12.25,,,,1,100,1,Taxable Goods,"Catalog, Search",,,,39.jpg,Image,39.jpg,Image,39.jpg,Image
FW-40,Bag,simple,Default Category/fashion/women/colthing/jackets & coats,base,Jacket Parka Coat,<p>  Women Winter Fuax Fur Coat Jacket Parka Coat </p>,<p>  Women Winter Fuax Fur Coat Jacket Parka Coat </p>,1,50,,,,1,100,1,Taxable Goods,"Catalog, Search",,,,40.jpg,Image,40.jpg,Image,40.jpg,Image
FW-41,Bag,simple,Default Category/fashion/women/colthing/arabain wear ,base,muslim dress,<p>  The new arabain fashion women's wear single layer not transparent long sleeve muslim dress </p>,<p>  The new arabain fashion women's wear single layer not transparent long sleeve muslim dress </p>,1,16,,,,1,100,1,Taxable Goods,"Catalog, Search",,,,41.png,Image,41.png,Image,41.png,Image
FW-42,Bag,simple,Default Category/fashion/women/colthing/arabain wear ,base,Abaya Dress ,<p> Fashion Custom Arab Clothes Plain Dyed Chiffon Abaya Dress for Muslim Women  </p>,<p> Fashion Custom Arab Clothes Plain Dyed Chiffon Abaya Dress for Muslim Women  </p>,1,23.5,,,,1,100,1,Taxable Goods,"Catalog, Search",,,,42.png,Image,42.png,Image,42.png,Image
FW-43,Bag,simple,Default Category/fashion/women/colthing/arabain wear ,base,Islamic clothing kaftan abaya,<p> New Women Muslim abaya dress Traditional Lady Flower Islamic clothing kaftan abaya Arab clothes  </p>,<p> New Women Muslim abaya dress Traditional Lady Flower Islamic clothing kaftan abaya Arab clothes  </p>,1,10,,,,1,100,1,Taxable Goods,"Catalog, Search",,,,43.jpg,Image,43.jpg,Image,43.jpg,Image
FW-44,Bag,simple,Default Category/fashion/women/colthing/arabain wear ,base, Sleeves Arab Clothes,<p>  Zakiyyah F20 Hot Sale Muslim Kaftan in Pakistan Wholesale Beautiful Leopard Printed Short Kaftan Tops Long Sleeves Arab Clothes </p>,<p>  Zakiyyah F20 Hot Sale Muslim Kaftan in Pakistan Wholesale Beautiful Leopard Printed Short Kaftan Tops Long Sleeves Arab Clothes </p>,1,6.53,,,,1,100,1,Taxable Goods,"Catalog, Search",,,,44.jpg,Image,44.jpg,Image,44.jpg,Image
FW-45,Bag,simple,Default Category/fashion/women/colthing/arabain wear ,base,islamic beaded kaftan dress ,<p> High quality women clothes arabic drop ship abaya muslim indonesia islamic beaded kaftan dress  </p>,<p> High quality women clothes arabic drop ship abaya muslim indonesia islamic beaded kaftan dress  </p>,1,7.8,,,,1,100,1,Taxable Goods,"Catalog, Search",,,,45.png,Image,45.png,Image,45.png,Image
FM-01,Bag,simple,Default Category/fashion/men/colthing/t-shirts,base, Gym Wear T Shirts,<p>  Wholesale Plain Blank Oversized Tshirt Custom Gym Wear T Shirts For Men </p>,<p>  Wholesale Plain Blank Oversized Tshirt Custom Gym Wear T Shirts For Men </p>,1,3.66,,,,1,100,1,Taxable Goods,"Catalog, Search",,,,46.jpg,Image,46.jpg,Image,46.jpg,Image
FM-02,Bag,simple,Default Category/fashion/men/colthing/t-shirts,base, polo printed t shirt,<p>Manufacture custom printing design men's polo printed t shirt   </p>,<p>Manufacture custom printing design men's polo printed t shirt   </p>,1,3,,,,1,100,1,Taxable Goods,"Catalog, Search",,,,47.jpg,Image,47.jpg,Image,47.jpg,Image
FM-03,Bag,simple,Default Category/fashion/men/colthing/t-shirts,base, men's golf sport polo,<p>  wholesale breathable Blue ocean wave men's golf sport polo print t-shirt </p>,<p>  wholesale breathable Blue ocean wave men's golf sport polo print t-shirt </p>,1,14.49,,,,1,100,1,Taxable Goods,"Catalog, Search",,,,48.jpg,Image,48.jpg,Image,48.jpg,Image
FM-04,Bag,simple,Default Category/fashion/men/colthing/t-shirts,base,digital printing ,<p>  Most popular digital printing men's t shirt </p>,<p>  Most popular digital printing men's t shirt </p>,1,6.2,,,,1,100,1,Taxable Goods,"Catalog, Search",,,,49.jpg,Image,49.jpg,Image,49.jpg,Image
FM-05,Bag,simple,Default Category/fashion/men/colthing/t-shirts,base,Custom Design Printing Men's T Shirt,<p> China Manufacturing Custom Design Printing Men's T Shirt  </p>,<p> China Manufacturing Custom Design Printing Men's T Shirt  </p>,1,1.8,,,,1,100,1,Taxable Goods,"Catalog, Search",,,,50.jpg,Image,50.jpg,Image,50.jpg,Image
FM-06,Bag,simple,Default Category/fashion/men/colthing/shirts,base,slim fit latest shirt,<p>Wholesale luxury stylish mens custom brand logo button up long sleeve slim fit latest shirt designs for men's dress shirt   </p>,<p>Wholesale luxury stylish mens custom brand logo button up long sleeve slim fit latest shirt designs for men's dress shirt   </p>,1,8,,,,1,100,1,Taxable Goods,"Catalog, Search",,,,51.jpg,Image,51.jpg,Image,51.jpg,Image
FM-07,Bag,simple,Default Category/fashion/men/colthing/shirts,base, man plaid casual shirt ,<p>  2019 Latest fashion Men's grey check print long sleeve shirt custom logo and fabric man plaid casual shirt </p>,<p>  2019 Latest fashion Men's grey check print long sleeve shirt custom logo and fabric man plaid casual shirt </p>,1,12.2,,,,1,100,1,Taxable Goods,"Catalog, Search",,,,52.jpg,Image,52.jpg,Image,52.jpg,Image
FM-08,Bag,simple,Default Category/fashion/men/colthing/shirts,base, custom casual shirts,<p>  Hot sale high quality custom casual cotton mens shirts </p>,<p>  Hot sale high quality custom casual cotton mens shirts </p>,1,6.2,,,,1,100,1,Taxable Goods,"Catalog, Search",,,,53.jpg,Image,53.jpg,Image,53.jpg,Image
FM-09,Bag,simple,Default Category/fashion/men/colthing/shirts,base, Arrival Spring Mandarin,<p> 2017 New Arrival Spring Mandarin Collar Classic Designer Slim Fit Casual Man Shirt  </p>,<p> 2017 New Arrival Spring Mandarin Collar Classic Designer Slim Fit Casual Man Shirt  </p>,1,5.5,,,,1,100,1,Taxable Goods,"Catalog, Search",,,,54.jpg,Image,54.jpg,Image,54.jpg,Image
FM-10,Bag,simple,Default Category/fashion/men/colthing/shirts,base,Spring Latest Wholesale ,<p>  2017 Spring Latest Wholesale Side Zip Long Sleeve 100% Cotton Red and Black Elongated Longline Men Plaid Flannel Check Shirt </p>,<p>  2017 Spring Latest Wholesale Side Zip Long Sleeve 100% Cotton Red and Black Elongated Longline Men Plaid Flannel Check Shirt </p>,1,4.41,,,,1,100,1,Taxable Goods,"Catalog, Search",,,,55.png,Image,55.png,Image,55.png,Image
FM-11,Bag,simple,Default Category/fashion/men/colthing/jeans,base, Mens Denim Trousers,<p> Men's Straight Slim Fit Jeans Casual Long Pants Mens Denim Trousers  </p>,<p> Men's Straight Slim Fit Jeans Casual Long Pants Mens Denim Trousers  </p>,1,12.35,,,,1,100,1,Taxable Goods,"Catalog, Search",,,,56.jpg,Image,56.jpg,Image,56.jpg,Image
FM-12,Bag,simple,Default Category/fashion/men/colthing/jeans,base, damaged jeans pants,<p> Fancy brand design wholesale biker style ripped damaged jeans pants for mens  </p>,<p> Fancy brand design wholesale biker style ripped damaged jeans pants for mens  </p>,1,8.9,,,,1,100,1,Taxable Goods,"Catalog, Search",,,,57.jpg,Image,57.jpg,Image,57.jpg,Image
FM-13,Bag,simple,Default Category/fashion/men/colthing/jeans,base, jogger style elastic ,<p>  Funky jogger style elastic low waist cross jeans pants for mens </p>,<p>  Funky jogger style elastic low waist cross jeans pants for mens </p>,1,8.7,,,,1,100,1,Taxable Goods,"Catalog, Search",,,,58.jpg,Image,58.jpg,Image,58.jpg,Image
FM-14,Bag,simple,Default Category/fashion/men/colthing/jeans,base, Euro Men's Jeans,<p>  Euro Men's Jeans Stretch Blue Denim Business Slim Fit Jeans Size 30 32 34 35 36 38 Pants Jean for Men </p>,<p>  Euro Men's Jeans Stretch Blue Denim Business Slim Fit Jeans Size 30 32 34 35 36 38 Pants Jean for Men </p>,1,8.5,,,,1,100,1,Taxable Goods,"Catalog, Search",,,,59.jpg,Image,59.jpg,Image,59.jpg,Image
FM-15,Bag,simple,Default Category/fashion/men/colthing/jeans,base, embroidered men,<p>  embroidered men blue rags Dark Wash Jeans </p>,<p>  embroidered men blue rags Dark Wash Jeans </p>,1,6,,,,1,100,1,Taxable Goods,"Catalog, Search",,,,60.jpg,Image,60.jpg,Image,60.jpg,Image
FM-16,Bag,simple,Default Category/fashion/men/colthing/trousers,base, Casual Trousers Men,<p> Cheap Wholesale Khaki Pants Chino Casual Trousers Men  </p>,<p> Cheap Wholesale Khaki Pants Chino Casual Trousers Men  </p>,1,5.8,,,,1,100,1,Taxable Goods,"Catalog, Search",,,,61.png,Image,61.png,Image,61.png,Image
FM-17,Bag,simple,Default Category/fashion/men/colthing/trousers,base,man combat trousers,<p>  2017 new man combat trousers military tactical pant pockets cargo pants </p>,<p>  2017 new man combat trousers military tactical pant pockets cargo pants </p>,1,10,,,,1,100,1,Taxable Goods,"Catalog, Search",,,,62.jpg,Image,62.jpg,Image,62.jpg,Image
FM-18,Bag,simple,Default Category/fashion/men/colthing/trousers,base,WS0909 wholesale Men,<p>  WS0909 wholesale Men casual pant / trousers men </p>,<p>  WS0909 wholesale Men casual pant / trousers men </p>,1,7,,,,1,100,1,Taxable Goods,"Catalog, Search",,,,63.jpg,Image,63.jpg,Image,63.jpg,Image
FM-19,Bag,simple,Default Category/fashion/men/colthing/trousers,base,  functional men's trousers,<p>   functional men's trousers dickies work pants at working</p>,<p>   functional men's trousers dickies work pants at working</p>,1,5,,,,1,100,1,Taxable Goods,"Catalog, Search",,,,64.jpg,Image,64.jpg,Image,64.jpg,Image
FM-20,Bag,simple,Default Category/fashion/men/colthing/trousers,base,wholesale business men,<p>  High quality wholesale business men suit pants causal man trousers </p>,<p>  High quality wholesale business men suit pants causal man trousers </p>,1,53.69,,,,1,100,1,Taxable Goods,"Catalog, Search",,,,65.jpg,Image,65.jpg,Image,65.jpg,Image
FM-21,Bag,simple,Default Category/fashion/men/colthing/sportswear,base, Tracksuit Set Men,"<p>  Wholesale Mens Sportswear ,Oem Custom Tracksuit Set Men </p>","<p>  Wholesale Mens Sportswear ,Oem Custom Tracksuit Set Men </p>",1,11,,,,1,100,1,Taxable Goods,"Catalog, Search",,,,66.jpg,Image,66.jpg,Image,66.jpg,Image
FM-22,Bag,simple,Default Category/fashion/men/colthing/sportswear,base, suits sportswear men ,<p>  2019 Wholesale sweat suits sportswear men plain fitted tracksuit </p>,<p>  2019 Wholesale sweat suits sportswear men plain fitted tracksuit </p>,1,15,,,,1,100,1,Taxable Goods,"Catalog, Search",,,,67.jpg,Image,67.jpg,Image,67.jpg,Image
FM-23,Bag,simple,Default Category/fashion/men/colthing/sportswear,base, design  mens sportswear ,<p>  New design all-color mens sportswear </p>,<p>  New design all-color mens sportswear </p>,1,15,,,,1,100,1,Taxable Goods,"Catalog, Search",,,,68.jpg,Image,68.jpg,Image,68.jpg,Image
FM-24,Bag,simple,Default Category/fashion/men/colthing/sportswear,base, Men Blank Track Sui,<p>  Custom Sportswear Wholesale Men Blank Track Suit 100% Polyester </p>,<p>  Custom Sportswear Wholesale Men Blank Track Suit 100% Polyester </p>,1,6.99,,,,1,100,1,Taxable Goods,"Catalog, Search",,,,69.jpg,Image,69.jpg,Image,69.jpg,Image
FM-25,Bag,simple,Default Category/fashion/men/colthing/sportswear,base,Sportswear Men Hit,<p> Private Label Sportswear Men Hit Colour Fitness Jacket  </p>,<p> Private Label Sportswear Men Hit Colour Fitness Jacket  </p>,1,4,,,,1,100,1,Taxable Goods,"Catalog, Search",,,,70.jpg,Image,70.jpg,Image,70.jpg,Image
FM-26,Bag,simple,Default Category/fashion/men/colthing/shorts,base, Fitness athletics shorts men ,<p>  Fitness athletics shorts men workout clothing sweat gym shorts custom mens sport shorts </p>,<p>  Fitness athletics shorts men workout clothing sweat gym shorts custom mens sport shorts </p>,1,9,,,,1,100,1,Taxable Goods,"Catalog, Search",,,,71.jpg,Image,71.jpg,Image,71.jpg,Image
FM-27,Bag,simple,Default Category/fashion/men/colthing/shorts,base,Bermuda Jeans Shorts,<p>  DiZNEW Fashion New Design Cotton Mens Chino Cargo Bermuda Jeans Shorts </p>,<p>  DiZNEW Fashion New Design Cotton Mens Chino Cargo Bermuda Jeans Shorts </p>,1,9.95,,,,1,100,1,Taxable Goods,"Catalog, Search",,,,72.jpg,Image,72.jpg,Image,72.jpg,Image
FM-28,Bag,simple,Default Category/fashion/men/colthing/shorts,base,Mens Sweat Shorts,<p>   100% Cotton French Terry Fabric Multi Color Mens Sweat Shorts With Side And Back Pockets</p>,<p>   100% Cotton French Terry Fabric Multi Color Mens Sweat Shorts With Side And Back Pockets</p>,1,4.65,,,,1,100,1,Taxable Goods,"Catalog, Search",,,,73.jpg,Image,73.jpg,Image,73.jpg,Image
FM-29,Bag,simple,Default Category/fashion/men/colthing/shorts,base,pocket corduroy shorts ,<p> design your own board shorts men slant pocket corduroy shorts  </p>,<p> design your own board shorts men slant pocket corduroy shorts  </p>,1,7.9,,,,1,100,1,Taxable Goods,"Catalog, Search",,,,74.jpg,Image,74.jpg,Image,74.jpg,Image
FM-30,Bag,simple,Default Category/fashion/men/colthing/shorts,base,Mens Chino Shorts,<p>  Fashion Style Multi Color 100 Cotton Summer Slim Fit Camo Mens Chino Shorts </p>,<p>  Fashion Style Multi Color 100 Cotton Summer Slim Fit Camo Mens Chino Shorts </p>,1,5,,,,1,100,1,Taxable Goods,"Catalog, Search",,,,75.jpg,Image,75.jpg,Image,75.jpg,Image
FM-31,Bag,simple,Default Category/fashion/men/colthing/swimwear ,base,men swim trunk,<p> High quality custom fashion printed swimwear men swim trunk  </p>,<p> High quality custom fashion printed swimwear men swim trunk  </p>,1,8.2,,,,1,100,1,Taxable Goods,"Catalog, Search",,,,76.jpg,Image,76.jpg,Image,76.jpg,Image
FM-32,Bag,simple,Default Category/fashion/men/colthing/swimwear ,base, custom swimwear men,<p>  new fashion prints custom swimwear men </p>,<p>  new fashion prints custom swimwear men </p>,1,2.99,,,,1,100,1,Taxable Goods,"Catalog, Search",,,,77.jpg,Image,77.jpg,Image,77.jpg,Image
FM-33,Bag,simple,Default Category/fashion/men/colthing/swimwear ,base,men's swimming trunks ,<p> mens custom made male swimwear men's swimming trunks and workout shorts  </p>,<p> mens custom made male swimwear men's swimming trunks and workout shorts  </p>,1,3.25,,,,1,100,1,Taxable Goods,"Catalog, Search",,,,78.jpg,Image,78.jpg,Image,78.jpg,Image
FM-34,Bag,simple,Default Category/fashion/men/colthing/swimwear ,base, Sexy Man Short Swim,<p>   Accept OEM Customize Printed Logo Sexy Man Short Swim Mens Beach Shorts Swimwear</p>,<p>   Accept OEM Customize Printed Logo Sexy Man Short Swim Mens Beach Shorts Swimwear</p>,1,9.9,,,,1,100,1,Taxable Goods,"Catalog, Search",,,,79.jpg,Image,79.jpg,Image,79.jpg,Image
FM-35,Bag,simple,Default Category/fashion/men/colthing/swimwear ,base, sublimation printing mens swimwear,<p>  2018 factory OEM sublimation printing mens swimwear/beach/board shorts </p>,<p>  2018 factory OEM sublimation printing mens swimwear/beach/board shorts </p>,1,13,,,,1,100,1,Taxable Goods,"Catalog, Search",,,,80.jpg,Image,80.jpg,Image,80.jpg,Image
FM-36,Bag,simple,Default Category/fashion/men/colthing/underwear,base, Briefs Men Underwear ,<p> Separatec Fashion Cotton Boxer Briefs Men Underwear Wholesale 7 Pack  </p>,<p> Separatec Fashion Cotton Boxer Briefs Men Underwear Wholesale 7 Pack  </p>,1,22.3,,,,1,100,1,Taxable Goods,"Catalog, Search",,,,81.jpg,Image,81.jpg,Image,81.jpg,Image
FM-37,Bag,simple,Default Category/fashion/men/colthing/underwear,base, Beach Boxer,<p> Wholesale Men's Woven Boxer Shorts Grid Beach Boxer  </p>,<p> Wholesale Men's Woven Boxer Shorts Grid Beach Boxer  </p>,1,0.96,,,,1,100,1,Taxable Goods,"Catalog, Search",,,,82.jpg,Image,82.jpg,Image,82.jpg,Image
FM-38,Bag,simple,Default Category/fashion/men/colthing/underwear,base, men boxers wholesale,<p> oem Men's Cotton Stretch Boxer Brief Underwear 95% Cotton 5% Elastane underpants men boxers wholesale  </p>,<p> oem Men's Cotton Stretch Boxer Brief Underwear 95% Cotton 5% Elastane underpants men boxers wholesale  </p>,1,1.6,,,,1,100,1,Taxable Goods,"Catalog, Search",,,,83.jpg,Image,83.jpg,Image,83.jpg,Image
FM-39,Bag,simple,Default Category/fashion/men/colthing/underwear,base,Sports Brief Underwear,<p>  Cheap Price Old Man Boxer Shorts Sports Brief Underwear K27 </p>,<p>  Cheap Price Old Man Boxer Shorts Sports Brief Underwear K27 </p>,1,2.66,,,,1,100,1,Taxable Goods,"Catalog, Search",,,,84.jpg,Image,84.jpg,Image,84.jpg,Image
FM-40,Bag,simple,Default Category/fashion/men/colthing/underwear,base, Man's Underwear Boxer,<p> OEM Check Print Man's Underwear Boxer Briefs High Quality Cotton  </p>,<p> OEM Check Print Man's Underwear Boxer Briefs High Quality Cotton  </p>,1,0.99,,,,1,100,1,Taxable Goods,"Catalog, Search",,,,85.jpg,Image,85.jpg,Image,85.jpg,Image
FM-41,Bag,simple,Default Category/fashion/men/colthing/sleepwear,base, silk satin Sleepwear ,<p>  Luxury Man's Long-Sleeves silk satin Sleepwear Pajamas Set Lingerie and nightwear </p>,<p>  Luxury Man's Long-Sleeves silk satin Sleepwear Pajamas Set Lingerie and nightwear </p>,1,7.99,,,,1,100,1,Taxable Goods,"Catalog, Search",,,,86.jpg,Image,86.jpg,Image,86.jpg,Image
FM-42,Bag,simple,Default Category/fashion/men/colthing/sleepwear,base, panda men pajamas,<p>   Good quality wholesale 100% cotton panda men pajamas sleepwear for men</p>,<p>   Good quality wholesale 100% cotton panda men pajamas sleepwear for men</p>,1,7.5,,,,1,100,1,Taxable Goods,"Catalog, Search",,,,87.jpg,Image,87.jpg,Image,87.jpg,Image
FM-43,Bag,simple,Default Category/fashion/men/colthing/sleepwear,base,Men's Silk Pajamas,<p>   MGOO Custom Logo Casual Lapel Nightwear Botton Front Sleepwear Men's Silk Pajamas Set</p>,<p>   MGOO Custom Logo Casual Lapel Nightwear Botton Front Sleepwear Men's Silk Pajamas Set</p>,1,11.99,,,,1,100,1,Taxable Goods,"Catalog, Search",,,,88.jpg,Image,88.jpg,Image,88.jpg,Image
FM-44,Bag,simple,Default Category/fashion/men/colthing/sleepwear,base, Men Stripe Pajamas ,<p> Couples Men Stripe Pajamas Yarn Dyed Sleepwear  </p>,<p> Couples Men Stripe Pajamas Yarn Dyed Sleepwear  </p>,1,4.2,,,,1,100,1,Taxable Goods,"Catalog, Search",,,,89.jpg,Image,89.jpg,Image,89.jpg,Image
FM-45,Bag,simple,Default Category/fashion/men/colthing/sleepwear,base, Shirt & Pants Pajama ,<p>   Factory Custom Home Wearing Multicolor Men Button Up Pocket Front Shirt & Pants Pajama Set Men sleepwear</p>,<p>   Factory Custom Home Wearing Multicolor Men Button Up Pocket Front Shirt & Pants Pajama Set Men sleepwear</p>,1,13.5,,,,1,100,1,Taxable Goods,"Catalog, Search",,,,90.jpg,Image,90.jpg,Image,90.jpg,Image
FM-46,Bag,simple,Default Category/fashion/men/colthing/jackets & coats&hoodies,base,Sweat shirt Mens crew neck sweatshirt ,"<p> Mens crew neck sweatshirt  V-stitch insert Soft lining Ribbed neckline, neck and cuff  Embroidered branding Cover stitching Garment washed  Woven branded label Material: 80% cotton, 20% polyester  Also available in 100% cotton as well as with 50% cotton and 50% polyester.  Products could be supplied in custom designs, fabrics, sizes, colors, embroidery, patches labels and etc..  </p>","<p> Mens crew neck sweatshirt  V-stitch insert Soft lining Ribbed neckline, neck and cuff  Embroidered branding Cover stitching Garment washed  Woven branded label Material: 80% cotton, 20% polyester  Also available in 100% cotton as well as with 50% cotton and 50% polyester.  Products could be supplied in custom designs, fabrics, sizes, colors, embroidery, patches labels and etc..  </p>",1,4,,,,1,100,1,Taxable Goods,"Catalog, Search",,,,91.jpg,Image,91.jpg,Image,91.jpg,Image
FM-47,Bag,simple,Default Category/fashion/men/colthing/jackets & coats&hoodies,base,Men Hoodie Sportswear,<p> Men Hoodie Sportswear Mens Clothing Streetwear Blank Sport Oversized Hoodies High Quality Wholesale Men's Tops  </p>,<p> Men Hoodie Sportswear Mens Clothing Streetwear Blank Sport Oversized Hoodies High Quality Wholesale Men's Tops  </p>,1,6,,,,1,100,1,Taxable Goods,"Catalog, Search",,,,92.jpg,Image,92.jpg,Image,92.jpg,Image
FM-48,Bag,simple,Default Category/fashion/men/colthing/jackets & coats&hoodies,base, Bronze Metallic Bomber Jacket,<p> Bronze Metallic Bomber Jacket High Rated For Fashion  </p>,<p> Bronze Metallic Bomber Jacket High Rated For Fashion  </p>,1,14,,,,1,100,1,Taxable Goods,"Catalog, Search",,,,93.jpg,Image,93.jpg,Image,93.jpg,Image
FM-49,Bag,simple,Default Category/fashion/men/colthing/jackets & coats&hoodies,base,Man Baseball Leather,<p> OEM ODM Leather Jacket Custom Men letter Man Baseball Leather  </p>,<p> OEM ODM Leather Jacket Custom Men letter Man Baseball Leather  </p>,1,65,,,,1,100,1,Taxable Goods,"Catalog, Search",,,,94.jpg,Image,94.jpg,Image,94.jpg,Image
FM-50,Bag,simple,Default Category/fashion/men/colthing/jackets & coats&hoodies,base, Letterman Baseball Jacket,<p> baseball varsity /Leather Varsity jacket/New Varsity Letterman Baseball Jacket  </p>,<p> baseball varsity /Leather Varsity jacket/New Varsity Letterman Baseball Jacket  </p>,1,26,,,,1,100,1,Taxable Goods,"Catalog, Search",,,,95.jpg,Image,95.jpg,Image,95.jpg,Image
FW-45,Bag,simple,Default Category/fashion/women/bags &accessorirs/cross body bags,base, Elegant Women's PU,<p> Stylish SUSEN Women's Elegant Women's PU Leather Cross Body Bag  </p>,<p> Stylish SUSEN Women's Elegant Women's PU Leather Cross Body Bag  </p>,1,9.52,,,,1,100,1,Taxable Goods,"Catalog, Search",,,,96.jpg,Image,96.jpg,Image,96.jpg,Image
FW-46,Bag,simple,Default Category/fashion/women/bags &accessorirs/cross body bags,base,women's pu leather crossbodi ,<p>  Fashion women's pu leather crossbodi bag 4pcs printed handbags set large ladies shoulder purse sling cross body tote bags </p>,<p>  Fashion women's pu leather crossbodi bag 4pcs printed handbags set large ladies shoulder purse sling cross body tote bags </p>,1,6,,,,1,100,1,Taxable Goods,"Catalog, Search",,,,97.jpg,Image,97.jpg,Image,97.jpg,Image
FW-47,Bag,simple,Default Category/fashion/women/bags &accessorirs/cross body bags,base,Women High Quality Messenger,<p> china Women High Quality Messenger Bags Cross Body PU Leather Mini Bolsas for ladies FemininaShoulder Bag Handbags  </p>,<p> china Women High Quality Messenger Bags Cross Body PU Leather Mini Bolsas for ladies FemininaShoulder Bag Handbags  </p>,1,2.1,,,,1,100,1,Taxable Goods,"Catalog, Search",,,,98.jpg,Image,98.jpg,Image,98.jpg,Image
FW-48,Bag,simple,Default Category/fashion/women/bags &accessorirs/cross body bags,base,women genuine leather,<p> YD-8076 Vintage satchel women genuine leather cross body bags  </p>,<p> YD-8076 Vintage satchel women genuine leather cross body bags  </p>,1,14.8,,,,1,100,1,Taxable Goods,"Catalog, Search",,,,99.jpg,Image,99.jpg,Image,99.jpg,Image
FW-49,Bag,simple,Default Category/fashion/women/bags &accessorirs/cross body bags,base, leather messenger bags women,<p> Hot sale ladies cross body chain bag PU leather messenger bags women  </p>,<p> Hot sale ladies cross body chain bag PU leather messenger bags women  </p>,1,8.23,,,,1,100,1,Taxable Goods,"Catalog, Search",,,,100.jpg,Image,100.jpg,Image,100.jpg,Image
FW-50,Bag,simple,Default Category/fashion/women/bags &accessorirs/evening bages ,base, Women Rhinestone Evening Bag ,<p>  Fashional Design Ladies Crystal Clutch Ring Buckle Handle for Women Rhinestone Evening Bag </p>,<p>  Fashional Design Ladies Crystal Clutch Ring Buckle Handle for Women Rhinestone Evening Bag </p>,1,6,,,,1,100,1,Taxable Goods,"Catalog, Search",,,,101.jpg,Image,101.jpg,Image,101.jpg,Image
FW-51,Bag,simple,Default Category/fashion/women/bags &accessorirs/evening bages ,base,Women Clutch With Long ,<p>  Elegance Rhinestone Evening Bag For Women Clutch With Long Chain </p>,<p>  Elegance Rhinestone Evening Bag For Women Clutch With Long Chain </p>,1,8.9,,,,1,100,1,Taxable Goods,"Catalog, Search",,,,102.jpg,Image,102.jpg,Image,102.jpg,Image
FW-52,Bag,simple,Default Category/fashion/women/bags &accessorirs/evening bages ,base,Women Sexy Leather Party Bags,<p>  Korean Fashion Hot Sale Women Sexy Leather Party Bags Women Clutch Bags </p>,<p>  Korean Fashion Hot Sale Women Sexy Leather Party Bags Women Clutch Bags </p>,1,15,,,,1,100,1,Taxable Goods,"Catalog, Search",,,,103.jpg,Image,103.jpg,Image,103.jpg,Image
FW-53,Bag,simple,Default Category/fashion/women/bags &accessorirs/evening bages ,base, ladies lace evening bags,<p>  ELB041 Ormosias 2018 handmade ladies lace evening bags women nevy blue for party </p>,<p>  ELB041 Ormosias 2018 handmade ladies lace evening bags women nevy blue for party </p>,1,9.97,,,,1,100,1,Taxable Goods,"Catalog, Search",,,,104.jpg,Image,104.jpg,Image,104.jpg,Image
FW-54,Bag,simple,Default Category/fashion/women/bags &accessorirs/evening bages ,base,evening party clutches,<p> Fashion ladies chain muti - color evening party clutches women  </p>,<p> Fashion ladies chain muti - color evening party clutches women  </p>,1,14.5,,,,1,100,1,Taxable Goods,"Catalog, Search",,,,105.jpg,Image,105.jpg,Image,105.jpg,Image
FW-55,Bag,simple,Default Category/fashion/women/bags &accessorirs/backpacks,base,women's leisure bag ,<p>  Fashionable printing canvas bagpack backpack women's leisure bag </p>,<p>  Fashionable printing canvas bagpack backpack women's leisure bag </p>,1,8.31,,,,1,100,1,Taxable Goods,"Catalog, Search",,,,106.jpg,Image,106.jpg,Image,106.jpg,Image
FW-56,Bag,simple,Default Category/fashion/women/bags &accessorirs/backpacks,base,women's Hiking Backpack,<p>  Yiwu 32L Women Sports Outdoor Climbing Travelling Bag Waterproof women's Hiking Backpack </p>,<p>  Yiwu 32L Women Sports Outdoor Climbing Travelling Bag Waterproof women's Hiking Backpack </p>,1,15.1,,,,1,100,1,Taxable Goods,"Catalog, Search",,,,107.jpg,Image,107.jpg,Image,107.jpg,Image
FW-57,Bag,simple,Default Category/fashion/women/bags &accessorirs/backpacks,base,anti theft backpack women,<p>  Fashion bag anti theft backpack women girls with declaration </p>,<p>  Fashion bag anti theft backpack women girls with declaration </p>,1,5.07,,,,1,100,1,Taxable Goods,"Catalog, Search",,,,108.jpg,Image,108.jpg,Image,108.jpg,Image
FW-58,Bag,simple,Default Category/fashion/women/bags &accessorirs/backpacks,base,PU printed pattern backpack,<p>  Fashion women wholesale backpacks travelling backpack PU printed pattern backpack </p>,<p>  Fashion women wholesale backpacks travelling backpack PU printed pattern backpack </p>,1,7,,,,1,100,1,Taxable Goods,"Catalog, Search",,,,109.jpg,Image,109.jpg,Image,109.jpg,Image
FW-59,Bag,simple,Default Category/fashion/women/bags &accessorirs/backpacks,base,leather black color backpack ,<p> MINANDIO New design fashion Women PU leather black color backpack  </p>,<p> MINANDIO New design fashion Women PU leather black color backpack  </p>,1,6.99,,,,1,100,1,Taxable Goods,"Catalog, Search",,,,110.jpg,Image,110.jpg,Image,110.jpg,Image
FW-60,Bag,simple,Default Category/fashion/women/bags &accessorirs/wallets,base,student women wallet,<p> Wholesale PU card holder student women wallet  </p>,<p> Wholesale PU card holder student women wallet  </p>,1,1.6,,,,1,100,1,Taxable Goods,"Catalog, Search",,,,111.jpg,Image,111.jpg,Image,111.jpg,Image
FW-61,Bag,simple,Default Category/fashion/women/bags &accessorirs/wallets,base,Cell phone pidanlu Walle,<p> New lady metal frame wallet Woman Cell phone pidanlu Wallet Leather Purse Long Wholesale Mobile Wallet  </p>,<p> New lady metal frame wallet Woman Cell phone pidanlu Wallet Leather Purse Long Wholesale Mobile Wallet  </p>,1,1.6,,,,1,100,1,Taxable Goods,"Catalog, Search",,,,112.jpg,Image,112.jpg,Image,112.jpg,Image
FW-62,Bag,simple,Default Category/fashion/women/bags &accessorirs/wallets,base, fiber women wallet,<p> The New fashion carbon fiber women wallet  </p>,<p> The New fashion carbon fiber women wallet  </p>,1,1,,,,1,100,1,Taxable Goods,"Catalog, Search",,,,113.jpg,Image,113.jpg,Image,113.jpg,Image
FW-63,Bag,simple,Default Category/fashion/women/bags &accessorirs/wallets,base, lady clutch wallet ,<p>  Fashion women wallet long pu leather purse Baellerry forever lady clutch wallet </p>,<p>  Fashion women wallet long pu leather purse Baellerry forever lady clutch wallet </p>,1,3.2,,,,1,100,1,Taxable Goods,"Catalog, Search",,,,114.png,Image,114.png,Image,114.png,Image
FW-64,Bag,simple,Default Category/fashion/women/bags &accessorirs/wallets,base,women wallets with card slots,<p>   China supplier OEM clutch long zip around cork fabric vegan leather cork wallet women wallets with card slots</p>,<p>   China supplier OEM clutch long zip around cork fabric vegan leather cork wallet women wallets with card slots</p>,1,2.9,,,,1,100,1,Taxable Goods,"Catalog, Search",,,,115.jpg,Image,115.jpg,Image,115.jpg,Image
FM-51,Bag,simple,Default Category/fashion/men/bags &accessorirs/backpacks,base, laptop Backpack ,<p>  AOKING Durable men casual Lightweight Waterproof mochilas backpack rucksack 19 inch laptop bag black laptop Backpack </p>,<p>  AOKING Durable men casual Lightweight Waterproof mochilas backpack rucksack 19 inch laptop bag black laptop Backpack </p>,1,12.38,,,,1,100,1,Taxable Goods,"Catalog, Search",,,,116.jpg,Image,116.jpg,Image,116.jpg,Image
FM-52,Bag,simple,Default Category/fashion/men/bags &accessorirs/backpacks,base,Travel Computer Bag,<p>  Men's Shoulder Bags Waterproof Laptop Backpack Travel Computer Bag </p>,<p>  Men's Shoulder Bags Waterproof Laptop Backpack Travel Computer Bag </p>,1,10.08,,,,1,100,1,Taxable Goods,"Catalog, Search",,,,117.jpg,Image,117.jpg,Image,117.jpg,Image
FM-53,Bag,simple,Default Category/fashion/men/bags &accessorirs/backpacks,base,backpack with earphone,<p> Dropshipping big capacity popular PU man leather backpack fashion travel backpack with earphone hole  </p>,<p> Dropshipping big capacity popular PU man leather backpack fashion travel backpack with earphone hole  </p>,1,4.8,,,,1,100,1,Taxable Goods,"Catalog, Search",,,,118.png,Image,118.png,Image,118.png,Image
FM-54,Bag,simple,Default Category/fashion/men/bags &accessorirs/backpacks,base,Waterproof Travel Backpack ,<p> CYSHMILY Computer Laptop USB Charging Backpack Business Mens Unisex Waterproof Travel Backpack  </p>,<p> CYSHMILY Computer Laptop USB Charging Backpack Business Mens Unisex Waterproof Travel Backpack  </p>,1,5.54,,,,1,100,1,Taxable Goods,"Catalog, Search",,,,119.jpg,Image,119.jpg,Image,119.jpg,Image
FM-55,Bag,simple,Default Category/fashion/men/bags &accessorirs/backpacks,base,usb men backpack ,<p>  2019 new arrivals Tigernu waterproof 15.6 inch anti theft bag backpack usb men backpack </p>,<p>  2019 new arrivals Tigernu waterproof 15.6 inch anti theft bag backpack usb men backpack </p>,1,12.6,,,,1,100,1,Taxable Goods,"Catalog, Search",,,,120.jpg,Image,120.jpg,Image,120.jpg,Image
FM-56,Bag,simple,Default Category/fashion/men/bags &accessorirs/wallets,base, Men's Wallet,<p> wholesale RFID Blocking Money Clip Leather Wallet Credit Card holder with Coin Pocket Mens Men's Wallet  </p>,<p> wholesale RFID Blocking Money Clip Leather Wallet Credit Card holder with Coin Pocket Mens Men's Wallet  </p>,1,4.12,,,,1,100,1,Taxable Goods,"Catalog, Search",,,,121.jpg,Image,121.jpg,Image,121.jpg,Image
FM-57,Bag,simple,Default Category/fashion/men/bags &accessorirs/wallets,base,leather mens wallet ,"<p>  Newest Gents RFID Blocking Wallet ,custom genuine leather mens wallet for men </p>","<p>  Newest Gents RFID Blocking Wallet ,custom genuine leather mens wallet for men </p>",1,5.75,,,,1,100,1,Taxable Goods,"Catalog, Search",,,,122.jpg,Image,122.jpg,Image,122.jpg,Image
FM-58,Bag,simple,Default Category/fashion/men/bags &accessorirs/wallets,base,Money Clip Man Wallet,<p> Best Selling Products Small RFID Blocking Front Pocket Metal Money Clip Man Wallet  </p>,<p> Best Selling Products Small RFID Blocking Front Pocket Metal Money Clip Man Wallet  </p>,1,2.56,,,,1,100,1,Taxable Goods,"Catalog, Search",,,,123.jpg,Image,123.jpg,Image,123.jpg,Image
FM-59,Bag,simple,Default Category/fashion/men/bags &accessorirs/wallets,base,blocking men wallet,<p> American popular style promotional mini slim card wallet black top grain leather RFID blocking men wallet  </p>,<p> American popular style promotional mini slim card wallet black top grain leather RFID blocking men wallet  </p>,1,4.3,,,,1,100,1,Taxable Goods,"Catalog, Search",,,,124.jpg,Image,124.jpg,Image,124.jpg,Image
FM-60,Bag,simple,Default Category/fashion/men/bags &accessorirs/wallets,base,men wallet for trave,<p>  Hot sales high quality genuine leather RFID wallet men wallet for travel </p>,<p>  Hot sales high quality genuine leather RFID wallet men wallet for travel </p>,1,3.09,,,,1,100,1,Taxable Goods,"Catalog, Search",,,,125.jpg,Image,125.jpg,Image,125.jpg,Image
FM-61,Bag,simple,Default Category/fashion/men/bags &accessorirs/massenger bages,base,Messenger Men Sling Bag ,<p>  VICUNA POLO Brand China Suppliers Classic Fashion Crossbody Bag Wholesale Low MOQ Soft PU Leather Black Messenger Men Sling Bag </p>,<p>  VICUNA POLO Brand China Suppliers Classic Fashion Crossbody Bag Wholesale Low MOQ Soft PU Leather Black Messenger Men Sling Bag </p>,1,6.19,,,,1,100,1,Taxable Goods,"Catalog, Search",,,,126.jpg,Image,126.jpg,Image,126.jpg,Image
FM-62,Bag,simple,Default Category/fashion/men/bags &accessorirs/massenger bages,base, Messenger Bag For Man ,<p>  Hot Sell Men's Messenger Bags USB Charging Waterproof Shoulder Casual Travel Oxford Men Sling Bag Messenger Bag For Man </p>,<p>  Hot Sell Men's Messenger Bags USB Charging Waterproof Shoulder Casual Travel Oxford Men Sling Bag Messenger Bag For Man </p>,1,7.5,,,,1,100,1,Taxable Goods,"Catalog, Search",,,,127.jpg,Image,127.jpg,Image,127.jpg,Image
FM-63,Bag,simple,Default Category/fashion/men/bags &accessorirs/massenger bages,base,Messenger shoulder bag,<p>  Black color nice price Mens Messenger shoulder bag </p>,<p>  Black color nice price Mens Messenger shoulder bag </p>,1,1.5,,,,1,100,1,Taxable Goods,"Catalog, Search",,,,128.jpg,Image,128.jpg,Image,128.jpg,Image
FM-64,Bag,simple,Default Category/fashion/men/bags &accessorirs/massenger bages,base,men custom messenger bag ,<p>  Multi-function shoulder classic leather diagonal men custom messenger bag </p>,<p>  Multi-function shoulder classic leather diagonal men custom messenger bag </p>,1,10,,,,1,100,1,Taxable Goods,"Catalog, Search",,,,129.jpg,Image,129.jpg,Image,129.jpg,Image
FM-65,Bag,simple,Default Category/fashion/men/bags &accessorirs/massenger bages,base,mini shoulder messenger bag ,<p>  Fashion OEM waterproof durable shoulder bag men mini shoulder messenger bag </p>,<p>  Fashion OEM waterproof durable shoulder bag men mini shoulder messenger bag </p>,1,1.55,,,,1,100,1,Taxable Goods,"Catalog, Search",,,,130.jpg,Image,130.jpg,Image,130.jpg,Image
FM-66,Bag,simple,Default Category/fashion/men/bags &accessorirs/belts,base,leather man belt,<p> FREE SHIPPING SAMPLE high quality different color fashion genuine leather man belt  </p>,<p> FREE SHIPPING SAMPLE high quality different color fashion genuine leather man belt  </p>,1,4,,,,1,100,1,Taxable Goods,"Catalog, Search",,,,131.jpg,Image,131.jpg,Image,131.jpg,Image
FM-67,Bag,simple,Default Category/fashion/men/bags &accessorirs/belts,base, reversible man belt,<p> Black brown reversible man belt canvas belt with rotation buckle for dress </p>,<p> Black brown reversible man belt canvas belt with rotation buckle for dress </p>,1,1.99,,,,1,100,1,Taxable Goods,"Catalog, Search",,,,132.jpg,Image,132.jpg,Image,132.jpg,Image
FM-68,Bag,simple,Default Category/fashion/men/bags &accessorirs/belts,base,logo ratchet belt,<p>  Brand custom Genuine Leather belt man's automatic belts for men cow hide can print logo ratchet belt </p>,<p>  Brand custom Genuine Leather belt man's automatic belts for men cow hide can print logo ratchet belt </p>,1,2,,,,1,100,1,Taxable Goods,"Catalog, Search",,,,133.jpg,Image,133.jpg,Image,133.jpg,Image
FM-69,Bag,simple,Default Category/fashion/men/bags &accessorirs/belts,base,Men belt leather manufacturers ,"<p>  Shenzhen men belt leather, Genuine leather belt for men, Men belt leather manufacturers </p>","<p>  Shenzhen men belt leather, Genuine leather belt for men, Men belt leather manufacturers </p>",1,6,,,,1,100,1,Taxable Goods,"Catalog, Search",,,,134.jpg,Image,134.jpg,Image,134.jpg,Image
FM-70,Bag,simple,Default Category/fashion/men/bags &accessorirs/belts,base,New Automatic Buckle,<p>  Custom Logo Men Dress Ratchet Leather Belt with Latest New Automatic Buckle </p>,<p>  Custom Logo Men Dress Ratchet Leather Belt with Latest New Automatic Buckle </p>,1,2.75,,,,1,100,1,Taxable Goods,"Catalog, Search",,,,135.jpg,Image,135.jpg,Image,135.jpg,Image
FM-71,Bag,simple,Default Category/fashion/men/bags &accessorirs/hats &caps,base, Men Cap and Hat With Embroidery Logo,<p>  Custom Design Snapback/ baseball Hat/ Men Cap and Hat With Embroidery Logo </p>,<p>  Custom Design Snapback/ baseball Hat/ Men Cap and Hat With Embroidery Logo </p>,1,2.2,,,,1,100,1,Taxable Goods,"Catalog, Search",,,,136.jpg,Image,136.jpg,Image,136.jpg,Image
FM-72,Bag,simple,Default Category/fashion/men/bags &accessorirs/hats &caps,base, Baseball Cap and Hat ,<p>  Custom Football Fan National Logo Baseball Cap and Hat </p>,<p>  Custom Football Fan National Logo Baseball Cap and Hat </p>,1,1.2,,,,1,100,1,Taxable Goods,"Catalog, Search",,,,137.jpg,Image,137.jpg,Image,137.jpg,Image
FM-73,Bag,simple,Default Category/fashion/men/bags &accessorirs/hats &caps,base, caps snapback cap for man,<p>  2016 promotional father's day gift hats &amp caps snapback cap for man men women new black baseball fashion fitted </p>,<p>  2016 promotional father's day gift hats &amp caps snapback cap for man men women new black baseball fashion fitted </p>,1,1.87,,,,1,100,1,Taxable Goods,"Catalog, Search",,,,138.jpg,Image,138.jpg,Image,138.jpg,Image
FM-74,Bag,simple,Default Category/fashion/men/bags &accessorirs/hats &caps,base, caps hats for men,<p>  Snapback wholesale hip hop caps/summer cap &amp hat/wholesale caps hats for men </p>,<p>  Snapback wholesale hip hop caps/summer cap &amp hat/wholesale caps hats for men </p>,1,1.65,,,,1,100,1,Taxable Goods,"Catalog, Search",,,,139.jpg,Image,139.jpg,Image,139.jpg,Image
FM-75,Bag,simple,Default Category/fashion/men/bags &accessorirs/hats &caps,base,new black baseball fashion fitted,<p> 2016 promotional father's day gift hats &amp caps snapback cap for man men women new black baseball fashion fitted  </p>,<p> 2016 promotional father's day gift hats &amp caps snapback cap for man men women new black baseball fashion fitted  </p>,1,1.87,,,,1,100,1,Taxable Goods,"Catalog, Search",,,,140.jpg,Image,140.jpg,Image,140.jpg,Image
FM-76,Bag,simple,Default Category/fashion/men/bags &accessorirs/cuffinks,base,engrave masonic cuffinks,"<p>  Masonic silver cufflink and tie pin, souvenir masonic cufflink tie clip, engrave masonic cuffinks </p>","<p>  Masonic silver cufflink and tie pin, souvenir masonic cufflink tie clip, engrave masonic cuffinks </p>",1,1,,,,1,100,1,Taxable Goods,"Catalog, Search",,,,141.jpg,Image,141.jpg,Image,141.jpg,Image
FM-77,Bag,simple,Default Category/fashion/men/bags &accessorirs/cuffinks,base, custom metal cuffinks,"<p> Ghana sec tech sch takoradi cufflinks, custom metal cuffinks  </p>","<p> Ghana sec tech sch takoradi cufflinks, custom metal cuffinks  </p>",1,1,,,,1,100,1,Taxable Goods,"Catalog, Search",,,,142.jpg,Image,142.jpg,Image,142.jpg,Image
FM-78,Bag,simple,Default Category/fashion/men/bags &accessorirs/cuffinks,base, Steel Mens Cufflink,<p> >>>2017 Vintage Black Square Stainless Steel Mens Cufflinks  </p>,<p> >>>2017 Vintage Black Square Stainless Steel Mens Cufflinks  </p>,1,1.31,,,,1,100,1,Taxable Goods,"Catalog, Search",,,,143.jpg,Image,143.jpg,Image,143.jpg,Image
FM-79,Bag,simple,Default Category/fashion/men/bags &accessorirs/cuffinks,base, Monogram Cufflinks,<p>  Inspire stainless steel jewelry custom mens fashion personalized Gun Metal Gunmetal Monogram Cufflinks </p>,<p>  Inspire stainless steel jewelry custom mens fashion personalized Gun Metal Gunmetal Monogram Cufflinks </p>,1,2,,,,1,100,1,Taxable Goods,"Catalog, Search",,,,144.jpg,Image,144.jpg,Image,144.jpg,Image
FM-80,Bag,simple,Default Category/fashion/men/bags &accessorirs/cuffinks,base,silver cufflinks for men,<p>  Cheap personalized steel blank silver cufflinks for men </p>,<p>  Cheap personalized steel blank silver cufflinks for men </p>,1,1.25,,,,1,100,1,Taxable Goods,"Catalog, Search",,,,145.jpg,Image,145.jpg,Image,145.jpg,Image
FM-81,Bag,simple,Default Category/fashion/men/bags &accessorirs/rings,base, ring designs for men,<p> Xuping women man latest finger black engagement simple neutral stainless steel ring+jewelry men's ring+gold ring designs for men  </p>,<p> Xuping women man latest finger black engagement simple neutral stainless steel ring+jewelry men's ring+gold ring designs for men  </p>,1,0.5,,,,1,100,1,Taxable Goods,"Catalog, Search",,,,146.jpg,Image,146.jpg,Image,146.jpg,Image
FM-82,Bag,simple,Default Category/fashion/men/bags &accessorirs/rings,base,Popular Men Titanium Rings ,"<p> Marlary Top Quality Wholesale Jewelry Blank Stainless Steel Ring Man ,Popular Men Titanium Rings Blanks  </p>","<p> Marlary Top Quality Wholesale Jewelry Blank Stainless Steel Ring Man ,Popular Men Titanium Rings Blanks  </p>",1,1.85,,,,1,100,1,Taxable Goods,"Catalog, Search",,,,147.jpg,Image,147.jpg,Image,147.jpg,Image
FM-83,Bag,simple,Default Category/fashion/men/bags &accessorirs/rings,base,Men Unisex Ring,<p> SJ One Piece Wholesale Vintage 925 Sterling Silver Round Shape Blue Natural Gemstone Lapis Lazuli Flexible Open Men Unisex Ring  </p>,<p> SJ One Piece Wholesale Vintage 925 Sterling Silver Round Shape Blue Natural Gemstone Lapis Lazuli Flexible Open Men Unisex Ring  </p>,1,10.13,,,,1,100,1,Taxable Goods,"Catalog, Search",,,,148.jpg,Image,148.jpg,Image,148.jpg,Image
FM-84,Bag,simple,Default Category/fashion/men/bags &accessorirs/rings,base, Steel Natural Stone Rings,<p> Wedding Engagement Men's Stainless Steel Natural Stone Rings With Big Black Agate  </p>,<p> Wedding Engagement Men's Stainless Steel Natural Stone Rings With Big Black Agate  </p>,1,2.75,,,,1,100,1,Taxable Goods,"Catalog, Search",,,,149.jpg,Image,149.jpg,Image,149.jpg,Image
FM-85,Bag,simple,Default Category/fashion/men/bags &accessorirs/rings,base, steel finger ring,<p> Cool design men's ring punk stainless steel finger rings  </p>,<p> Cool design men's ring punk stainless steel finger rings  </p>,1,0.8,,,,1,100,1,Taxable Goods,"Catalog, Search",,,,150.jpg,Image,150.jpg,Image,150.jpg,Image
FW-66,Bag,simple,Default Category/fashion/women/shoes/Athletic,base,Athletic Sport Shoes,<p> Customize Your Own Brand Women Lightweight Casual Walking Athletic Sport Shoes  </p>,<p> Customize Your Own Brand Women Lightweight Casual Walking Athletic Sport Shoes  </p>,1,9,,,,1,100,1,Taxable Goods,"Catalog, Search",,,,151.jpg,Image,151.jpg,Image,151.jpg,Image
FW-67,Bag,simple,Default Category/fashion/women/shoes/Athletic,base, Women Sneakers Shoe,<p>  GT-14655-4 LUCA Hot Sale Fashion Athletic Women Running Sports Shoes Men And Women Sneakers Shoes </p>,<p>  GT-14655-4 LUCA Hot Sale Fashion Athletic Women Running Sports Shoes Men And Women Sneakers Shoes </p>,1,7,,,,1,100,1,Taxable Goods,"Catalog, Search",,,,152.jpg,Image,152.jpg,Image,152.jpg,Image
FW-68,Bag,simple,Default Category/fashion/women/shoes/Athletic,base,Running Athletic Sport Sho,<p>  Custom Export 2018 Woman Running Athletic Sport Shoe </p>,<p>  Custom Export 2018 Woman Running Athletic Sport Shoe </p>,1,5.9,,,,1,100,1,Taxable Goods,"Catalog, Search",,,,153.jpg,Image,153.jpg,Image,153.jpg,Image
FW-69,Bag,simple,Default Category/fashion/women/shoes/Athletic,base, gym running shoes,<p>  Nonmark sole breathable mesh athletic women's fitness gym running shoes </p>,<p>  Nonmark sole breathable mesh athletic women's fitness gym running shoes </p>,1,6.95,,,,1,100,1,Taxable Goods,"Catalog, Search",,,,154.jpg,Image,154.jpg,Image,154.jpg,Image
FW-70,Bag,simple,Default Category/fashion/women/shoes/Athletic,base,Sport Walking Running Shoes,<p>  Baolite Women's Lightweight Sneakers Casual Athletic Sport Walking Running Shoes </p>,<p>  Baolite Women's Lightweight Sneakers Casual Athletic Sport Walking Running Shoes </p>,1,6.5,,,,1,100,1,Taxable Goods,"Catalog, Search",,,,155.jpg,Image,155.jpg,Image,155.jpg,Image
