sku,attribute_set_code,product_type,categories,product_websites,name,description,short_description,weight,price,special_price,special_price_from_date,special_price_to_date,product_online,qty,is_in_stock,tax_class_name,visibility,meta_title,meta_keywords,meta_description,base_image,base_image_label,small_image,small_image_label,thumbnail_image,thumbnail_image_label,errors
BE-01,Bag,simple,"Default Category/Electronics/pc Components/Processors",base,"A10 (New & Original)Tablet PC chip CPU host processors","<p><span class=""attr-name J-attr-name"" title=""D/C"">D/C:</span>2014+</p>
<p><span class=""attr-name J-attr-name"" title=""Package"">Package:</span>BGA</p>
<div class=""do-entry-title""><span class=""attr-name J-attr-name"" title=""Model Number"">Model Number:</span>A10</div>
<p><span class=""attr-name J-attr-name"" title=""Type"">Type:</span>Logic ICs</p>
<p><span class=""attr-name J-attr-name"" title=""Brand Name"">Brand Name:</span>Original Brand</p>
<p><span class=""attr-name J-attr-name"" title=""operating temperature"">operating temperature:</span>design c</p>
<p><span class=""attr-name J-attr-name"" title=""dissipation power"">dissipation power:</span>design w</p>
<p><span class=""attr-name J-attr-name"" title=""delivery time"">delivery time:</span>1-3 days after order confirmed.</p>
<p><span class=""attr-name J-attr-name"" title=""Express"">Express:</span>FEDEX,TNT.DHL.EMS.etc.</p>
<p><span class=""attr-name J-attr-name"" title=""IC"">IC:</span>Electronic components</p>
<p><span class=""attr-name J-attr-name"" title=""Electrical supply"">Electrical supply:</span>All parts</p>
<p><span class=""attr-name J-attr-name"" title=""Description"">Description:</span>Integrated circuits components</p> ","<p><span class=""attr-name J-attr-name"" title=""D/C"">D/C:</span>2014+</p>
<p><span class=""attr-name J-attr-name"" title=""Package"">Package:</span>BGA</p>
<div class=""do-entry-title""><span class=""attr-name J-attr-name"" title=""Model Number"">Model Number:</span>A10</div>
<p><span class=""attr-name J-attr-name"" title=""Type"">Type:</span>Logic ICs</p>
<p><span class=""attr-name J-attr-name"" title=""Brand Name"">Brand Name:</span>Original Brand</p>
<p><span class=""attr-name J-attr-name"" title=""operating temperature"">operating temperature:</span>design c</p>
<p><span class=""attr-name J-attr-name"" title=""dissipation power"">dissipation power:</span>design w</p>
<p><span class=""attr-name J-attr-name"" title=""delivery time"">delivery time:</span>1-3 days after order confirmed.</p>
<p><span class=""attr-name J-attr-name"" title=""Express"">Express:</span>FEDEX,TNT.DHL.EMS.etc.</p>
<p><span class=""attr-name J-attr-name"" title=""IC"">IC:</span>Electronic components</p>
<p><span class=""attr-name J-attr-name"" title=""Electrical supply"">Electrical supply:</span>All parts</p>
<p><span class=""attr-name J-attr-name"" title=""Description"">Description:</span>Integrated circuits components</p> ",1,10.00,,,,1,100,1,"Taxable Goods","Catalog, Search",,,,1.jpg,Image,1.jpg,Image,1.jpg,Image,"Category "" has not been created. URL key for specified store already exists."
