sku,attribute_set_code,product_type,categories,product_websites,name,description,short_description,weight,price,special_price,special_price_from_date,special_price_to_date,product_online,qty,is_in_stock,tax_class_name,visibility,meta_title,meta_keywords,meta_description,base_image,base_image_label,small_image,small_image_label,thumbnail_image,thumbnail_image_label
FW-01,Bag,simple,Default Category/fashion/women/colthing/dresses,base,Wholesale Dress,<p>2018 Women Apparel Offer Shoulder Embroidered Design Wholesale Dress</p>,<p>2018 Women Apparel Offer Shoulder Embroidered Design Wholesale Dress</p>,1,5.91,3.91,04/25/2019,5/10/2019,1,100,1,Taxable Goods,"Catalog, Search",,,,1.JPG,Image,1.JPG,Image,1.JPG,Image
FW-02,Bag,simple,Default Category/fashion/women/colthing/dresses,base,fashion dress,<p>women clothing 2017 mix colour off the shoulder cotton fashion dress</p>,<p>women clothing 2017 mix colour off the shoulder cotton fashion dress</p>,1,3,1,04/25/2019,5/10/2019,1,100,1,Taxable Goods,"Catalog, Search",,,,2.JPG,Image,2.JPG,Image,2.JPG,Image
FW-03,Bag,simple,Default Category/fashion/women/colthing/dresses,,Waistline Women Dress,ASM ANNA 2019 New Summer Women Clothing Elegant Slim Thin Strapless Boat Neck Off Shoulder Waistline Women Dress</p>,ASM ANNA 2019 New Summer Women Clothing Elegant Slim Thin Strapless Boat Neck Off Shoulder Waistline Women Dress</p>,1,27.39,25.39,04/25/2019,5/10/2019,1,100,1,Taxable Goods,"Catalog, Search",,,,3.JPG,Image,3.JPG,Image,3.JPG,Image
FW-04,Bag,simple,Default Category/fashion/women/colthing/dresses,,dress shirt,<p>Gray evening stretch print fabric for ladies high waist half sleeve maxi women printed dress shirt</p>,<p>Gray evening stretch print fabric for ladies high waist half sleeve maxi women printed dress shirt</p>,1,15.6,13.6,04/25/2019,5/10/2019,1,100,1,Taxable Goods,"Catalog, Search",,,,4.JPG,Image,4.JPG,Image,4.JPG,Image
FW-05,Bag,simple,Default Category/fashion/women/colthing/dresses,,Chiffon Dress,<p>Irufushi Superior High Quality New Fashion Retro Vintage Casual Slim fit Floral Caramel Breathable Girl/Women Chiffon Dress</p>,<p>Irufushi Superior High Quality New Fashion Retro Vintage Casual Slim fit Floral Caramel Breathable Girl/Women Chiffon Dress</p>,1,14,12,04/25/2019,5/10/2019,1,100,1,Taxable Goods,"Catalog, Search",,,,5.JPG,Image,5.JPG,Image,5.JPG,Image
FW-06,Bag,simple,Default Category/fashion/women/colthing/jumpsuits,,Denim Cargo Jumpsuit,<p> Sleeveless Denim Cargo Jumpsuit Women (Accept OEM)  </p>,<p> Sleeveless Denim Cargo Jumpsuit Women (Accept OEM)  </p>,1,10,8,04/25/2019,5/10/2019,1,100,1,Taxable Goods,"Catalog, Search",,,,6.JPG,Image,6.JPG,Image,6.JPG,Image
FW-07,Bag,simple,Default Category/fashion/women/colthing/jumpsuits,,Jumpsuits for OEM,<p> 2018 women Jumpsuits for OEM ODM  </p>,<p> 2018 women Jumpsuits for OEM ODM  </p>,1,23,21,04/25/2019,5/10/2019,1,100,1,Taxable Goods,"Catalog, Search",,,,7.JPG,Image,7.JPG,Image,7.JPG,Image
FW-08,Bag,simple,Default Category/fashion/women/colthing/jumpsuits,,Ladies Jumpsuit,<p>  Newest Sleeveless Belt Fashion Women Ladies Jumpsuit </p>,<p>  Newest Sleeveless Belt Fashion Women Ladies Jumpsuit </p>,1,3,1,04/25/2019,5/10/2019,1,100,1,Taxable Goods,"Catalog, Search",,,,8.JPG,Image,8.JPG,Image,8.JPG,Image
FW-09,Bag,simple,Default Category/fashion/women/colthing/jumpsuits,,bodycon jumpsuit,<p>  Wholesaler cross striped 100% linen clothing women bodycon jumpsuit </p>,<p>  Wholesaler cross striped 100% linen clothing women bodycon jumpsuit </p>,1,12.5,10.5,04/25/2019,5/10/2019,1,100,1,Taxable Goods,"Catalog, Search",,,,9.JPG,Image,9.JPG,Image,9.JPG,Image
FW-10,Bag,simple,Default Category/fashion/women/colthing/jumpsuits,,Suspender Jumpsuits,<p> Feelingirl New Fashionblack Front Button Women Suspender Jumpsuits  </p>,<p> Feelingirl New Fashionblack Front Button Women Suspender Jumpsuits  </p>,1,7.63,5.63,04/25/2019,5/10/2019,1,100,1,Taxable Goods,"Catalog, Search",,,,10.JPG,Image,10.JPG,Image,10.JPG,Image
FW-11,Bag,simple,Default Category/fashion/women/colthing/tops,, Lady's Top Blouse,<p> High-end Custom Models White Ruffle Front Short Sleeve Solid Pleated Lady's Top Blouse for Women  </p>,<p> High-end Custom Models White Ruffle Front Short Sleeve Solid Pleated Lady's Top Blouse for Women  </p>,1,8,6,04/25/2019,5/10/2019,1,100,1,Taxable Goods,"Catalog, Search",,,,11.JPG,Image,11.JPG,Image,11.JPG,Image
FW-12,Bag,simple,Default Category/fashion/women/colthing/tops,,Charcoal Garden,<p> New Women Tops With Charcoal Garden Notch Neck Pin Tuck Tunic Women Blouse Women Clothing  </p>,<p> New Women Tops With Charcoal Garden Notch Neck Pin Tuck Tunic Women Blouse Women Clothing  </p>,1,9.47,7.47,04/25/2019,5/10/2019,1,100,1,Taxable Goods,"Catalog, Search",,,,12.JPG,Image,12.JPG,Image,12.JPG,Image
FW-13,Bag,simple,Default Category/fashion/women/colthing/tops,,V-neck shirts,<p>  2019 Spring Sexy V-neck shirts 100% Silk TOP Blue Green Printed Women blouse </p>,<p>  2019 Spring Sexy V-neck shirts 100% Silk TOP Blue Green Printed Women blouse </p>,1,27.8,25.8,04/25/2019,5/10/2019,1,100,1,Taxable Goods,"Catalog, Search",,,,13.JPG,Image,13.JPG,Image,13.JPG,Image
FW-14,Bag,simple,Default Category/fashion/women/colthing/tops,,Casual Tops,<p>  TOP096 China Manufacturer Women Plain Color Casual Tops 2018 </p>,<p>  TOP096 China Manufacturer Women Plain Color Casual Tops 2018 </p>,1,5.8,3.8,04/25/2019,5/10/2019,1,100,1,Taxable Goods,"Catalog, Search",,,,14.JPG,Image,14.JPG,Image,14.JPG,Image
FW-15,Bag,simple,Default Category/fashion/women/colthing/tops,,beaded panel top,<p> EU fashion plaid raglan crewneck pleat dolman beaded panel top  </p>,<p> EU fashion plaid raglan crewneck pleat dolman beaded panel top  </p>,1,17,15,04/25/2019,5/10/2019,1,100,1,Taxable Goods,"Catalog, Search",,,,15.JPG,Image,15.JPG,Image,15.JPG,Image
FW-16,Bag,simple,Default Category/fashion/women/colthing/jeans,, fancy cheap denim jeans,<p>  latest low price jeans trousers women fancy cheap denim jeans in 2018 </p>,<p>  latest low price jeans trousers women fancy cheap denim jeans in 2018 </p>,1,9.3,7.3,04/25/2019,5/10/2019,1,100,1,Taxable Goods,"Catalog, Search",,,,16.JPG,Image,16.JPG,Image,16.JPG,Image
FW-17,Bag,simple,Default Category/fashion/women/colthing/jeans,, Treated Women Jeans,<p>  Top Quality Skinny Girl Low Waist Treated Women Jeans </p>,<p>  Top Quality Skinny Girl Low Waist Treated Women Jeans </p>,1,6,4,04/25/2019,5/10/2019,1,100,1,Taxable Goods,"Catalog, Search",,,,17.PNG,Image,17.PNG,Image,17.PNG,Image
FW-18,Bag,simple,Default Category/fashion/women/colthing/jeans,,Disstressed Women Jean,<p> Hot Sale Sexy Skinny Ripped Disstressed Women Jeans  </p>,<p> Hot Sale Sexy Skinny Ripped Disstressed Women Jeans  </p>,1,10,8,04/25/2019,5/10/2019,1,100,1,Taxable Goods,"Catalog, Search",,,,18.JPG,Image,18.JPG,Image,18.JPG,Image
FW-19,Bag,simple,Default Category/fashion/women/colthing/jeans,,Pencil skinny women Jeans ,<p> 2018 Fashion private label High Waist Denim Pencil skinny women Jeans  </p>,<p> 2018 Fashion private label High Waist Denim Pencil skinny women Jeans  </p>,1,5.7,3.7,04/25/2019,5/10/2019,1,100,1,Taxable Goods,"Catalog, Search",,,,19.JPG,Image,19.JPG,Image,19.JPG,Image
FW-20,Bag,simple,Default Category/fashion/women/colthing/jeans,,Skinny Women Denim Jeans,<p> 2018 Latest Fashion Washed Embroidery Jeans Sexy Skinny Women Denim Jeans Pants  </p>,<p> 2018 Latest Fashion Washed Embroidery Jeans Sexy Skinny Women Denim Jeans Pants  </p>,1,8,6,04/25/2019,5/10/2019,1,100,1,Taxable Goods,"Catalog, Search",,,,20.JPG,Image,20.JPG,Image,20.JPG,Image
FW-21,Bag,simple,Default Category/fashion/women/colthing/sportswear,,Women's Yoga Fitness Pants,<p>  New Factory Price Sportswear Women's Yoga Fitness Pants </p>,<p>  New Factory Price Sportswear Women's Yoga Fitness Pants </p>,1,6.5,4.5,04/25/2019,5/10/2019,1,100,1,Taxable Goods,"Catalog, Search",,,,21.JPG,Image,21.JPG,Image,21.JPG,Image
FW-22,Bag,simple,Default Category/fashion/women/colthing/sportswear,, Women's Cropped Yoga Leggings Pants,<p>  Custom Breathable Women Sportswear Compression Tight Women's Cropped Yoga Leggings Pants </p>,<p>  Custom Breathable Women Sportswear Compression Tight Women's Cropped Yoga Leggings Pants </p>,1,10.79,,,,1,100,1,Taxable Goods,"Catalog, Search",,,,22.JPG,Image,22.JPG,Image,22.JPG,Image
FW-23,Bag,simple,Default Category/fashion/women/colthing/sportswear,,Sportswear Cheap Price,<p>   Plain Tracksuits Women Two Piece Jogger Sportswear Cheap Price</p>,<p>   Plain Tracksuits Women Two Piece Jogger Sportswear Cheap Price</p>,1,8.75,,,,1,100,1,Taxable Goods,"Catalog, Search",,,,23.JPG,Image,23.JPG,Image,23.JPG,Image
FW-24,Bag,simple,Default Category/fashion/women/colthing/sportswear,, New Design Sexy Activewear Suits,<p>  Toplook Snake Print Yoga Set New Design Sexy Activewear Suits Workout Clothing For Women Sportswear S83 </p>,<p>  Toplook Snake Print Yoga Set New Design Sexy Activewear Suits Workout Clothing For Women Sportswear S83 </p>,1,5,,,,1,100,1,Taxable Goods,"Catalog, Search",,,,24.JPG,Image,24.JPG,Image,24.JPG,Image
FW-25,Bag,simple,Default Category/fashion/women/colthing/sportswear,, ladies leggings sublimation,<p>  Wholesale young ladies leggings sublimation printed custom yoga leggins women sportswear </p>,<p>  Wholesale young ladies leggings sublimation printed custom yoga leggins women sportswear </p>,1,9.11,,,,1,100,1,Taxable Goods,"Catalog, Search",,,,25.JPG,Image,25.JPG,Image,25.JPG,Image
FW-26,Bag,simple,Default Category/fashion/women/colthing/sleepwear,, Beautiful Wedding Floral ,<p> Beautiful Wedding Floral Satin Robe Kimono Printing Robe  </p>,<p> Beautiful Wedding Floral Satin Robe Kimono Printing Robe  </p>,1,5,,,,1,100,1,Taxable Goods,"Catalog, Search",,,,26.JPG,Image,26.JPG,Image,26.JPG,Image
FW-27,Bag,simple,Default Category/fashion/women/colthing/sleepwear,,women's poplin sleepwear,<p>  custom your logo women's poplin sleepwear ladies home wear suits solid pajamas </p>,<p>  custom your logo women's poplin sleepwear ladies home wear suits solid pajamas </p>,1,2.8,,,,1,100,1,Taxable Goods,"Catalog, Search",,,,27.JPG,Image,27.JPG,Image,27.JPG,Image
FW-28,Bag,simple,Default Category/fashion/women/colthing/sleepwear,,Night Dress Sleepwear,<p> Wholesale Quality Cheap Long Sleeve Night gown japanese kimono silk pyjamas for women/Women's Robe Pink Night Dress Sleepwear  </p>,<p> Wholesale Quality Cheap Long Sleeve Night gown japanese kimono silk pyjamas for women/Women's Robe Pink Night Dress Sleepwear  </p>,1,3.7,,,,1,100,1,Taxable Goods,"Catalog, Search",,,,28.JPG,Image,28.JPG,Image,28.JPG,Image
FW-29,Bag,simple,Default Category/fashion/women/colthing/sleepwear,,Sexy Satin Sleepwear,<p>  Lady Sleepwear Manufacturer Summer Printed Woman Sexy Satin Sleepwear </p>,<p>  Lady Sleepwear Manufacturer Summer Printed Woman Sexy Satin Sleepwear </p>,1,11.5,,,,1,100,1,Taxable Goods,"Catalog, Search",,,,29.JPG,Image,29.JPG,Image,29.JPG,Image
FW-30,Bag,simple,Default Category/fashion/women/colthing/sleepwear,,pajamas women sleepwear,<p>  Hot selling pajamas women sleepwear </p>,<p>  Hot selling pajamas women sleepwear </p>,1,7.85,,,,1,100,1,Taxable Goods,"Catalog, Search",,,,30.JPG,Image,30.JPG,Image,30.JPG,Image
FW-31,Bag,simple,Default Category/fashion/women/colthing/skirts,, lady tulle skirt,<p>  Latest long women wholesale lady tulle skirt </p>,<p>  Latest long women wholesale lady tulle skirt </p>,1,8.5,,,,1,100,1,Taxable Goods,"Catalog, Search",,,,31.JPG,Image,31.JPG,Image,31.JPG,Image
FW-32,Bag,simple,Default Category/fashion/women/colthing/skirts,,embroidery suede skirt,<p>  2018 Summer A-Line skirt women embroidery suede skirt </p>,<p>  2018 Summer A-Line skirt women embroidery suede skirt </p>,1,10,,,,1,100,1,Taxable Goods,"Catalog, Search",,,,32.JPG,Image,32.JPG,Image,32.JPG,Image
FW-33,Bag,simple,Default Category/fashion/women/colthing/skirts,,New Design Women Skir,"<p> Summer Skirts Women, Wholesale Sexy Skirt 2017, New Design Women Skirt  </p>","<p> Summer Skirts Women, Wholesale Sexy Skirt 2017, New Design Women Skirt  </p>",1,2.5,,,,1,100,1,Taxable Goods,"Catalog, Search",,,,33.JPG,Image,33.JPG,Image,33.JPG,Image
FW-34,Bag,simple,Default Category/fashion/women/colthing/skirts,, Women Pleated Skirts ,<p> Factory Price Wholesale Casual Long Pink Women Pleated Skirts  </p>,<p> Factory Price Wholesale Casual Long Pink Women Pleated Skirts  </p>,1,9.45,,,,1,100,1,Taxable Goods,"Catalog, Search",,,,34.JPG,Image,34.JPG,Image,34.JPG,Image
FW-35,Bag,simple,Default Category/fashion/women/colthing/skirts,,Ruffles Skirt Autumn,<p>  Casual Mid-calf Beading Lady Maxi Ruffles Skirt Autumn Women Skirts </p>,<p>  Casual Mid-calf Beading Lady Maxi Ruffles Skirt Autumn Women Skirts </p>,1,10.77,,,,1,100,1,Taxable Goods,"Catalog, Search",,,,35.JPG,Image,35.JPG,Image,35.JPG,Image
FW-36,Bag,simple,Default Category/fashion/women/colthing/jackets & coats,,faux fur pu jacket leather,<p> Custom suede slim outerwear women winter faux fur pu jacket leather coat  </p>,<p> Custom suede slim outerwear women winter faux fur pu jacket leather coat  </p>,1,25,,,,1,100,1,Taxable Goods,"Catalog, Search",,,,36.JPG,Image,36.JPG,Image,36.JPG,Image
FW-37,Bag,simple,Default Category/fashion/women/colthing/jackets & coats,, Spring Fashion Style Leather Coat,<p> JKK FUR 2018 New Arrival Genuine Leather Sheepskin Jacket Women Spring Fashion Style Leather Coat S8005  </p>,<p> JKK FUR 2018 New Arrival Genuine Leather Sheepskin Jacket Women Spring Fashion Style Leather Coat S8005  </p>,1,70,,,,1,100,1,Taxable Goods,"Catalog, Search",,,,37.JPG,Image,37.JPG,Image,37.JPG,Image
FW-38,Bag,simple,Default Category/fashion/women/colthing/jackets & coats,, trendy ladies jeans coats,<p>  Fashion Women&amp;quot;s patchwork denim jackets trendy ladies jeans coats wx298 </p>,<p>  Fashion Women&amp;quot;s patchwork denim jackets trendy ladies jeans coats wx298 </p>,1,9.5,,,,1,100,1,Taxable Goods,"Catalog, Search",,,,38.JPG,Image,38.JPG,Image,38.JPG,Image
FW-39,Bag,simple,Default Category/fashion/women/colthing/jackets & coats,,Winter Coat Women ,<p>  Fur Hood Puffer Jacket Winter Coat Women </p>,<p>  Fur Hood Puffer Jacket Winter Coat Women </p>,1,12.25,,,,1,100,1,Taxable Goods,"Catalog, Search",,,,39.JPG,Image,39.JPG,Image,39.JPG,Image
FW-40,Bag,simple,Default Category/fashion/women/colthing/jackets & coats,,Jacket Parka Coat,<p>  Women Winter Fuax Fur Coat Jacket Parka Coat </p>,<p>  Women Winter Fuax Fur Coat Jacket Parka Coat </p>,1,50,,,,1,100,1,Taxable Goods,"Catalog, Search",,,,40.JPG,Image,40.JPG,Image,40.JPG,Image
FW-41,Bag,simple,Default Category/fashion/women/colthing/arabain wear ,,muslim dress,<p>  The new arabain fashion women's wear single layer not transparent long sleeve muslim dress </p>,<p>  The new arabain fashion women's wear single layer not transparent long sleeve muslim dress </p>,1,16,,,,1,100,1,Taxable Goods,"Catalog, Search",,,,41.PNG,Image,41.PNG,Image,41.PNG,Image
FW-42,Bag,simple,Default Category/fashion/women/colthing/arabain wear ,,Abaya Dress ,<p> Fashion Custom Arab Clothes Plain Dyed Chiffon Abaya Dress for Muslim Women  </p>,<p> Fashion Custom Arab Clothes Plain Dyed Chiffon Abaya Dress for Muslim Women  </p>,1,23.5,,,,1,100,1,Taxable Goods,"Catalog, Search",,,,42.PNG,Image,42.PNG,Image,42.PNG,Image
FW-43,Bag,simple,Default Category/fashion/women/colthing/arabain wear ,,Islamic clothing kaftan abaya,<p> New Women Muslim abaya dress Traditional Lady Flower Islamic clothing kaftan abaya Arab clothes  </p>,<p> New Women Muslim abaya dress Traditional Lady Flower Islamic clothing kaftan abaya Arab clothes  </p>,1,10,,,,1,100,1,Taxable Goods,"Catalog, Search",,,,43.JPG,Image,43.JPG,Image,43.JPG,Image
FW-44,Bag,simple,Default Category/fashion/women/colthing/arabain wear ,, Sleeves Arab Clothes,<p>  Zakiyyah F20 Hot Sale Muslim Kaftan in Pakistan Wholesale Beautiful Leopard Printed Short Kaftan Tops Long Sleeves Arab Clothes </p>,<p>  Zakiyyah F20 Hot Sale Muslim Kaftan in Pakistan Wholesale Beautiful Leopard Printed Short Kaftan Tops Long Sleeves Arab Clothes </p>,1,6.53,,,,1,100,1,Taxable Goods,"Catalog, Search",,,,44.JPG,Image,44.JPG,Image,44.JPG,Image
FW-45,Bag,simple,Default Category/fashion/women/colthing/arabain wear ,,islamic beaded kaftan dress ,<p> High quality women clothes arabic drop ship abaya muslim indonesia islamic beaded kaftan dress  </p>,<p> High quality women clothes arabic drop ship abaya muslim indonesia islamic beaded kaftan dress  </p>,1,7.8,,,,1,100,1,Taxable Goods,"Catalog, Search",,,,45.PNG,Image,45.PNG,Image,45.PNG,Image
FM-01,Bag,simple,Default Category/fashion/men/colthing/t-shirts,, Gym Wear T Shirts,<p>  Wholesale Plain Blank Oversized Tshirt Custom Gym Wear T Shirts For Men </p>,<p>  Wholesale Plain Blank Oversized Tshirt Custom Gym Wear T Shirts For Men </p>,1,3.66,,,,1,100,1,Taxable Goods,"Catalog, Search",,,,46.JPG,Image,46.JPG,Image,46.JPG,Image
FM-02,Bag,simple,Default Category/fashion/men/colthing/t-shirts,, polo printed t shirt,<p>Manufacture custom printing design men's polo printed t shirt   </p>,<p>Manufacture custom printing design men's polo printed t shirt   </p>,1,3,,,,1,100,1,Taxable Goods,"Catalog, Search",,,,47.JPG,Image,47.JPG,Image,47.JPG,Image
FM-03,Bag,simple,Default Category/fashion/men/colthing/t-shirts,, men's golf sport polo,<p>  wholesale breathable Blue ocean wave men's golf sport polo print t-shirt </p>,<p>  wholesale breathable Blue ocean wave men's golf sport polo print t-shirt </p>,1,14.49,,,,1,100,1,Taxable Goods,"Catalog, Search",,,,48.JPG,Image,48.JPG,Image,48.JPG,Image
FM-04,Bag,simple,Default Category/fashion/men/colthing/t-shirts,,digital printing ,<p>  Most popular digital printing men's t shirt </p>,<p>  Most popular digital printing men's t shirt </p>,1,6.2,,,,1,100,1,Taxable Goods,"Catalog, Search",,,,49.JPG,Image,49.JPG,Image,49.JPG,Image
FM-05,Bag,simple,Default Category/fashion/men/colthing/t-shirts,,Custom Design Printing Men's T Shirt,<p> China Manufacturing Custom Design Printing Men's T Shirt  </p>,<p> China Manufacturing Custom Design Printing Men's T Shirt  </p>,1,1.8,,,,1,100,1,Taxable Goods,"Catalog, Search",,,,50.JPG,Image,50.JPG,Image,50.JPG,Image
FM-06,Bag,simple,Default Category/fashion/men/colthing/shirts,,slim fit latest shirt,<p>Wholesale luxury stylish mens custom brand logo button up long sleeve slim fit latest shirt designs for men's dress shirt   </p>,<p>Wholesale luxury stylish mens custom brand logo button up long sleeve slim fit latest shirt designs for men's dress shirt   </p>,1,8,,,,1,100,1,Taxable Goods,"Catalog, Search",,,,51.JPG,Image,51.JPG,Image,51.JPG,Image
FM-07,Bag,simple,Default Category/fashion/men/colthing/shirts,, man plaid casual shirt ,<p>  2019 Latest fashion Men's grey check print long sleeve shirt custom logo and fabric man plaid casual shirt </p>,<p>  2019 Latest fashion Men's grey check print long sleeve shirt custom logo and fabric man plaid casual shirt </p>,1,12.2,,,,1,100,1,Taxable Goods,"Catalog, Search",,,,52.JPG,Image,52.JPG,Image,52.JPG,Image
FM-08,Bag,simple,Default Category/fashion/men/colthing/shirts,, custom casual shirts,<p>  Hot sale high quality custom casual cotton mens shirts </p>,<p>  Hot sale high quality custom casual cotton mens shirts </p>,1,6.2,,,,1,100,1,Taxable Goods,"Catalog, Search",,,,53.JPG,Image,53.JPG,Image,53.JPG,Image
FM-09,Bag,simple,Default Category/fashion/men/colthing/shirts,, Arrival Spring Mandarin,<p> 2017 New Arrival Spring Mandarin Collar Classic Designer Slim Fit Casual Man Shirt  </p>,<p> 2017 New Arrival Spring Mandarin Collar Classic Designer Slim Fit Casual Man Shirt  </p>,1,5.5,,,,1,100,1,Taxable Goods,"Catalog, Search",,,,54.JPG,Image,54.JPG,Image,54.JPG,Image
FM-10,Bag,simple,Default Category/fashion/men/colthing/shirts,,Spring Latest Wholesale ,<p>  2017 Spring Latest Wholesale Side Zip Long Sleeve 100% Cotton Red and Black Elongated Longline Men Plaid Flannel Check Shirt </p>,<p>  2017 Spring Latest Wholesale Side Zip Long Sleeve 100% Cotton Red and Black Elongated Longline Men Plaid Flannel Check Shirt </p>,1,4.41,,,,1,100,1,Taxable Goods,"Catalog, Search",,,,55.PNG,Image,55.PNG,Image,55.PNG,Image
FM-11,Bag,simple,Default Category/fashion/men/colthing/jeans,, Mens Denim Trousers,<p> Men's Straight Slim Fit Jeans Casual Long Pants Mens Denim Trousers  </p>,<p> Men's Straight Slim Fit Jeans Casual Long Pants Mens Denim Trousers  </p>,1,12.35,,,,1,100,1,Taxable Goods,"Catalog, Search",,,,56.JPG,Image,56.JPG,Image,56.JPG,Image
FM-12,Bag,simple,Default Category/fashion/men/colthing/jeans,, damaged jeans pants,<p> Fancy brand design wholesale biker style ripped damaged jeans pants for mens  </p>,<p> Fancy brand design wholesale biker style ripped damaged jeans pants for mens  </p>,1,8.9,,,,1,100,1,Taxable Goods,"Catalog, Search",,,,57.JPG,Image,57.JPG,Image,57.JPG,Image
FM-13,Bag,simple,Default Category/fashion/men/colthing/jeans,, jogger style elastic ,<p>  Funky jogger style elastic low waist cross jeans pants for mens </p>,<p>  Funky jogger style elastic low waist cross jeans pants for mens </p>,1,8.7,,,,1,100,1,Taxable Goods,"Catalog, Search",,,,58.JPG,Image,58.JPG,Image,58.JPG,Image
FM-14,Bag,simple,Default Category/fashion/men/colthing/jeans,, Euro Men's Jeans,<p>  Euro Men's Jeans Stretch Blue Denim Business Slim Fit Jeans Size 30 32 34 35 36 38 Pants Jean for Men </p>,<p>  Euro Men's Jeans Stretch Blue Denim Business Slim Fit Jeans Size 30 32 34 35 36 38 Pants Jean for Men </p>,1,8.5,,,,1,100,1,Taxable Goods,"Catalog, Search",,,,59.JPG,Image,59.JPG,Image,59.JPG,Image
FM-15,Bag,simple,Default Category/fashion/men/colthing/jeans,, embroidered men,<p>  embroidered men blue rags Dark Wash Jeans </p>,<p>  embroidered men blue rags Dark Wash Jeans </p>,1,6,,,,1,100,1,Taxable Goods,"Catalog, Search",,,,60.JPG,Image,60.JPG,Image,60.JPG,Image
FM-16,Bag,simple,Default Category/fashion/men/colthing/trousers,, Casual Trousers Men,<p> Cheap Wholesale Khaki Pants Chino Casual Trousers Men  </p>,<p> Cheap Wholesale Khaki Pants Chino Casual Trousers Men  </p>,1,5.8,,,,1,100,1,Taxable Goods,"Catalog, Search",,,,61.PNG,Image,61.PNG,Image,61.PNG,Image
FM-17,Bag,simple,Default Category/fashion/men/colthing/trousers,,man combat trousers,<p>  2017 new man combat trousers military tactical pant pockets cargo pants </p>,<p>  2017 new man combat trousers military tactical pant pockets cargo pants </p>,1,10,,,,1,100,1,Taxable Goods,"Catalog, Search",,,,62.JPG,Image,62.JPG,Image,62.JPG,Image
FM-18,Bag,simple,Default Category/fashion/men/colthing/trousers,,WS0909 wholesale Men,<p>  WS0909 wholesale Men casual pant / trousers men </p>,<p>  WS0909 wholesale Men casual pant / trousers men </p>,1,7,,,,1,100,1,Taxable Goods,"Catalog, Search",,,,63.JPG,Image,63.JPG,Image,63.JPG,Image
FM-19,Bag,simple,Default Category/fashion/men/colthing/trousers,,  functional men's trousers,<p>   functional men's trousers dickies work pants at working</p>,<p>   functional men's trousers dickies work pants at working</p>,1,5,,,,1,100,1,Taxable Goods,"Catalog, Search",,,,64.JPG,Image,64.JPG,Image,64.JPG,Image
FM-20,Bag,simple,Default Category/fashion/men/colthing/trousers,,wholesale business men,<p>  High quality wholesale business men suit pants causal man trousers </p>,<p>  High quality wholesale business men suit pants causal man trousers </p>,1,53.69,,,,1,100,1,Taxable Goods,"Catalog, Search",,,,65.JPG,Image,65.JPG,Image,65.JPG,Image
FM-21,Bag,simple,Default Category/fashion/men/colthing/sportswear,, Tracksuit Set Men,"<p>  Wholesale Mens Sportswear ,Oem Custom Tracksuit Set Men </p>","<p>  Wholesale Mens Sportswear ,Oem Custom Tracksuit Set Men </p>",1,11,,,,1,100,1,Taxable Goods,"Catalog, Search",,,,66.JPG,Image,66.JPG,Image,66.JPG,Image
FM-22,Bag,simple,Default Category/fashion/men/colthing/sportswear,, suits sportswear men ,<p>  2019 Wholesale sweat suits sportswear men plain fitted tracksuit </p>,<p>  2019 Wholesale sweat suits sportswear men plain fitted tracksuit </p>,1,15,,,,1,100,1,Taxable Goods,"Catalog, Search",,,,67.JPG,Image,67.JPG,Image,67.JPG,Image
FM-23,Bag,simple,Default Category/fashion/men/colthing/sportswear,, design  mens sportswear ,<p>  New design all-color mens sportswear </p>,<p>  New design all-color mens sportswear </p>,1,15,,,,1,100,1,Taxable Goods,"Catalog, Search",,,,68.JPG,Image,68.JPG,Image,68.JPG,Image
FM-24,Bag,simple,Default Category/fashion/men/colthing/sportswear,, Men Blank Track Sui,<p>  Custom Sportswear Wholesale Men Blank Track Suit 100% Polyester </p>,<p>  Custom Sportswear Wholesale Men Blank Track Suit 100% Polyester </p>,1,6.99,,,,1,100,1,Taxable Goods,"Catalog, Search",,,,69.JPG,Image,69.JPG,Image,69.JPG,Image
FM-25,Bag,simple,Default Category/fashion/men/colthing/sportswear,,Sportswear Men Hit,<p> Private Label Sportswear Men Hit Colour Fitness Jacket  </p>,<p> Private Label Sportswear Men Hit Colour Fitness Jacket  </p>,1,4,,,,1,100,1,Taxable Goods,"Catalog, Search",,,,70.JPG,Image,70.JPG,Image,70.JPG,Image
FM-26,Bag,simple,Default Category/fashion/men/colthing/shorts,, Fitness athletics shorts men ,<p>  Fitness athletics shorts men workout clothing sweat gym shorts custom mens sport shorts </p>,<p>  Fitness athletics shorts men workout clothing sweat gym shorts custom mens sport shorts </p>,1,9,,,,1,100,1,Taxable Goods,"Catalog, Search",,,,71.JPG,Image,71.JPG,Image,71.JPG,Image
FM-27,Bag,simple,Default Category/fashion/men/colthing/shorts,,Bermuda Jeans Shorts,<p>  DiZNEW Fashion New Design Cotton Mens Chino Cargo Bermuda Jeans Shorts </p>,<p>  DiZNEW Fashion New Design Cotton Mens Chino Cargo Bermuda Jeans Shorts </p>,1,9.95,,,,1,100,1,Taxable Goods,"Catalog, Search",,,,72.JPG,Image,72.JPG,Image,72.JPG,Image
FM-28,Bag,simple,Default Category/fashion/men/colthing/shorts,,Mens Sweat Shorts,<p>   100% Cotton French Terry Fabric Multi Color Mens Sweat Shorts With Side And Back Pockets</p>,<p>   100% Cotton French Terry Fabric Multi Color Mens Sweat Shorts With Side And Back Pockets</p>,1,4.65,,,,1,100,1,Taxable Goods,"Catalog, Search",,,,73.JPG,Image,73.JPG,Image,73.JPG,Image
FM-29,Bag,simple,Default Category/fashion/men/colthing/shorts,,pocket corduroy shorts ,<p> design your own board shorts men slant pocket corduroy shorts  </p>,<p> design your own board shorts men slant pocket corduroy shorts  </p>,1,7.9,,,,1,100,1,Taxable Goods,"Catalog, Search",,,,74.JPG,Image,74.JPG,Image,74.JPG,Image
FM-30,Bag,simple,Default Category/fashion/men/colthing/shorts,,Mens Chino Shorts,<p>  Fashion Style Multi Color 100 Cotton Summer Slim Fit Camo Mens Chino Shorts </p>,<p>  Fashion Style Multi Color 100 Cotton Summer Slim Fit Camo Mens Chino Shorts </p>,1,5,,,,1,100,1,Taxable Goods,"Catalog, Search",,,,75.JPG,Image,75.JPG,Image,75.JPG,Image
FM-31,Bag,simple,Default Category/fashion/men/colthing/swimwear ,,men swim trunk,<p> High quality custom fashion printed swimwear men swim trunk  </p>,<p> High quality custom fashion printed swimwear men swim trunk  </p>,1,8.2,,,,1,100,1,Taxable Goods,"Catalog, Search",,,,76.JPG,Image,76.JPG,Image,76.JPG,Image
FM-32,Bag,simple,Default Category/fashion/men/colthing/swimwear ,, custom swimwear men,<p>  new fashion prints custom swimwear men </p>,<p>  new fashion prints custom swimwear men </p>,1,2.99,,,,1,100,1,Taxable Goods,"Catalog, Search",,,,77.JPG,Image,77.JPG,Image,77.JPG,Image
FM-33,Bag,simple,Default Category/fashion/men/colthing/swimwear ,,men's swimming trunks ,<p> mens custom made male swimwear men's swimming trunks and workout shorts  </p>,<p> mens custom made male swimwear men's swimming trunks and workout shorts  </p>,1,3.25,,,,1,100,1,Taxable Goods,"Catalog, Search",,,,78.JPG,Image,78.JPG,Image,78.JPG,Image
FM-34,Bag,simple,Default Category/fashion/men/colthing/swimwear ,, Sexy Man Short Swim,<p>   Accept OEM Customize Printed Logo Sexy Man Short Swim Mens Beach Shorts Swimwear</p>,<p>   Accept OEM Customize Printed Logo Sexy Man Short Swim Mens Beach Shorts Swimwear</p>,1,9.9,,,,1,100,1,Taxable Goods,"Catalog, Search",,,,79.JPG,Image,79.JPG,Image,79.JPG,Image
FM-35,Bag,simple,Default Category/fashion/men/colthing/swimwear ,, sublimation printing mens swimwear,<p>  2018 factory OEM sublimation printing mens swimwear/beach/board shorts </p>,<p>  2018 factory OEM sublimation printing mens swimwear/beach/board shorts </p>,1,13,,,,1,100,1,Taxable Goods,"Catalog, Search",,,,80.JPG,Image,80.JPG,Image,80.JPG,Image
FM-36,Bag,simple,Default Category/fashion/men/colthing/underwear,, Briefs Men Underwear ,<p> Separatec Fashion Cotton Boxer Briefs Men Underwear Wholesale 7 Pack  </p>,<p> Separatec Fashion Cotton Boxer Briefs Men Underwear Wholesale 7 Pack  </p>,1,22.3,,,,1,100,1,Taxable Goods,"Catalog, Search",,,,81.JPG,Image,81.JPG,Image,81.JPG,Image
FM-37,Bag,simple,Default Category/fashion/men/colthing/underwear,, Beach Boxer,<p> Wholesale Men's Woven Boxer Shorts Grid Beach Boxer  </p>,<p> Wholesale Men's Woven Boxer Shorts Grid Beach Boxer  </p>,1,0.96,,,,1,100,1,Taxable Goods,"Catalog, Search",,,,82.JPG,Image,82.JPG,Image,82.JPG,Image
FM-38,Bag,simple,Default Category/fashion/men/colthing/underwear,, men boxers wholesale,<p> oem Men's Cotton Stretch Boxer Brief Underwear 95% Cotton 5% Elastane underpants men boxers wholesale  </p>,<p> oem Men's Cotton Stretch Boxer Brief Underwear 95% Cotton 5% Elastane underpants men boxers wholesale  </p>,1,1.6,,,,1,100,1,Taxable Goods,"Catalog, Search",,,,83.JPG,Image,83.JPG,Image,83.JPG,Image
FM-39,Bag,simple,Default Category/fashion/men/colthing/underwear,,Sports Brief Underwear,<p>  Cheap Price Old Man Boxer Shorts Sports Brief Underwear K27 </p>,<p>  Cheap Price Old Man Boxer Shorts Sports Brief Underwear K27 </p>,1,2.66,,,,1,100,1,Taxable Goods,"Catalog, Search",,,,84.JPG,Image,84.JPG,Image,84.JPG,Image
FM-40,Bag,simple,Default Category/fashion/men/colthing/underwear,, Man's Underwear Boxer,<p> OEM Check Print Man's Underwear Boxer Briefs High Quality Cotton  </p>,<p> OEM Check Print Man's Underwear Boxer Briefs High Quality Cotton  </p>,1,0.99,,,,1,100,1,Taxable Goods,"Catalog, Search",,,,85.JPG,Image,85.JPG,Image,85.JPG,Image
FM-41,Bag,simple,Default Category/fashion/men/colthing/sleepwear,, silk satin Sleepwear ,<p>  Luxury Man's Long-Sleeves silk satin Sleepwear Pajamas Set Lingerie and nightwear </p>,<p>  Luxury Man's Long-Sleeves silk satin Sleepwear Pajamas Set Lingerie and nightwear </p>,1,7.99,,,,1,100,1,Taxable Goods,"Catalog, Search",,,,86.JPG,Image,86.JPG,Image,86.JPG,Image
FM-42,Bag,simple,Default Category/fashion/men/colthing/sleepwear,, panda men pajamas,<p>   Good quality wholesale 100% cotton panda men pajamas sleepwear for men</p>,<p>   Good quality wholesale 100% cotton panda men pajamas sleepwear for men</p>,1,7.5,,,,1,100,1,Taxable Goods,"Catalog, Search",,,,87.JPG,Image,87.JPG,Image,87.JPG,Image
FM-43,Bag,simple,Default Category/fashion/men/colthing/sleepwear,,Men's Silk Pajamas,<p>   MGOO Custom Logo Casual Lapel Nightwear Botton Front Sleepwear Men's Silk Pajamas Set</p>,<p>   MGOO Custom Logo Casual Lapel Nightwear Botton Front Sleepwear Men's Silk Pajamas Set</p>,1,11.99,,,,1,100,1,Taxable Goods,"Catalog, Search",,,,88.JPG,Image,88.JPG,Image,88.JPG,Image
FM-44,Bag,simple,Default Category/fashion/men/colthing/sleepwear,, Men Stripe Pajamas ,<p> Couples Men Stripe Pajamas Yarn Dyed Sleepwear  </p>,<p> Couples Men Stripe Pajamas Yarn Dyed Sleepwear  </p>,1,4.2,,,,1,100,1,Taxable Goods,"Catalog, Search",,,,89.JPG,Image,89.JPG,Image,89.JPG,Image
FM-45,Bag,simple,Default Category/fashion/men/colthing/sleepwear,, Shirt & Pants Pajama ,<p>   Factory Custom Home Wearing Multicolor Men Button Up Pocket Front Shirt & Pants Pajama Set Men sleepwear</p>,<p>   Factory Custom Home Wearing Multicolor Men Button Up Pocket Front Shirt & Pants Pajama Set Men sleepwear</p>,1,13.5,,,,1,100,1,Taxable Goods,"Catalog, Search",,,,90.JPG,Image,90.JPG,Image,90.JPG,Image
FM-46,Bag,simple,Default Category/fashion/men/colthing/jackets & coats&hoodies,,Sweat shirt Mens crew neck sweatshirt ,"<p> Mens crew neck sweatshirt  V-stitch insert Soft lining Ribbed neckline, neck and cuff  Embroidered branding Cover stitching Garment washed  Woven branded label Material: 80% cotton, 20% polyester  Also available in 100% cotton as well as with 50% cotton and 50% polyester.  Products could be supplied in custom designs, fabrics, sizes, colors, embroidery, patches labels and etc..  </p>","<p> Mens crew neck sweatshirt  V-stitch insert Soft lining Ribbed neckline, neck and cuff  Embroidered branding Cover stitching Garment washed  Woven branded label Material: 80% cotton, 20% polyester  Also available in 100% cotton as well as with 50% cotton and 50% polyester.  Products could be supplied in custom designs, fabrics, sizes, colors, embroidery, patches labels and etc..  </p>",1,4,,,,1,100,1,Taxable Goods,"Catalog, Search",,,,91.JPG,Image,91.JPG,Image,91.JPG,Image
FM-47,Bag,simple,Default Category/fashion/men/colthing/jackets & coats&hoodies,,Men Hoodie Sportswear,<p> Men Hoodie Sportswear Mens Clothing Streetwear Blank Sport Oversized Hoodies High Quality Wholesale Men's Tops  </p>,<p> Men Hoodie Sportswear Mens Clothing Streetwear Blank Sport Oversized Hoodies High Quality Wholesale Men's Tops  </p>,1,6,,,,1,100,1,Taxable Goods,"Catalog, Search",,,,92.JPG,Image,92.JPG,Image,92.JPG,Image
FM-48,Bag,simple,Default Category/fashion/men/colthing/jackets & coats&hoodies,, Bronze Metallic Bomber Jacket,<p> Bronze Metallic Bomber Jacket High Rated For Fashion  </p>,<p> Bronze Metallic Bomber Jacket High Rated For Fashion  </p>,1,14,,,,1,100,1,Taxable Goods,"Catalog, Search",,,,93.JPG,Image,93.JPG,Image,93.JPG,Image
FM-49,Bag,simple,Default Category/fashion/men/colthing/jackets & coats&hoodies,,Man Baseball Leather,<p> OEM ODM Leather Jacket Custom Men letter Man Baseball Leather  </p>,<p> OEM ODM Leather Jacket Custom Men letter Man Baseball Leather  </p>,1,65,,,,1,100,1,Taxable Goods,"Catalog, Search",,,,94.JPG,Image,94.JPG,Image,94.JPG,Image
FM-50,Bag,simple,Default Category/fashion/men/colthing/jackets & coats&hoodies,, Letterman Baseball Jacket,<p> baseball varsity /Leather Varsity jacket/New Varsity Letterman Baseball Jacket  </p>,<p> baseball varsity /Leather Varsity jacket/New Varsity Letterman Baseball Jacket  </p>,1,26,,,,1,100,1,Taxable Goods,"Catalog, Search",,,,95.JPG,Image,95.JPG,Image,95.JPG,Image
FW-45,Bag,simple,Default Category/fashion/women/bags &accessorirs/cross body bags,, Elegant Women's PU,<p> Stylish SUSEN Women's Elegant Women's PU Leather Cross Body Bag  </p>,<p> Stylish SUSEN Women's Elegant Women's PU Leather Cross Body Bag  </p>,1,9.52,,,,1,100,1,Taxable Goods,"Catalog, Search",,,,96.JPG,Image,96.JPG,Image,96.JPG,Image
FW-46,Bag,simple,Default Category/fashion/women/bags &accessorirs/cross body bags,,women's pu leather crossbodi ,<p>  Fashion women's pu leather crossbodi bag 4pcs printed handbags set large ladies shoulder purse sling cross body tote bags </p>,<p>  Fashion women's pu leather crossbodi bag 4pcs printed handbags set large ladies shoulder purse sling cross body tote bags </p>,1,6,,,,1,100,1,Taxable Goods,"Catalog, Search",,,,97.JPG,Image,97.JPG,Image,97.JPG,Image
FW-47,Bag,simple,Default Category/fashion/women/bags &accessorirs/cross body bags,,Women High Quality Messenger,<p> china Women High Quality Messenger Bags Cross Body PU Leather Mini Bolsas for ladies FemininaShoulder Bag Handbags  </p>,<p> china Women High Quality Messenger Bags Cross Body PU Leather Mini Bolsas for ladies FemininaShoulder Bag Handbags  </p>,1,2.1,,,,1,100,1,Taxable Goods,"Catalog, Search",,,,98.JPG,Image,98.JPG,Image,98.JPG,Image
FW-48,Bag,simple,Default Category/fashion/women/bags &accessorirs/cross body bags,,women genuine leather,<p> YD-8076 Vintage satchel women genuine leather cross body bags  </p>,<p> YD-8076 Vintage satchel women genuine leather cross body bags  </p>,1,14.8,,,,1,100,1,Taxable Goods,"Catalog, Search",,,,99.JPG,Image,99.JPG,Image,99.JPG,Image
FW-49,Bag,simple,Default Category/fashion/women/bags &accessorirs/cross body bags,, leather messenger bags women,<p> Hot sale ladies cross body chain bag PU leather messenger bags women  </p>,<p> Hot sale ladies cross body chain bag PU leather messenger bags women  </p>,1,8.23,,,,1,100,1,Taxable Goods,"Catalog, Search",,,,100.JPG,Image,100.JPG,Image,100.JPG,Image
FW-50,Bag,simple,Default Category/fashion/women/bags &accessorirs/evening bages ,, Women Rhinestone Evening Bag ,<p>  Fashional Design Ladies Crystal Clutch Ring Buckle Handle for Women Rhinestone Evening Bag </p>,<p>  Fashional Design Ladies Crystal Clutch Ring Buckle Handle for Women Rhinestone Evening Bag </p>,1,6,,,,1,100,1,Taxable Goods,"Catalog, Search",,,,101.JPG,Image,101.JPG,Image,101.JPG,Image
FW-51,Bag,simple,Default Category/fashion/women/bags &accessorirs/evening bages ,,Women Clutch With Long ,<p>  Elegance Rhinestone Evening Bag For Women Clutch With Long Chain </p>,<p>  Elegance Rhinestone Evening Bag For Women Clutch With Long Chain </p>,1,8.9,,,,1,100,1,Taxable Goods,"Catalog, Search",,,,102.JPG,Image,102.JPG,Image,102.JPG,Image
FW-52,Bag,simple,Default Category/fashion/women/bags &accessorirs/evening bages ,,Women Sexy Leather Party Bags,<p>  Korean Fashion Hot Sale Women Sexy Leather Party Bags Women Clutch Bags </p>,<p>  Korean Fashion Hot Sale Women Sexy Leather Party Bags Women Clutch Bags </p>,1,15,,,,1,100,1,Taxable Goods,"Catalog, Search",,,,103.JPG,Image,103.JPG,Image,103.JPG,Image
FW-53,Bag,simple,Default Category/fashion/women/bags &accessorirs/evening bages ,, ladies lace evening bags,<p>  ELB041 Ormosias 2018 handmade ladies lace evening bags women nevy blue for party </p>,<p>  ELB041 Ormosias 2018 handmade ladies lace evening bags women nevy blue for party </p>,1,9.97,,,,1,100,1,Taxable Goods,"Catalog, Search",,,,104.JPG,Image,104.JPG,Image,104.JPG,Image
FW-54,Bag,simple,Default Category/fashion/women/bags &accessorirs/evening bages ,,evening party clutches,<p> Fashion ladies chain muti - color evening party clutches women  </p>,<p> Fashion ladies chain muti - color evening party clutches women  </p>,1,14.5,,,,1,100,1,Taxable Goods,"Catalog, Search",,,,105.JPG,Image,105.JPG,Image,105.JPG,Image
FW-55,Bag,simple,Default Category/fashion/women/bags &accessorirs/backpacks,,women's leisure bag ,<p>  Fashionable printing canvas bagpack backpack women's leisure bag </p>,<p>  Fashionable printing canvas bagpack backpack women's leisure bag </p>,1,8.31,,,,1,100,1,Taxable Goods,"Catalog, Search",,,,106.JPG,Image,106.JPG,Image,106.JPG,Image
FW-56,Bag,simple,Default Category/fashion/women/bags &accessorirs/backpacks,,women's Hiking Backpack,<p>  Yiwu 32L Women Sports Outdoor Climbing Travelling Bag Waterproof women's Hiking Backpack </p>,<p>  Yiwu 32L Women Sports Outdoor Climbing Travelling Bag Waterproof women's Hiking Backpack </p>,1,15.1,,,,1,100,1,Taxable Goods,"Catalog, Search",,,,107.JPG,Image,107.JPG,Image,107.JPG,Image
FW-57,Bag,simple,Default Category/fashion/women/bags &accessorirs/backpacks,,anti theft backpack women,<p>  Fashion bag anti theft backpack women girls with declaration </p>,<p>  Fashion bag anti theft backpack women girls with declaration </p>,1,5.07,,,,1,100,1,Taxable Goods,"Catalog, Search",,,,108.JPG,Image,108.JPG,Image,108.JPG,Image
FW-58,Bag,simple,Default Category/fashion/women/bags &accessorirs/backpacks,,PU printed pattern backpack,<p>  Fashion women wholesale backpacks travelling backpack PU printed pattern backpack </p>,<p>  Fashion women wholesale backpacks travelling backpack PU printed pattern backpack </p>,1,7,,,,1,100,1,Taxable Goods,"Catalog, Search",,,,109.JPG,Image,109.JPG,Image,109.JPG,Image
FW-59,Bag,simple,Default Category/fashion/women/bags &accessorirs/backpacks,,leather black color backpack ,<p> MINANDIO New design fashion Women PU leather black color backpack  </p>,<p> MINANDIO New design fashion Women PU leather black color backpack  </p>,1,6.99,,,,1,100,1,Taxable Goods,"Catalog, Search",,,,110.JPG,Image,110.JPG,Image,110.JPG,Image
FW-60,Bag,simple,Default Category/fashion/women/bags &accessorirs/wallets,,student women wallet,<p> Wholesale PU card holder student women wallet  </p>,<p> Wholesale PU card holder student women wallet  </p>,1,1.6,,,,1,100,1,Taxable Goods,"Catalog, Search",,,,111.JPG,Image,111.JPG,Image,111.JPG,Image
FW-61,Bag,simple,Default Category/fashion/women/bags &accessorirs/wallets,,Cell phone pidanlu Walle,<p> New lady metal frame wallet Woman Cell phone pidanlu Wallet Leather Purse Long Wholesale Mobile Wallet  </p>,<p> New lady metal frame wallet Woman Cell phone pidanlu Wallet Leather Purse Long Wholesale Mobile Wallet  </p>,1,1.6,,,,1,100,1,Taxable Goods,"Catalog, Search",,,,112.JPG,Image,112.JPG,Image,112.JPG,Image
FW-62,Bag,simple,Default Category/fashion/women/bags &accessorirs/wallets,, fiber women wallet,<p> The New fashion carbon fiber women wallet  </p>,<p> The New fashion carbon fiber women wallet  </p>,1,1,,,,1,100,1,Taxable Goods,"Catalog, Search",,,,113.JPG,Image,113.JPG,Image,113.JPG,Image
FW-63,Bag,simple,Default Category/fashion/women/bags &accessorirs/wallets,, lady clutch wallet ,<p>  Fashion women wallet long pu leather purse Baellerry forever lady clutch wallet </p>,<p>  Fashion women wallet long pu leather purse Baellerry forever lady clutch wallet </p>,1,3.2,,,,1,100,1,Taxable Goods,"Catalog, Search",,,,114.PNG,Image,114.PNG,Image,114.PNG,Image
FW-64,Bag,simple,Default Category/fashion/women/bags &accessorirs/wallets,,women wallets with card slots,<p>   China supplier OEM clutch long zip around cork fabric vegan leather cork wallet women wallets with card slots</p>,<p>   China supplier OEM clutch long zip around cork fabric vegan leather cork wallet women wallets with card slots</p>,1,2.9,,,,1,100,1,Taxable Goods,"Catalog, Search",,,,115.JPG,Image,115.JPG,Image,115.JPG,Image
FM-51,Bag,simple,Default Category/fashion/men/bags &accessorirs/backpacks,, laptop Backpack ,<p>  AOKING Durable men casual Lightweight Waterproof mochilas backpack rucksack 19 inch laptop bag black laptop Backpack </p>,<p>  AOKING Durable men casual Lightweight Waterproof mochilas backpack rucksack 19 inch laptop bag black laptop Backpack </p>,1,12.38,,,,1,100,1,Taxable Goods,"Catalog, Search",,,,116.JPG,Image,116.JPG,Image,116.JPG,Image
FM-52,Bag,simple,Default Category/fashion/men/bags &accessorirs/backpacks,,Travel Computer Bag,<p>  Men's Shoulder Bags Waterproof Laptop Backpack Travel Computer Bag </p>,<p>  Men's Shoulder Bags Waterproof Laptop Backpack Travel Computer Bag </p>,1,10.08,,,,1,100,1,Taxable Goods,"Catalog, Search",,,,117.JPG,Image,117.JPG,Image,117.JPG,Image
FM-53,Bag,simple,Default Category/fashion/men/bags &accessorirs/backpacks,,backpack with earphone,<p> Dropshipping big capacity popular PU man leather backpack fashion travel backpack with earphone hole  </p>,<p> Dropshipping big capacity popular PU man leather backpack fashion travel backpack with earphone hole  </p>,1,4.8,,,,1,100,1,Taxable Goods,"Catalog, Search",,,,118.PNG,Image,118.PNG,Image,118.PNG,Image
FM-54,Bag,simple,Default Category/fashion/men/bags &accessorirs/backpacks,,Waterproof Travel Backpack ,<p> CYSHMILY Computer Laptop USB Charging Backpack Business Mens Unisex Waterproof Travel Backpack  </p>,<p> CYSHMILY Computer Laptop USB Charging Backpack Business Mens Unisex Waterproof Travel Backpack  </p>,1,5.54,,,,1,100,1,Taxable Goods,"Catalog, Search",,,,119.JPG,Image,119.JPG,Image,119.JPG,Image
FM-55,Bag,simple,Default Category/fashion/men/bags &accessorirs/backpacks,,usb men backpack ,<p>  2019 new arrivals Tigernu waterproof 15.6 inch anti theft bag backpack usb men backpack </p>,<p>  2019 new arrivals Tigernu waterproof 15.6 inch anti theft bag backpack usb men backpack </p>,1,12.6,,,,1,100,1,Taxable Goods,"Catalog, Search",,,,120.JPG,Image,120.JPG,Image,120.JPG,Image
FM-56,Bag,simple,Default Category/fashion/men/bags &accessorirs/wallets,, Men's Wallet,<p> wholesale RFID Blocking Money Clip Leather Wallet Credit Card holder with Coin Pocket Mens Men's Wallet  </p>,<p> wholesale RFID Blocking Money Clip Leather Wallet Credit Card holder with Coin Pocket Mens Men's Wallet  </p>,1,4.12,,,,1,100,1,Taxable Goods,"Catalog, Search",,,,121.JPG,Image,121.JPG,Image,121.JPG,Image
FM-57,Bag,simple,Default Category/fashion/men/bags &accessorirs/wallets,,leather mens wallet ,"<p>  Newest Gents RFID Blocking Wallet ,custom genuine leather mens wallet for men </p>","<p>  Newest Gents RFID Blocking Wallet ,custom genuine leather mens wallet for men </p>",1,5.75,,,,1,100,1,Taxable Goods,"Catalog, Search",,,,122.JPG,Image,122.JPG,Image,122.JPG,Image
FM-58,Bag,simple,Default Category/fashion/men/bags &accessorirs/wallets,,Money Clip Man Wallet,<p> Best Selling Products Small RFID Blocking Front Pocket Metal Money Clip Man Wallet  </p>,<p> Best Selling Products Small RFID Blocking Front Pocket Metal Money Clip Man Wallet  </p>,1,2.56,,,,1,100,1,Taxable Goods,"Catalog, Search",,,,123.JPG,Image,123.JPG,Image,123.JPG,Image
FM-59,Bag,simple,Default Category/fashion/men/bags &accessorirs/wallets,,blocking men wallet,<p> American popular style promotional mini slim card wallet black top grain leather RFID blocking men wallet  </p>,<p> American popular style promotional mini slim card wallet black top grain leather RFID blocking men wallet  </p>,1,4.3,,,,1,100,1,Taxable Goods,"Catalog, Search",,,,124.JPG,Image,124.JPG,Image,124.JPG,Image
FM-60,Bag,simple,Default Category/fashion/men/bags &accessorirs/wallets,,men wallet for trave,<p>  Hot sales high quality genuine leather RFID wallet men wallet for travel </p>,<p>  Hot sales high quality genuine leather RFID wallet men wallet for travel </p>,1,3.09,,,,1,100,1,Taxable Goods,"Catalog, Search",,,,125.JPG,Image,125.JPG,Image,125.JPG,Image
FM-61,Bag,simple,Default Category/fashion/men/bags &accessorirs/massenger bages,,Messenger Men Sling Bag ,<p>  VICUNA POLO Brand China Suppliers Classic Fashion Crossbody Bag Wholesale Low MOQ Soft PU Leather Black Messenger Men Sling Bag </p>,<p>  VICUNA POLO Brand China Suppliers Classic Fashion Crossbody Bag Wholesale Low MOQ Soft PU Leather Black Messenger Men Sling Bag </p>,1,6.19,,,,1,100,1,Taxable Goods,"Catalog, Search",,,,126.JPG,Image,126.JPG,Image,126.JPG,Image
FM-62,Bag,simple,Default Category/fashion/men/bags &accessorirs/massenger bages,, Messenger Bag For Man ,<p>  Hot Sell Men's Messenger Bags USB Charging Waterproof Shoulder Casual Travel Oxford Men Sling Bag Messenger Bag For Man </p>,<p>  Hot Sell Men's Messenger Bags USB Charging Waterproof Shoulder Casual Travel Oxford Men Sling Bag Messenger Bag For Man </p>,1,7.5,,,,1,100,1,Taxable Goods,"Catalog, Search",,,,127.JPG,Image,127.JPG,Image,127.JPG,Image
FM-63,Bag,simple,Default Category/fashion/men/bags &accessorirs/massenger bages,,Messenger shoulder bag,<p>  Black color nice price Mens Messenger shoulder bag </p>,<p>  Black color nice price Mens Messenger shoulder bag </p>,1,1.5,,,,1,100,1,Taxable Goods,"Catalog, Search",,,,128.JPG,Image,128.JPG,Image,128.JPG,Image
FM-64,Bag,simple,Default Category/fashion/men/bags &accessorirs/massenger bages,,men custom messenger bag ,<p>  Multi-function shoulder classic leather diagonal men custom messenger bag </p>,<p>  Multi-function shoulder classic leather diagonal men custom messenger bag </p>,1,10,,,,1,100,1,Taxable Goods,"Catalog, Search",,,,129.JPG,Image,129.JPG,Image,129.JPG,Image
FM-65,Bag,simple,Default Category/fashion/men/bags &accessorirs/massenger bages,,mini shoulder messenger bag ,<p>  Fashion OEM waterproof durable shoulder bag men mini shoulder messenger bag </p>,<p>  Fashion OEM waterproof durable shoulder bag men mini shoulder messenger bag </p>,1,1.55,,,,1,100,1,Taxable Goods,"Catalog, Search",,,,130.JPG,Image,130.JPG,Image,130.JPG,Image
FM-66,Bag,simple,Default Category/fashion/men/bags &accessorirs/belts,,leather man belt,<p> FREE SHIPPING SAMPLE high quality different color fashion genuine leather man belt  </p>,<p> FREE SHIPPING SAMPLE high quality different color fashion genuine leather man belt  </p>,1,4,,,,1,100,1,Taxable Goods,"Catalog, Search",,,,131.JPG,Image,131.JPG,Image,131.JPG,Image
FM-67,Bag,simple,Default Category/fashion/men/bags &accessorirs/belts,, reversible man belt,<p> Black brown reversible man belt canvas belt with rotation buckle for dress </p>,<p> Black brown reversible man belt canvas belt with rotation buckle for dress </p>,1,1.99,,,,1,100,1,Taxable Goods,"Catalog, Search",,,,132.JPG,Image,132.JPG,Image,132.JPG,Image
FM-68,Bag,simple,Default Category/fashion/men/bags &accessorirs/belts,,logo ratchet belt,<p>  Brand custom Genuine Leather belt man's automatic belts for men cow hide can print logo ratchet belt </p>,<p>  Brand custom Genuine Leather belt man's automatic belts for men cow hide can print logo ratchet belt </p>,1,2,,,,1,100,1,Taxable Goods,"Catalog, Search",,,,133.JPG,Image,133.JPG,Image,133.JPG,Image
FM-69,Bag,simple,Default Category/fashion/men/bags &accessorirs/belts,,Men belt leather manufacturers ,"<p>  Shenzhen men belt leather, Genuine leather belt for men, Men belt leather manufacturers </p>","<p>  Shenzhen men belt leather, Genuine leather belt for men, Men belt leather manufacturers </p>",1,6,,,,1,100,1,Taxable Goods,"Catalog, Search",,,,134.JPG,Image,134.JPG,Image,134.JPG,Image
FM-70,Bag,simple,Default Category/fashion/men/bags &accessorirs/belts,,New Automatic Buckle,<p>  Custom Logo Men Dress Ratchet Leather Belt with Latest New Automatic Buckle </p>,<p>  Custom Logo Men Dress Ratchet Leather Belt with Latest New Automatic Buckle </p>,1,2.75,,,,1,100,1,Taxable Goods,"Catalog, Search",,,,135.JPG,Image,135.JPG,Image,135.JPG,Image
FM-71,Bag,simple,Default Category/fashion/men/bags &accessorirs/hats &caps,, Men Cap and Hat With Embroidery Logo,<p>  Custom Design Snapback/ baseball Hat/ Men Cap and Hat With Embroidery Logo </p>,<p>  Custom Design Snapback/ baseball Hat/ Men Cap and Hat With Embroidery Logo </p>,1,2.2,,,,1,100,1,Taxable Goods,"Catalog, Search",,,,136.JPG,Image,136.JPG,Image,136.JPG,Image
FM-72,Bag,simple,Default Category/fashion/men/bags &accessorirs/hats &caps,, Baseball Cap and Hat ,<p>  Custom Football Fan National Logo Baseball Cap and Hat </p>,<p>  Custom Football Fan National Logo Baseball Cap and Hat </p>,1,1.2,,,,1,100,1,Taxable Goods,"Catalog, Search",,,,137.JPG,Image,137.JPG,Image,137.JPG,Image
FM-73,Bag,simple,Default Category/fashion/men/bags &accessorirs/hats &caps,, caps snapback cap for man,<p>  2016 promotional father's day gift hats &amp caps snapback cap for man men women new black baseball fashion fitted </p>,<p>  2016 promotional father's day gift hats &amp caps snapback cap for man men women new black baseball fashion fitted </p>,1,1.87,,,,1,100,1,Taxable Goods,"Catalog, Search",,,,138.JPG,Image,138.JPG,Image,138.JPG,Image
FM-74,Bag,simple,Default Category/fashion/men/bags &accessorirs/hats &caps,, caps hats for men,<p>  Snapback wholesale hip hop caps/summer cap &amp hat/wholesale caps hats for men </p>,<p>  Snapback wholesale hip hop caps/summer cap &amp hat/wholesale caps hats for men </p>,1,1.65,,,,1,100,1,Taxable Goods,"Catalog, Search",,,,139.JPG,Image,139.JPG,Image,139.JPG,Image
FM-75,Bag,simple,Default Category/fashion/men/bags &accessorirs/hats &caps,,new black baseball fashion fitted,<p> 2016 promotional father's day gift hats &amp caps snapback cap for man men women new black baseball fashion fitted  </p>,<p> 2016 promotional father's day gift hats &amp caps snapback cap for man men women new black baseball fashion fitted  </p>,1,1.87,,,,1,100,1,Taxable Goods,"Catalog, Search",,,,140.JPG,Image,140.JPG,Image,140.JPG,Image
FM-76,Bag,simple,Default Category/fashion/men/bags &accessorirs/cuffinks,,engrave masonic cuffinks,"<p>  Masonic silver cufflink and tie pin, souvenir masonic cufflink tie clip, engrave masonic cuffinks </p>","<p>  Masonic silver cufflink and tie pin, souvenir masonic cufflink tie clip, engrave masonic cuffinks </p>",1,1,,,,1,100,1,Taxable Goods,"Catalog, Search",,,,141.JPG,Image,141.JPG,Image,141.JPG,Image
FM-77,Bag,simple,Default Category/fashion/men/bags &accessorirs/cuffinks,, custom metal cuffinks,"<p> Ghana sec tech sch takoradi cufflinks, custom metal cuffinks  </p>","<p> Ghana sec tech sch takoradi cufflinks, custom metal cuffinks  </p>",1,1,,,,1,100,1,Taxable Goods,"Catalog, Search",,,,142.JPG,Image,142.JPG,Image,142.JPG,Image
FM-78,Bag,simple,Default Category/fashion/men/bags &accessorirs/cuffinks,, Steel Mens Cufflink,<p> >>>2017 Vintage Black Square Stainless Steel Mens Cufflinks  </p>,<p> >>>2017 Vintage Black Square Stainless Steel Mens Cufflinks  </p>,1,1.31,,,,1,100,1,Taxable Goods,"Catalog, Search",,,,143.JPG,Image,143.JPG,Image,143.JPG,Image
FM-79,Bag,simple,Default Category/fashion/men/bags &accessorirs/cuffinks,, Monogram Cufflinks,<p>  Inspire stainless steel jewelry custom mens fashion personalized Gun Metal Gunmetal Monogram Cufflinks </p>,<p>  Inspire stainless steel jewelry custom mens fashion personalized Gun Metal Gunmetal Monogram Cufflinks </p>,1,2,,,,1,100,1,Taxable Goods,"Catalog, Search",,,,144.JPG,Image,144.JPG,Image,144.JPG,Image
FM-80,Bag,simple,Default Category/fashion/men/bags &accessorirs/cuffinks,,silver cufflinks for men,<p>  Cheap personalized steel blank silver cufflinks for men </p>,<p>  Cheap personalized steel blank silver cufflinks for men </p>,1,1.25,,,,1,100,1,Taxable Goods,"Catalog, Search",,,,145.JPG,Image,145.JPG,Image,145.JPG,Image
FM-81,Bag,simple,Default Category/fashion/men/bags &accessorirs/rings,, ring designs for men,<p> Xuping women man latest finger black engagement simple neutral stainless steel ring+jewelry men's ring+gold ring designs for men  </p>,<p> Xuping women man latest finger black engagement simple neutral stainless steel ring+jewelry men's ring+gold ring designs for men  </p>,1,0.5,,,,1,100,1,Taxable Goods,"Catalog, Search",,,,146.JPG,Image,146.JPG,Image,146.JPG,Image
FM-82,Bag,simple,Default Category/fashion/men/bags &accessorirs/rings,,Popular Men Titanium Rings ,"<p> Marlary Top Quality Wholesale Jewelry Blank Stainless Steel Ring Man ,Popular Men Titanium Rings Blanks  </p>","<p> Marlary Top Quality Wholesale Jewelry Blank Stainless Steel Ring Man ,Popular Men Titanium Rings Blanks  </p>",1,1.85,,,,1,100,1,Taxable Goods,"Catalog, Search",,,,147.JPG,Image,147.JPG,Image,147.JPG,Image
FM-83,Bag,simple,Default Category/fashion/men/bags &accessorirs/rings,,Men Unisex Ring,<p> SJ One Piece Wholesale Vintage 925 Sterling Silver Round Shape Blue Natural Gemstone Lapis Lazuli Flexible Open Men Unisex Ring  </p>,<p> SJ One Piece Wholesale Vintage 925 Sterling Silver Round Shape Blue Natural Gemstone Lapis Lazuli Flexible Open Men Unisex Ring  </p>,1,10.13,,,,1,100,1,Taxable Goods,"Catalog, Search",,,,148.JPG,Image,148.JPG,Image,148.JPG,Image
FM-84,Bag,simple,Default Category/fashion/men/bags &accessorirs/rings,, Steel Natural Stone Rings,<p> Wedding Engagement Men's Stainless Steel Natural Stone Rings With Big Black Agate  </p>,<p> Wedding Engagement Men's Stainless Steel Natural Stone Rings With Big Black Agate  </p>,1,2.75,,,,1,100,1,Taxable Goods,"Catalog, Search",,,,149.JPG,Image,149.JPG,Image,149.JPG,Image
FM-85,Bag,simple,Default Category/fashion/men/bags &accessorirs/rings,, steel finger ring,<p> Cool design men's ring punk stainless steel finger rings  </p>,<p> Cool design men's ring punk stainless steel finger rings  </p>,1,0.8,,,,1,100,1,Taxable Goods,"Catalog, Search",,,,150.JPG,Image,150.JPG,Image,150.JPG,Image
FW-66,Bag,simple,Default Category/fashion/women/shoes/Athletic,,Athletic Sport Shoes,<p> Customize Your Own Brand Women Lightweight Casual Walking Athletic Sport Shoes  </p>,<p> Customize Your Own Brand Women Lightweight Casual Walking Athletic Sport Shoes  </p>,1,9,,,,1,100,1,Taxable Goods,"Catalog, Search",,,,151.JPG,Image,151.JPG,Image,151.JPG,Image
FW-67,Bag,simple,Default Category/fashion/women/shoes/Athletic,, Women Sneakers Shoe,<p>  GT-14655-4 LUCA Hot Sale Fashion Athletic Women Running Sports Shoes Men And Women Sneakers Shoes </p>,<p>  GT-14655-4 LUCA Hot Sale Fashion Athletic Women Running Sports Shoes Men And Women Sneakers Shoes </p>,1,7,,,,1,100,1,Taxable Goods,"Catalog, Search",,,,152.JPG,Image,152.JPG,Image,152.JPG,Image
FW-68,Bag,simple,Default Category/fashion/women/shoes/Athletic,,Running Athletic Sport Sho,<p>  Custom Export 2018 Woman Running Athletic Sport Shoe </p>,<p>  Custom Export 2018 Woman Running Athletic Sport Shoe </p>,1,5.9,,,,1,100,1,Taxable Goods,"Catalog, Search",,,,153.JPG,Image,153.JPG,Image,153.JPG,Image
FW-69,Bag,simple,Default Category/fashion/women/shoes/Athletic,, gym running shoes,<p>  Nonmark sole breathable mesh athletic women's fitness gym running shoes </p>,<p>  Nonmark sole breathable mesh athletic women's fitness gym running shoes </p>,1,6.95,,,,1,100,1,Taxable Goods,"Catalog, Search",,,,154.JPG,Image,154.JPG,Image,154.JPG,Image
FW-70,Bag,simple,Default Category/fashion/women/shoes/Athletic,,Sport Walking Running Shoes,<p>  Baolite Women's Lightweight Sneakers Casual Athletic Sport Walking Running Shoes </p>,<p>  Baolite Women's Lightweight Sneakers Casual Athletic Sport Walking Running Shoes </p>,1,6.5,,,,1,100,1,Taxable Goods,"Catalog, Search",,,,155.JPG,Image,155.JPG,Image,155.JPG,Image