sku,attribute_set_code,product_type,categories,product_websites,name,description,short_description,weight,price,special_price,special_price_from_date,special_price_to_date,product_online,qty,is_in_stock,tax_class_name,visibility,meta_title,meta_keywords,meta_description,base_image,base_image_label,small_image,small_image_label,thumbnail_image,thumbnail_image_label
FW-45,Bag,simple,Default Category/Bazzarry Fashion/women/Bags & Accessories/cross body bags,base, Elegant Women's PU,<p> Stylish SUSEN Women's Elegant Women's PU Leather Cross Body Bag  </p>,<p> Stylish SUSEN Women's Elegant Women's PU Leather Cross Body Bag  </p>,1,9.52,,,,1,100,20,Taxable Goods,"Catalog, Search",,,,96.jpg,Image,96.jpg,Image,96.jpg,Image
FW-46,Bag,simple,Default Category/Bazzarry Fashion/women/Bags & Accessories/cross body bags,base,women's pu leather crossbodi ,<p>  Fashion women's pu leather crossbodi bag 4pcs printed handbags set large ladies shoulder purse sling cross body tote bags </p>,<p>  Fashion women's pu leather crossbodi bag 4pcs printed handbags set large ladies shoulder purse sling cross body tote bags </p>,1,6,,,,1,100,20,Taxable Goods,"Catalog, Search",,,,97.jpg,Image,97.jpg,Image,97.jpg,Image
FW-47,Bag,simple,Default Category/Bazzarry Fashion/women/Bags & Accessories/cross body bags,base,Women High Quality Messenger,<p> china Women High Quality Messenger Bags Cross Body PU Leather Mini Bolsas for ladies FemininaShoulder Bag Handbags  </p>,<p> china Women High Quality Messenger Bags Cross Body PU Leather Mini Bolsas for ladies FemininaShoulder Bag Handbags  </p>,1,2.1,,,,1,100,20,Taxable Goods,"Catalog, Search",,,,98.jpg,Image,98.jpg,Image,98.jpg,Image
FW-48,Bag,simple,Default Category/Bazzarry Fashion/women/Bags & Accessories/cross body bags,base,women genuine leather,<p> YD-8076 Vintage satchel women genuine leather cross body bags  </p>,<p> YD-8076 Vintage satchel women genuine leather cross body bags  </p>,1,14.8,,,,1,100,20,Taxable Goods,"Catalog, Search",,,,99.jpg,Image,99.jpg,Image,99.jpg,Image
FW-49,Bag,simple,Default Category/Bazzarry Fashion/women/Bags & Accessories/cross body bags,base, leather messenger bags women,<p> Hot sale ladies cross body chain bag PU leather messenger bags women  </p>,<p> Hot sale ladies cross body chain bag PU leather messenger bags women  </p>,1,8.23,,,,1,100,20,Taxable Goods,"Catalog, Search",,,,100.jpg,Image,100.jpg,Image,100.jpg,Image
FW-50,Bag,simple,Default Category/Bazzarry Fashion/women/Bags & Accessories/Clutches & Evening Bag,base, Women Rhinestone Evening Bag ,<p>  Fashional Design Ladies Crystal Clutch Ring Buckle Handle for Women Rhinestone Evening Bag </p>,<p>  Fashional Design Ladies Crystal Clutch Ring Buckle Handle for Women Rhinestone Evening Bag </p>,1,6,,,,1,100,20,Taxable Goods,"Catalog, Search",,,,101.jpg,Image,101.jpg,Image,101.jpg,Image
FW-51,Bag,simple,Default Category/Bazzarry Fashion/women/Bags & Accessories/Clutches & Evening Bag,base,Women Clutch With Long ,<p>  Elegance Rhinestone Evening Bag For Women Clutch With Long Chain </p>,<p>  Elegance Rhinestone Evening Bag For Women Clutch With Long Chain </p>,1,8.9,,,,1,100,20,Taxable Goods,"Catalog, Search",,,,102.jpg,Image,102.jpg,Image,102.jpg,Image
FW-52,Bag,simple,Default Category/Bazzarry Fashion/women/Bags & Accessories/Clutches & Evening Bag,base,Women Sexy Leather Party Bags,<p>  Korean Fashion Hot Sale Women Sexy Leather Party Bags Women Clutch Bags </p>,<p>  Korean Fashion Hot Sale Women Sexy Leather Party Bags Women Clutch Bags </p>,1,15,,,,1,100,20,Taxable Goods,"Catalog, Search",,,,103.jpg,Image,103.jpg,Image,103.jpg,Image
FW-53,Bag,simple,Default Category/Bazzarry Fashion/women/Bags & Accessories/Clutches & Evening Bag,base, ladies lace evening bags,<p>  ELB041 Ormosias 2018 handmade ladies lace evening bags women nevy blue for party </p>,<p>  ELB041 Ormosias 2018 handmade ladies lace evening bags women nevy blue for party </p>,1,9.97,,,,1,100,20,Taxable Goods,"Catalog, Search",,,,104.jpg,Image,104.jpg,Image,104.jpg,Image
FW-54,Bag,simple,Default Category/Bazzarry Fashion/women/Bags & Accessories/Clutches & Evening Bag,base,evening party clutches,<p> Fashion ladies chain muti - color evening party clutches women  </p>,<p> Fashion ladies chain muti - color evening party clutches women  </p>,1,14.5,,,,1,100,20,Taxable Goods,"Catalog, Search",,,,105.jpg,Image,105.jpg,Image,105.jpg,Image
FW-55,Bag,simple,Default Category/Bazzarry Fashion/women/Bags & Accessories/backpacks,base,women's leisure bag ,<p>  Fashionable printing canvas bagpack backpack women's leisure bag </p>,<p>  Fashionable printing canvas bagpack backpack women's leisure bag </p>,1,8.31,,,,1,100,20,Taxable Goods,"Catalog, Search",,,,106.jpg,Image,106.jpg,Image,106.jpg,Image
FW-56,Bag,simple,Default Category/Bazzarry Fashion/women/Bags & Accessories/backpacks,base,women's Hiking Backpack,<p>  Yiwu 32L Women Sports Outdoor Climbing Travelling Bag Waterproof women's Hiking Backpack </p>,<p>  Yiwu 32L Women Sports Outdoor Climbing Travelling Bag Waterproof women's Hiking Backpack </p>,1,15.1,,,,1,100,20,Taxable Goods,"Catalog, Search",,,,107.jpg,Image,107.jpg,Image,107.jpg,Image
FW-57,Bag,simple,Default Category/Bazzarry Fashion/women/Bags & Accessories/backpacks,base,anti theft backpack women,<p>  Fashion bag anti theft backpack women girls with declaration </p>,<p>  Fashion bag anti theft backpack women girls with declaration </p>,1,5.07,,,,1,100,20,Taxable Goods,"Catalog, Search",,,,108.jpg,Image,108.jpg,Image,108.jpg,Image
FW-58,Bag,simple,Default Category/Bazzarry Fashion/women/Bags & Accessories/backpacks,base,PU printed pattern backpack,<p>  Fashion women wholesale backpacks travelling backpack PU printed pattern backpack </p>,<p>  Fashion women wholesale backpacks travelling backpack PU printed pattern backpack </p>,1,7,,,,1,100,20,Taxable Goods,"Catalog, Search",,,,109.jpg,Image,109.jpg,Image,109.jpg,Image
FW-59,Bag,simple,Default Category/Bazzarry Fashion/women/Bags & Accessories/backpacks,base,leather black color backpack ,<p> MINANDIO New design fashion Women PU leather black color backpack  </p>,<p> MINANDIO New design fashion Women PU leather black color backpack  </p>,1,6.99,,,,1,100,20,Taxable Goods,"Catalog, Search",,,,110.jpg,Image,110.jpg,Image,110.jpg,Image
FW-60,Bag,simple,Default Category/Bazzarry Fashion/women/Bags & Accessories/wallets,base,student women wallet,<p> Wholesale PU card holder student women wallet  </p>,<p> Wholesale PU card holder student women wallet  </p>,1,1.6,,,,1,100,20,Taxable Goods,"Catalog, Search",,,,111.jpg,Image,111.jpg,Image,111.jpg,Image
FW-61,Bag,simple,Default Category/Bazzarry Fashion/women/Bags & Accessories/wallets,base,Cell phone pidanlu Walle,<p> New lady metal frame wallet Woman Cell phone pidanlu Wallet Leather Purse Long Wholesale Mobile Wallet  </p>,<p> New lady metal frame wallet Woman Cell phone pidanlu Wallet Leather Purse Long Wholesale Mobile Wallet  </p>,1,1.6,,,,1,100,20,Taxable Goods,"Catalog, Search",,,,112.jpg,Image,112.jpg,Image,112.jpg,Image
FW-62,Bag,simple,Default Category/Bazzarry Fashion/women/Bags & Accessories/wallets,base, fiber women wallet,<p> The New fashion carbon fiber women wallet  </p>,<p> The New fashion carbon fiber women wallet  </p>,1,1,,,,1,100,20,Taxable Goods,"Catalog, Search",,,,113.jpg,Image,113.jpg,Image,113.jpg,Image
FW-63,Bag,simple,Default Category/Bazzarry Fashion/women/Bags & Accessories/wallets,base, lady clutch wallet ,<p>  Fashion women wallet long pu leather purse Baellerry forever lady clutch wallet </p>,<p>  Fashion women wallet long pu leather purse Baellerry forever lady clutch wallet </p>,1,3.2,,,,1,100,20,Taxable Goods,"Catalog, Search",,,,114.png,Image,114.png,Image,114.png,Image
FW-64,Bag,simple,Default Category/Bazzarry Fashion/women/Bags & Accessories/wallets,base,women wallets with card slots,<p>   China supplier OEM clutch long zip around cork fabric vegan leather cork wallet women wallets with card slots</p>,<p>   China supplier OEM clutch long zip around cork fabric vegan leather cork wallet women wallets with card slots</p>,1,2.9,,,,1,100,20,Taxable Goods,"Catalog, Search",,,,115.jpg,Image,115.jpg,Image,115.jpg,Image
FM-51,Bag,simple,Default Category/Bazzarry Fashion/men/Bags & Accessories/backpacks,base, laptop Backpack ,<p>  AOKING Durable men casual Lightweight Waterproof mochilas backpack rucksack 19 inch laptop bag black laptop Backpack </p>,<p>  AOKING Durable men casual Lightweight Waterproof mochilas backpack rucksack 19 inch laptop bag black laptop Backpack </p>,1,12.38,,,,1,100,20,Taxable Goods,"Catalog, Search",,,,116.jpg,Image,116.jpg,Image,116.jpg,Image
FM-52,Bag,simple,Default Category/Bazzarry Fashion/men/Bags & Accessories/backpacks,base,Travel Computer Bag,<p>  Men's Shoulder Bags Waterproof Laptop Backpack Travel Computer Bag </p>,<p>  Men's Shoulder Bags Waterproof Laptop Backpack Travel Computer Bag </p>,1,10.08,,,,1,100,20,Taxable Goods,"Catalog, Search",,,,117.jpg,Image,117.jpg,Image,117.jpg,Image
FM-53,Bag,simple,Default Category/Bazzarry Fashion/men/Bags & Accessories/backpacks,base,backpack with earphone,<p> Dropshipping big capacity popular PU man leather backpack fashion travel backpack with earphone hole  </p>,<p> Dropshipping big capacity popular PU man leather backpack fashion travel backpack with earphone hole  </p>,1,4.8,,,,1,100,20,Taxable Goods,"Catalog, Search",,,,118.jpg,Image,118.jpg,Image,118.jpg,Image
FM-54,Bag,simple,Default Category/Bazzarry Fashion/men/Bags & Accessories/backpacks,base,Waterproof Travel Backpack ,<p> CYSHMILY Computer Laptop USB Charging Backpack Business Mens Unisex Waterproof Travel Backpack  </p>,<p> CYSHMILY Computer Laptop USB Charging Backpack Business Mens Unisex Waterproof Travel Backpack  </p>,1,5.54,,,,1,100,20,Taxable Goods,"Catalog, Search",,,,119.jpg,Image,119.jpg,Image,119.jpg,Image
FM-55,Bag,simple,Default Category/Bazzarry Fashion/men/Bags & Accessories/backpacks,base,usb men backpack ,<p>  2019 new arrivals Tigernu waterproof 15.6 inch anti theft bag backpack usb men backpack </p>,<p>  2019 new arrivals Tigernu waterproof 15.6 inch anti theft bag backpack usb men backpack </p>,1,12.6,,,,1,100,20,Taxable Goods,"Catalog, Search",,,,120.jpg,Image,120.jpg,Image,120.jpg,Image
FM-56,Bag,simple,Default Category/Bazzarry Fashion/men/Bags & Accessories/wallets,base, Men's Wallet,<p> wholesale RFID Blocking Money Clip Leather Wallet Credit Card holder with Coin Pocket Mens Men's Wallet  </p>,<p> wholesale RFID Blocking Money Clip Leather Wallet Credit Card holder with Coin Pocket Mens Men's Wallet  </p>,1,4.12,,,,1,100,20,Taxable Goods,"Catalog, Search",,,,121.jpg,Image,121.jpg,Image,121.jpg,Image
FM-57,Bag,simple,Default Category/Bazzarry Fashion/men/Bags & Accessories/wallets,base,leather mens wallet ,"<p>  Newest Gents RFID Blocking Wallet ,custom genuine leather mens wallet for men </p>","<p>  Newest Gents RFID Blocking Wallet ,custom genuine leather mens wallet for men </p>",1,5.75,,,,1,100,20,Taxable Goods,"Catalog, Search",,,,122.jpg,Image,122.jpg,Image,122.jpg,Image
FM-58,Bag,simple,Default Category/Bazzarry Fashion/men/Bags & Accessories/wallets,base,Money Clip Man Wallet,<p> Best Selling Products Small RFID Blocking Front Pocket Metal Money Clip Man Wallet  </p>,<p> Best Selling Products Small RFID Blocking Front Pocket Metal Money Clip Man Wallet  </p>,1,2.56,,,,1,100,20,Taxable Goods,"Catalog, Search",,,,123.jpg,Image,123.jpg,Image,123.jpg,Image
FM-59,Bag,simple,Default Category/Bazzarry Fashion/men/Bags & Accessories/wallets,base,blocking men wallet,<p> American popular style promotional mini slim card wallet black top grain leather RFID blocking men wallet  </p>,<p> American popular style promotional mini slim card wallet black top grain leather RFID blocking men wallet  </p>,1,4.3,,,,1,100,20,Taxable Goods,"Catalog, Search",,,,124.jpg,Image,124.jpg,Image,124.jpg,Image
FM-60,Bag,simple,Default Category/Bazzarry Fashion/men/Bags & Accessories/wallets,base,men wallet for trave,<p>  Hot sales high quality genuine leather RFID wallet men wallet for travel </p>,<p>  Hot sales high quality genuine leather RFID wallet men wallet for travel </p>,1,3.09,,,,1,100,20,Taxable Goods,"Catalog, Search",,,,125.jpg,Image,125.jpg,Image,125.jpg,Image
FM-61,Bag,simple,Default Category/Bazzarry Fashion/men/Bags & Accessories/massenger bages,base,Messenger Men Sling Bag ,<p>  VICUNA POLO Brand China Suppliers Classic Fashion Crossbody Bag Wholesale Low MOQ Soft PU Leather Black Messenger Men Sling Bag </p>,<p>  VICUNA POLO Brand China Suppliers Classic Fashion Crossbody Bag Wholesale Low MOQ Soft PU Leather Black Messenger Men Sling Bag </p>,1,6.19,,,,1,100,20,Taxable Goods,"Catalog, Search",,,,126.jpg,Image,126.jpg,Image,126.jpg,Image
FM-62,Bag,simple,Default Category/Bazzarry Fashion/men/Bags & Accessories/massenger bages,base, Messenger Bag For Man ,<p>  Hot Sell Men's Messenger Bags USB Charging Waterproof Shoulder Casual Travel Oxford Men Sling Bag Messenger Bag For Man </p>,<p>  Hot Sell Men's Messenger Bags USB Charging Waterproof Shoulder Casual Travel Oxford Men Sling Bag Messenger Bag For Man </p>,1,7.5,,,,1,100,20,Taxable Goods,"Catalog, Search",,,,127.jpg,Image,127.jpg,Image,127.jpg,Image
FM-63,Bag,simple,Default Category/Bazzarry Fashion/men/Bags & Accessories/massenger bages,base,Messenger shoulder bag,<p>  Black color nice price Mens Messenger shoulder bag </p>,<p>  Black color nice price Mens Messenger shoulder bag </p>,1,1.5,,,,1,100,20,Taxable Goods,"Catalog, Search",,,,128.jpg,Image,128.jpg,Image,128.jpg,Image
FM-64,Bag,simple,Default Category/Bazzarry Fashion/men/Bags & Accessories/massenger bages,base,men custom messenger bag ,<p>  Multi-function shoulder classic leather diagonal men custom messenger bag </p>,<p>  Multi-function shoulder classic leather diagonal men custom messenger bag </p>,1,10,,,,1,100,20,Taxable Goods,"Catalog, Search",,,,129.jpg,Image,129.jpg,Image,129.jpg,Image
FM-65,Bag,simple,Default Category/Bazzarry Fashion/men/Bags & Accessories/massenger bages,base,mini shoulder messenger bag ,<p>  Fashion OEM waterproof durable shoulder bag men mini shoulder messenger bag </p>,<p>  Fashion OEM waterproof durable shoulder bag men mini shoulder messenger bag </p>,1,1.55,,,,1,100,20,Taxable Goods,"Catalog, Search",,,,130.jpg,Image,130.jpg,Image,130.jpg,Image
FM-66,Bag,simple,Default Category/Bazzarry Fashion/men/Bags & Accessories/belts,base,leather man belt,<p> FREE SHIPPING SAMPLE high quality different color fashion genuine leather man belt  </p>,<p> FREE SHIPPING SAMPLE high quality different color fashion genuine leather man belt  </p>,1,4,,,,1,100,20,Taxable Goods,"Catalog, Search",,,,131.jpg,Image,131.jpg,Image,131.jpg,Image
FM-67,Bag,simple,Default Category/Bazzarry Fashion/men/Bags & Accessories/belts,base, reversible man belt,<p> Black brown reversible man belt canvas belt with rotation buckle for dress </p>,<p> Black brown reversible man belt canvas belt with rotation buckle for dress </p>,1,1.99,,,,1,100,20,Taxable Goods,"Catalog, Search",,,,132.jpg,Image,132.jpg,Image,132.jpg,Image
FM-68,Bag,simple,Default Category/Bazzarry Fashion/men/Bags & Accessories/belts,base,logo ratchet belt,<p>  Brand custom Genuine Leather belt man's automatic belts for men cow hide can print logo ratchet belt </p>,<p>  Brand custom Genuine Leather belt man's automatic belts for men cow hide can print logo ratchet belt </p>,1,2,,,,1,100,20,Taxable Goods,"Catalog, Search",,,,133.jpg,Image,133.jpg,Image,133.jpg,Image
FM-69,Bag,simple,Default Category/Bazzarry Fashion/men/Bags & Accessories/belts,base,Men belt leather manufacturers ,"<p>  Shenzhen men belt leather, Genuine leather belt for men, Men belt leather manufacturers </p>","<p>  Shenzhen men belt leather, Genuine leather belt for men, Men belt leather manufacturers </p>",1,6,,,,1,100,20,Taxable Goods,"Catalog, Search",,,,134.jpg,Image,134.jpg,Image,134.jpg,Image
FM-70,Bag,simple,Default Category/Bazzarry Fashion/men/Bags & Accessories/belts,base,New Automatic Buckle,<p>  Custom Logo Men Dress Ratchet Leather Belt with Latest New Automatic Buckle </p>,<p>  Custom Logo Men Dress Ratchet Leather Belt with Latest New Automatic Buckle </p>,1,2.75,,,,1,100,20,Taxable Goods,"Catalog, Search",,,,135.jpg,Image,135.jpg,Image,135.jpg,Image
FM-71,Bag,simple,Default Category/Bazzarry Fashion/men/Bags & Accessories/hats &caps,base, Men Cap and Hat With Embroidery Logo,<p>  Custom Design Snapback/ baseball Hat/ Men Cap and Hat With Embroidery Logo </p>,<p>  Custom Design Snapback/ baseball Hat/ Men Cap and Hat With Embroidery Logo </p>,1,2.2,,,,1,100,20,Taxable Goods,"Catalog, Search",,,,136.jpg,Image,136.jpg,Image,136.jpg,Image
FM-72,Bag,simple,Default Category/Bazzarry Fashion/men/Bags & Accessories/hats &caps,base, Baseball Cap and Hat ,<p>  Custom Football Fan National Logo Baseball Cap and Hat </p>,<p>  Custom Football Fan National Logo Baseball Cap and Hat </p>,1,1.2,,,,1,100,20,Taxable Goods,"Catalog, Search",,,,137.jpg,Image,137.jpg,Image,137.jpg,Image
FM-73,Bag,simple,Default Category/Bazzarry Fashion/men/Bags & Accessories/hats &caps,base, caps snapback cap for man,<p>  2016 promotional father's day gift hats &amp caps snapback cap for man men women new black baseball fashion fitted </p>,<p>  2016 promotional father's day gift hats &amp caps snapback cap for man men women new black baseball fashion fitted </p>,1,1.87,,,,1,100,20,Taxable Goods,"Catalog, Search",,,,138.jpg,Image,138.jpg,Image,138.jpg,Image
FM-74,Bag,simple,Default Category/Bazzarry Fashion/men/Bags & Accessories/hats &caps,base, caps hats for men,<p>  Snapback wholesale hip hop caps/summer cap &amp hat/wholesale caps hats for men </p>,<p>  Snapback wholesale hip hop caps/summer cap &amp hat/wholesale caps hats for men </p>,1,1.65,,,,1,100,20,Taxable Goods,"Catalog, Search",,,,139.jpg,Image,139.jpg,Image,139.jpg,Image
FM-75,Bag,simple,Default Category/Bazzarry Fashion/men/Bags & Accessories/hats &caps,base,new black baseball fashion fitted,<p> 2016 promotional father's day gift hats &amp caps snapback cap for man men women new black baseball fashion fitted  </p>,<p> 2016 promotional father's day gift hats &amp caps snapback cap for man men women new black baseball fashion fitted  </p>,1,1.87,,,,1,100,20,Taxable Goods,"Catalog, Search",,,,140.jpg,Image,140.jpg,Image,140.jpg,Image
FM-76,Bag,simple,Default Category/Bazzarry Fashion/men/Bags & Accessories/cufflinks,base,engrave masonic cuffinks,"<p>  Masonic silver cufflink and tie pin, souvenir masonic cufflink tie clip, engrave masonic cuffinks </p>","<p>  Masonic silver cufflink and tie pin, souvenir masonic cufflink tie clip, engrave masonic cuffinks </p>",1,1,,,,1,100,20,Taxable Goods,"Catalog, Search",,,,141.jpg,Image,141.jpg,Image,141.jpg,Image
FM-77,Bag,simple,Default Category/Bazzarry Fashion/men/Bags & Accessories/cufflinks,base, custom metal cuffinks,"<p> Ghana sec tech sch takoradi cufflinks, custom metal cuffinks  </p>","<p> Ghana sec tech sch takoradi cufflinks, custom metal cuffinks  </p>",1,1,,,,1,100,20,Taxable Goods,"Catalog, Search",,,,142.jpg,Image,142.jpg,Image,142.jpg,Image
FM-78,Bag,simple,Default Category/Bazzarry Fashion/men/Bags & Accessories/cufflinks,base, Steel Mens Cufflink,<p> >>>2017 Vintage Black Square Stainless Steel Mens Cufflinks  </p>,<p> >>>2017 Vintage Black Square Stainless Steel Mens Cufflinks  </p>,1,1.31,,,,1,100,20,Taxable Goods,"Catalog, Search",,,,143.jpg,Image,143.jpg,Image,143.jpg,Image
FM-79,Bag,simple,Default Category/Bazzarry Fashion/men/Bags & Accessories/cufflinks,base, Monogram Cufflinks,<p>  Inspire stainless steel jewelry custom mens fashion personalized Gun Metal Gunmetal Monogram Cufflinks </p>,<p>  Inspire stainless steel jewelry custom mens fashion personalized Gun Metal Gunmetal Monogram Cufflinks </p>,1,2,,,,1,100,20,Taxable Goods,"Catalog, Search",,,,144.jpg,Image,144.jpg,Image,144.jpg,Image
FM-80,Bag,simple,Default Category/Bazzarry Fashion/men/Bags & Accessories/cufflinks,base,silver cufflinks for men,<p>  Cheap personalized steel blank silver cufflinks for men </p>,<p>  Cheap personalized steel blank silver cufflinks for men </p>,1,1.25,,,,1,100,20,Taxable Goods,"Catalog, Search",,,,145.jpg,Image,145.jpg,Image,145.jpg,Image
FM-81,Bag,simple,Default Category/Bazzarry Fashion/men/Bags & Accessories/men rings,base, ring designs for men,<p> Xuping women man latest finger black engagement simple neutral stainless steel ring+jewelry men's ring+gold ring designs for men  </p>,<p> Xuping women man latest finger black engagement simple neutral stainless steel ring+jewelry men's ring+gold ring designs for men  </p>,1,0.5,,,,1,100,20,Taxable Goods,"Catalog, Search",,,,146.jpg,Image,146.jpg,Image,146.jpg,Image
FM-82,Bag,simple,Default Category/Bazzarry Fashion/men/Bags & Accessories/men rings,base,Popular Men Titanium Rings ,"<p> Marlary Top Quality Wholesale Jewelry Blank Stainless Steel Ring Man ,Popular Men Titanium Rings Blanks  </p>","<p> Marlary Top Quality Wholesale Jewelry Blank Stainless Steel Ring Man ,Popular Men Titanium Rings Blanks  </p>",1,1.85,,,,1,100,20,Taxable Goods,"Catalog, Search",,,,147.jpg,Image,147.jpg,Image,147.jpg,Image
FM-83,Bag,simple,Default Category/Bazzarry Fashion/men/Bags & Accessories/men rings,base,Men Unisex Ring,<p> SJ One Piece Wholesale Vintage 925 Sterling Silver Round Shape Blue Natural Gemstone Lapis Lazuli Flexible Open Men Unisex Ring  </p>,<p> SJ One Piece Wholesale Vintage 925 Sterling Silver Round Shape Blue Natural Gemstone Lapis Lazuli Flexible Open Men Unisex Ring  </p>,1,10.13,,,,1,100,20,Taxable Goods,"Catalog, Search",,,,148.jpg,Image,148.jpg,Image,148.jpg,Image
FM-84,Bag,simple,Default Category/Bazzarry Fashion/men/Bags & Accessories/men rings,base, Steel Natural Stone Rings,<p> Wedding Engagement Men's Stainless Steel Natural Stone Rings With Big Black Agate  </p>,<p> Wedding Engagement Men's Stainless Steel Natural Stone Rings With Big Black Agate  </p>,1,2.75,,,,1,100,20,Taxable Goods,"Catalog, Search",,,,149.jpg,Image,149.jpg,Image,149.jpg,Image
FM-85,Bag,simple,Default Category/Bazzarry Fashion/men/Bags & Accessories/men rings,base, steel finger ring,<p> Cool design men's ring punk stainless steel finger rings  </p>,<p> Cool design men's ring punk stainless steel finger rings  </p>,1,0.8,,,,1,100,20,Taxable Goods,"Catalog, Search",,,,150.jpg,Image,150.jpg,Image,150.jpg,Image
FW-66,Bag,simple,Default Category/Bazzarry Fashion/women/shoes/Athletic,base,Athletic Sport Shoes,<p> Customize Your Own Brand Women Lightweight Casual Walking Athletic Sport Shoes  </p>,<p> Customize Your Own Brand Women Lightweight Casual Walking Athletic Sport Shoes  </p>,1,9,,,,1,100,20,Taxable Goods,"Catalog, Search",,,,151.jpg,Image,151.jpg,Image,151.jpg,Image
FW-67,Bag,simple,Default Category/Bazzarry Fashion/women/shoes/Athletic,base, Women Sneakers Shoe,<p>  GT-14655-4 LUCA Hot Sale Fashion Athletic Women Running Sports Shoes Men And Women Sneakers Shoes </p>,<p>  GT-14655-4 LUCA Hot Sale Fashion Athletic Women Running Sports Shoes Men And Women Sneakers Shoes </p>,1,7,,,,1,100,20,Taxable Goods,"Catalog, Search",,,,152.jpg,Image,152.jpg,Image,152.jpg,Image
FW-68,Bag,simple,Default Category/Bazzarry Fashion/women/shoes/Athletic,base,Running Athletic Sport Sho,<p>  Custom Export 2018 Woman Running Athletic Sport Shoe </p>,<p>  Custom Export 2018 Woman Running Athletic Sport Shoe </p>,1,5.9,,,,1,100,20,Taxable Goods,"Catalog, Search",,,,153.jpg,Image,153.jpg,Image,153.jpg,Image
FW-69,Bag,simple,Default Category/Bazzarry Fashion/women/shoes/Athletic,base, gym running shoes,<p>  Nonmark sole breathable mesh athletic women's fitness gym running shoes </p>,<p>  Nonmark sole breathable mesh athletic women's fitness gym running shoes </p>,1,6.95,,,,1,100,20,Taxable Goods,"Catalog, Search",,,,154.jpg,Image,154.jpg,Image,154.jpg,Image
FW-70,Bag,simple,Default Category/Bazzarry Fashion/women/shoes/Athletic,base,Sport Walking Running Shoes,<p>  Baolite Women's Lightweight Sneakers Casual Athletic Sport Walking Running Shoes </p>,<p>  Baolite Women's Lightweight Sneakers Casual Athletic Sport Walking Running Shoes </p>,1,6.5,,,,1,100,20,Taxable Goods,"Catalog, Search",,,,155.jpg,Image,155.jpg,Image,155.jpg,Image
