sku,attribute_set_code,product_type,categories,product_websites,name,description,short_description,weight,price,special_price,special_price_from_date,special_price_to_date,product_online,qty,is_in_stock,tax_class_name,visibility,meta_title,meta_keywords,meta_description,base_image,base_image_label,small_image,small_image_label,thumbnail_image,thumbnail_image_label
BE-03,Bag,simple,Default Category/Electronics/PC Components/Processors,base,(Electronic Components) ic tablet pc chip cpu host processors,"<p>Model Integrated circuit</p>
<p>Type IC</p>
<p>Status New&amp;Original</p>
<p>Product Keywordsic tablet pc chip cpu host processors</p>","<p>Model Integrated circuit</p>
<p>Type IC</p>
<p>Status New&amp;Original</p>
<p>Product Keywordsic tablet pc chip cpu host processors</p>",,350,,,,1,100,1,Taxable Goods,"Catalog, Search",,,,3.png,Image,3.png,Image,3.png,Image
BE-04,Bag,simple,Default Category/Electronics/PC Components/Processors,base,PC camera USB 2.0 Camera Processors wiht UVC support ISP VC0347TLNA VC0347 VC0349 VC0353,"
<div class=""do-entry-list"">
<ul>
<li><strong><span class=""attr-name J-attr-name"" title=""Package"">Package:</span></strong>QFN</li>
<li><strong><span class=""attr-name J-attr-name"" title=""Model Number"">Model Number:</span></strong>VC0347TLN</li>
<li><strong><span class=""attr-name J-attr-name"" title=""Type"">Type:</span></strong>Logic ICs</li>
</ul>
<ul>
<li><strong><span class=""attr-name J-attr-name"" title=""Brand Name"">Brand Name:</span></strong>Original</li>
<li><strong><span class=""attr-name J-attr-name"" title=""Date Code"">Date Code:</span></strong>Newest ROHS</li>
<li><strong><span class=""attr-name J-attr-name"" title=""Skype"">Skype:</span></strong>michella_fang</li>
</ul>
</div>","
<div class=""do-entry-list"">
<ul>
<li><strong><span class=""attr-name J-attr-name"" title=""Package"">Package:</span></strong>QFN</li>
<li><strong><span class=""attr-name J-attr-name"" title=""Model Number"">Model Number:</span></strong>VC0347TLN</li>
<li><strong><span class=""attr-name J-attr-name"" title=""Type"">Type:</span></strong>Logic ICs</li>
</ul>
<ul>
<li><strong><span class=""attr-name J-attr-name"" title=""Brand Name"">Brand Name:</span></strong>Original</li>
<li><strong><span class=""attr-name J-attr-name"" title=""Date Code"">Date Code:</span></strong>Newest ROHS</li>
<li><strong><span class=""attr-name J-attr-name"" title=""Skype"">Skype:</span></strong>michella_fang</li>
</ul>
</div>",,80,,,,1,100,1,Taxable Goods,"Catalog, Search",,,,4.jpg,Image,4.jpg,Image,4.jpg,Image
BE-05,Bag,simple,Default Category/Electronics/PC Components/Processors,base,PC camera USB 2.0 Camera Processors wiht UVC support ISP chips VC0358PQNB VC0358,"<p>Model Number: VC0358PQNB</p>
<p>Brand Name: Original</p>
<p>D/C: New</p>
<p>Lead free status: RoHS compliant</p>
<p>Lead time:2-3 working days</p>
<p>Shipping by:DHL,Fedex,EMS,TNT,EUB,and Post</p>
<p>Package:Original package</p>
<p>Warranty:365 Days</p>
<p>Payment:TT/Paypal/Western Union/Escrow</p>
<p>Skype: michella_fang</p>
<p>DATASHEET:contactus</p>
<p>All kinds of :ICs</p>","<p>Model Number: VC0358PQNB</p>
<p>Brand Name: Original</p>
<p>D/C: New</p>
<p>Lead free status: RoHS compliant</p>
<p>Lead time:2-3 working days</p>
<p>Shipping by:DHL,Fedex,EMS,TNT,EUB,and Post</p>
<p>Package:Original package</p>
<p>Warranty:365 Days</p>
<p>Payment:TT/Paypal/Western Union/Escrow</p>
<p>Skype: michella_fang</p>
<p>DATASHEET:contactus</p>
<p>All kinds of :ICs</p>",,250,,,,1,100,1,Taxable Goods,"Catalog, Search",,,,5.jpg,Image,5.jpg,Image,5.jpg,Image
BE-06,Bag,simple,Default Category/Electronics/PC Components/Graphic Cards,base,4.20 mm 6+2 PIN 8 Position Male Housing for PC computer ATX graphics card GPU PCI-E PCIe Power Connector Shell Sliding Rail,"<dl class=""do-entry-item"">
<ul>
<li><strong><span class=""attr-name J-attr-name"" title=""Brand Name"">Brand Name:</span></strong>OEM</li>
<li><strong><span class=""attr-name J-attr-name"" title=""Model Number"">Model Number:</span></strong>Position Male Housing</li>
<li><strong><span class=""attr-name J-attr-name"" title=""Type"">Type:</span></strong>Header+Terminal+Housing</li>
<li><strong><span class=""attr-name J-attr-name"" title=""Application"">Application:</span></strong>PCB</li>
<li><strong><span class=""attr-name J-attr-name"" title=""Gender"">Gender:</span></strong>Header+Terminal+Housing</li>
<li><strong><span class=""attr-name J-attr-name"" title=""Lead free status"">Lad free status:</span></strong>RoHS compliant</li>
<li><strong><span class=""attr-name J-attr-name"" title=""Shipping by"">Shipping by:</span></strong>DHL,UPS,Fedex EMS TNT and Post</li>
<li><strong><span class=""attr-name J-attr-name"" title=""Package"">Package:</span></strong>Original package</li>
<li><strong><span class=""attr-name J-attr-name"" title=""Warranty"">Warranty:</span></strong>365 Days</li>
<li><strong><span class=""attr-name J-attr-name"" title=""Condition"">Condition:</span></strong>brand new and original</li>
<li><strong><span class=""attr-name J-attr-name"" title=""DATASHEET"">DATASHEET:</span></strong>contact by email or message</li>
<li><strong><span class=""attr-name J-attr-name"" title=""Working time"">Working time:</span></strong>24 hours online</li>
<li><strong><span class=""attr-name J-attr-name"" title=""On selling"">On selling:</span></strong>All kinds of electronic components</li>
</ul>
</dl>","<dl class=""do-entry-item"">
<ul>
<li><strong><span class=""attr-name J-attr-name"" title=""Brand Name"">Brand Name:</span></strong>OEM</li>
<li><strong><span class=""attr-name J-attr-name"" title=""Model Number"">Model Number:</span></strong>Position Male Housing</li>
<li><strong><span class=""attr-name J-attr-name"" title=""Type"">Type:</span></strong>Header+Terminal+Housing</li>
<li><strong><span class=""attr-name J-attr-name"" title=""Application"">Application:</span></strong>PCB</li>
<li><strong><span class=""attr-name J-attr-name"" title=""Gender"">Gender:</span></strong>Header+Terminal+Housing</li>
<li><strong><span class=""attr-name J-attr-name"" title=""Lead free status"">Lad free status:</span></strong>RoHS compliant</li>
<li><strong><span class=""attr-name J-attr-name"" title=""Shipping by"">Shipping by:</span></strong>DHL,UPS,Fedex EMS TNT and Post</li>
<li><strong><span class=""attr-name J-attr-name"" title=""Package"">Package:</span></strong>Original package</li>
<li><strong><span class=""attr-name J-attr-name"" title=""Warranty"">Warranty:</span></strong>365 Days</li>
<li><strong><span class=""attr-name J-attr-name"" title=""Condition"">Condition:</span></strong>brand new and original</li>
<li><strong><span class=""attr-name J-attr-name"" title=""DATASHEET"">DATASHEET:</span></strong>contact by email or message</li>
<li><strong><span class=""attr-name J-attr-name"" title=""Working time"">Working time:</span></strong>24 hours online</li>
<li><strong><span class=""attr-name J-attr-name"" title=""On selling"">On selling:</span></strong>All kinds of electronic components</li>
</ul>
</dl>",,59.25,,,,1,100,1,Taxable Goods,"Catalog, Search",,,,6.jpg,Image,6.jpg,Image,6.jpg,Image
BE-07,Bag,simple,Default Category/Electronics/PC Components/Graphic Cards,base,2019 China hottest consumer electronics 11GB geforce gtx 1080 ti graphics card,"<p><span style=""font-family: Helvetica; color: #050505; font-style: normal; font-size: 10.5000pt; background: #ffffff;"">-Graphics chip</span><span style=""font-family: Helvetica; color: #050505; font-style: normal; font-size: 10.5000pt; background: #ffffff;"">&nbsp;GeForce&reg; GTX 1080Ti</span></p>
<p><span style=""font-family: Helvetica; color: #050505; font-style: normal; font-size: 10.5000pt; background: #ffffff;"">-Core process</span><span style=""font-family: Helvetica; color: #050505; font-style: normal; font-size: 10.5000pt; background: #ffffff;"">&nbsp;16nm</span></p>
<p><span style=""font-family: Helvetica; color: #050505; font-style: normal; font-size: 10.5000pt; background: #ffffff;"">-CUDA Core</span><span style=""font-family: Helvetica; color: #050505; font-style: normal; font-size: 10.5000pt; background: #ffffff;"">&nbsp;3584</span></p>
<p><span style=""font-family: Helvetica; color: #050505; font-style: normal; font-size: 10.5000pt; background: #ffffff;"">-NVIDIA SLI</span><span style=""font-family: Helvetica; color: #050505; font-style: normal; font-size: 10.5000pt; background: #ffffff;"">&nbsp;Yes</span></p>
<p><span style=""font-family: Helvetica; color: #050505; font-style: normal; font-size: 10.5000pt; background: #ffffff;"">-Base frequency</span><span style=""font-family: Helvetica; color: #050505; font-style: normal; font-size: 10.5000pt; background: #ffffff;"">&nbsp;1480MHz</span><span style=""color: #050505; font-style: normal; font-size: 10.5000pt; background: #ffffff;"">/1582MHz</span></p>
<p><span style=""font-family: Helvetica; color: #050505; font-style: normal; font-size: 10.5000pt; background: #ffffff;"">-Memory frequency</span><span style=""font-family: Helvetica; color: #050505; font-style: normal; font-size: 10.5000pt; background: #ffffff;"">&nbsp;11Gbps</span></p>
<p><span style=""font-family: Helvetica; color: #050505; font-style: normal; font-size: 10.5000pt; background: #ffffff;"">-Memory capacity</span><span style=""font-family: Helvetica; color: #050505; font-style: normal; font-size: 10.5000pt; background: #ffffff;"">&nbsp;11G</span></p>
<p><span style=""font-family: Helvetica; color: #050505; font-style: normal; font-size: 10.5000pt; background: #ffffff;"">-Memory type</span><span style=""font-family: Helvetica; color: #050505; font-style: normal; font-size: 10.5000pt; background: #ffffff;"">&nbsp;GDDR5X</span></p>
<p><span style=""font-family: Helvetica; color: #050505; font-style: normal; font-size: 10.5000pt; background: #ffffff;"">-Memory bandwidth</span><span style=""font-family: Helvetica; color: #050505; font-style: normal; font-size: 10.5000pt; background: #ffffff;"">&nbsp;352bit</span></p>
<p><span style=""font-family: Helvetica; color: #050505; font-style: normal; font-size: 10.5000pt; background: #ffffff;"">-Bus standard</span><span style=""font-family: Helvetica; color: #050505; font-style: normal; font-size: 10.5000pt; background: #ffffff;"">&nbsp;PCI-E X16 (3.0)</span></p>
<p><span style=""font-family: Helvetica; color: #050505; font-style: normal; font-size: 10.5000pt; background: #ffffff;"">-3D API</span><span style=""font-family: Helvetica; color: #050505; font-style: normal; font-size: 10.5000pt; background: #ffffff;"">&nbsp;Direct X 12.1, OpenGL 4.5</span></p>
<p><span style=""font-family: Helvetica; color: #050505; font-style: normal; font-size: 10.5000pt; background: #ffffff;"">-Display interface</span><span style=""font-family: Helvetica; color: #050505; font-style: normal; font-size: 10.5000pt; background: #ffffff;"">&nbsp;HDMI+3DP</span></p>
<p><span style=""font-family: Helvetica; color: #050505; font-style: normal; font-size: 10.5000pt; background: #ffffff;"">-Digital maximum resolution </span><span style=""font-family: Helvetica; color: #050505; font-style: normal; font-size: 10.5000pt; background: #ffffff;"">7680&times;4320@60Hz</span></p>
<p><span style=""font-family: Helvetica; color: #050505; font-style: normal; font-size: 10.5000pt; background: #ffffff;"">-Multi-monitor </span><span style=""font-family: Helvetica; color: #050505; font-style: normal; font-size: 10.5000pt; background: #ffffff;"">4</span></p>
<p><span style=""font-family: Helvetica; color: #050505; font-style: normal; font-size: 10.5000pt; background: #ffffff;"">-TDP power consumption</span><span style=""font-family: Helvetica; color: #050505; font-style: normal; font-size: 10.5000pt; background: #ffffff;"">&nbsp;250W</span></p>","<p><span style=""font-family: Helvetica; color: #050505; font-style: normal; font-size: 10.5000pt; background: #ffffff;"">-Graphics chip</span><span style=""font-family: Helvetica; color: #050505; font-style: normal; font-size: 10.5000pt; background: #ffffff;"">&nbsp;GeForce&reg; GTX 1080Ti</span></p>
<p><span style=""font-family: Helvetica; color: #050505; font-style: normal; font-size: 10.5000pt; background: #ffffff;"">-Core process</span><span style=""font-family: Helvetica; color: #050505; font-style: normal; font-size: 10.5000pt; background: #ffffff;"">&nbsp;16nm</span></p>
<p><span style=""font-family: Helvetica; color: #050505; font-style: normal; font-size: 10.5000pt; background: #ffffff;"">-CUDA Core</span><span style=""font-family: Helvetica; color: #050505; font-style: normal; font-size: 10.5000pt; background: #ffffff;"">&nbsp;3584</span></p>
<p><span style=""font-family: Helvetica; color: #050505; font-style: normal; font-size: 10.5000pt; background: #ffffff;"">-NVIDIA SLI</span><span style=""font-family: Helvetica; color: #050505; font-style: normal; font-size: 10.5000pt; background: #ffffff;"">&nbsp;Yes</span></p>
<p><span style=""font-family: Helvetica; color: #050505; font-style: normal; font-size: 10.5000pt; background: #ffffff;"">-Base frequency</span><span style=""font-family: Helvetica; color: #050505; font-style: normal; font-size: 10.5000pt; background: #ffffff;"">&nbsp;1480MHz</span><span style=""color: #050505; font-style: normal; font-size: 10.5000pt; background: #ffffff;"">/1582MHz</span></p>
<p><span style=""font-family: Helvetica; color: #050505; font-style: normal; font-size: 10.5000pt; background: #ffffff;"">-Memory frequency</span><span style=""font-family: Helvetica; color: #050505; font-style: normal; font-size: 10.5000pt; background: #ffffff;"">&nbsp;11Gbps</span></p>
<p><span style=""font-family: Helvetica; color: #050505; font-style: normal; font-size: 10.5000pt; background: #ffffff;"">-Memory capacity</span><span style=""font-family: Helvetica; color: #050505; font-style: normal; font-size: 10.5000pt; background: #ffffff;"">&nbsp;11G</span></p>
<p><span style=""font-family: Helvetica; color: #050505; font-style: normal; font-size: 10.5000pt; background: #ffffff;"">-Memory type</span><span style=""font-family: Helvetica; color: #050505; font-style: normal; font-size: 10.5000pt; background: #ffffff;"">&nbsp;GDDR5X</span></p>
<p><span style=""font-family: Helvetica; color: #050505; font-style: normal; font-size: 10.5000pt; background: #ffffff;"">-Memory bandwidth</span><span style=""font-family: Helvetica; color: #050505; font-style: normal; font-size: 10.5000pt; background: #ffffff;"">&nbsp;352bit</span></p>
<p><span style=""font-family: Helvetica; color: #050505; font-style: normal; font-size: 10.5000pt; background: #ffffff;"">-Bus standard</span><span style=""font-family: Helvetica; color: #050505; font-style: normal; font-size: 10.5000pt; background: #ffffff;"">&nbsp;PCI-E X16 (3.0)</span></p>
<p><span style=""font-family: Helvetica; color: #050505; font-style: normal; font-size: 10.5000pt; background: #ffffff;"">-3D API</span><span style=""font-family: Helvetica; color: #050505; font-style: normal; font-size: 10.5000pt; background: #ffffff;"">&nbsp;Direct X 12.1, OpenGL 4.5</span></p>
<p><span style=""font-family: Helvetica; color: #050505; font-style: normal; font-size: 10.5000pt; background: #ffffff;"">-Display interface</span><span style=""font-family: Helvetica; color: #050505; font-style: normal; font-size: 10.5000pt; background: #ffffff;"">&nbsp;HDMI+3DP</span></p>
<p><span style=""font-family: Helvetica; color: #050505; font-style: normal; font-size: 10.5000pt; background: #ffffff;"">-Digital maximum resolution </span><span style=""font-family: Helvetica; color: #050505; font-style: normal; font-size: 10.5000pt; background: #ffffff;"">7680&times;4320@60Hz</span></p>
<p><span style=""font-family: Helvetica; color: #050505; font-style: normal; font-size: 10.5000pt; background: #ffffff;"">-Multi-monitor </span><span style=""font-family: Helvetica; color: #050505; font-style: normal; font-size: 10.5000pt; background: #ffffff;"">4</span></p>
<p><span style=""font-family: Helvetica; color: #050505; font-style: normal; font-size: 10.5000pt; background: #ffffff;"">-TDP power consumption</span><span style=""font-family: Helvetica; color: #050505; font-style: normal; font-size: 10.5000pt; background: #ffffff;"">&nbsp;250W</span></p>",,0.4,,,,1,100,1,Taxable Goods,"Catalog, Search",,,,7.jpg,Image,7.jpg,Image,7.jpg,Image
BE-08,Bag,simple,Default Category/Electronics/PC Components/Graphic Cards,base,GTX750 graphics card ,<p>Great quality in stock GTX750 graphics card for gaming</p>,<p>Great quality in stock GTX750 graphics card for gaming</p>,,0.9,,,,1,100,1,Taxable Goods,"Catalog, Search",,,,8.jpg,Image,8.jpg,Image,8.jpg,Image
BE-09,Bag,simple,Default Category/Electronics/PC Components/Graphic Cards,base, 4gb graphic card,<p>GTX 1050 ti gaming pc gpu 4gb graphic card video card</p>,<p>GTX 1050 ti gaming pc gpu 4gb graphic card video card</p>,,0.35,,,,1,100,1,Taxable Goods,"Catalog, Search",,,,9.jpg,Image,9.jpg,Image,9.jpg,Image
BE-10,Bag,simple,Default Category/Electronics/PC Components/Graphic Cards,base, geforce GT730,<p>PCIE VGA geforce GT730 ddr3 128 bit graphics card</p>,<p>PCIE VGA geforce GT730 ddr3 128 bit graphics card</p>,,0.6,,,,1,100,1,Taxable Goods,"Catalog, Search",,,,10.jpg,Image,10.jpg,Image,10.jpg,Image
BE-11,Bag,simple,Default Category/Electronics/PC Components/Motherboards,base,LCD TV motherboard,<p>Professional electronic 94v0 pcb LCD TV motherboard supplier</p>,<p>Professional electronic 94v0 pcb LCD TV motherboard supplier</p>,,0.5,,,,1,100,1,Taxable Goods,"Catalog, Search",,,,11.jpg,Image,11.jpg,Image,11.jpg,Image
BE-12,Bag,simple,Default Category/Electronics/PC Components/Motherboards,base,smartphone pcb motherboard,<p>custom smartphone pcb motherboard electronic pcb board</p>,<p>custom smartphone pcb motherboard electronic pcb board</p>,,2.13,,,,1,100,1,Taxable Goods,"Catalog, Search",,,,12.jpg,Image,12.jpg,Image,12.jpg,Image
BE-13,Bag,simple,Default Category/Electronics/PC Components/Motherboards,base,Assembly Service/custom Motherboard,<p>Oem Pcb/clone Pcba/electronic Assembly Service/custom Motherboard</p>,<p>Oem Pcb/clone Pcba/electronic Assembly Service/custom Motherboard</p>,,0.45,,,,1,100,1,Taxable Goods,"Catalog, Search",,,,13.jpg,Image,13.jpg,Image,13.jpg,Image
BE-14,Bag,simple,Default Category/Electronics/PC Components/Motherboards,base, pcb/tv motherboard,<p>PCBA Professional/design electronic development pcb/tv motherboard</p>,<p>PCBA Professional/design electronic development pcb/tv motherboard</p>,,0.85,,,,1,100,1,Taxable Goods,"Catalog, Search",,,,14.jpg,Image,14.jpg,Image,14.jpg,Image
BE-15,Bag,simple,Default Category/Electronics/PC Components/Motherboards,base,Circuit mobile motherboard,<p>94V0 electronic Printed Circuit mobile motherboard</p>,<p>94V0 electronic Printed Circuit mobile motherboard</p>,,5.5,,,,1,100,1,Taxable Goods,"Catalog, Search",,,,15.jpg,Image,15.jpg,Image,15.jpg,Image
BE-16,Bag,simple,Default Category/Electronics/PC Components/RAM,base,DDR3 pc 3-12800 Ram,<p>Shenzhen electronic stocks 32GB 4pieces 4X8GB DDR3 pc 3-12800 Ram memory</p>,<p>Shenzhen electronic stocks 32GB 4pieces 4X8GB DDR3 pc 3-12800 Ram memory</p>,,0.7,,,,1,100,1,Taxable Goods,"Catalog, Search",,,,16.jpg,Image,16.jpg,Image,16.jpg,Image
BE-17,Bag,simple,Default Category/Electronics/PC Components/RAM,base,electronic Components Ram,<p>KingSpec Wholesale 1600Mhz PC3-12800 4GB DDR3 Ram Shenzhen electronic Components Ram</p>,<p>KingSpec Wholesale 1600Mhz PC3-12800 4GB DDR3 Ram Shenzhen electronic Components Ram</p>,,180.1,,,,1,100,1,Taxable Goods,"Catalog, Search",,,,17.jpg,Image,17.jpg,Image,17.jpg,Image
BE-18,Bag,simple,Default Category/Electronics/PC Components/RAM,base,Compatible 4gb ddr4 Ram,<p>Consumer Electronics Full Compatible 4gb ddr4 Ram 2400MHZ Price In China</p>,<p>Consumer Electronics Full Compatible 4gb ddr4 Ram 2400MHZ Price In China</p>,,350,,,,1,100,1,Taxable Goods,"Catalog, Search",,,,18.jpg,Image,18.jpg,Image,18.jpg,Image
BE-19,Bag,simple,Default Category/Electronics/PC Components/RAM,base,ram ddr3 8gb laptop,<p>Electronics wholesale lot ram ddr3 8gb laptop stock</p>,<p>Electronics wholesale lot ram ddr3 8gb laptop stock</p>,,100,,,,1,100,1,Taxable Goods,"Catalog, Search",,,,19.jpg,Image,19.jpg,Image,19.jpg,Image
BE-20,Bag,simple,Default Category/Electronics/PC Components/RAM,base,Cheap Ddr3 Ram,<p>electronics used computer Cheap Ddr3 Ram 1066mhz 4gb Memoria</p>,<p>electronics used computer Cheap Ddr3 Ram 1066mhz 4gb Memoria</p>,,2,,,,1,100,1,Taxable Goods,"Catalog, Search",,,,20.jpg,Image,20.jpg,Image,20.jpg,Image
BE-21,Bag,simple,Default Category/Electronics/PC Components/Cases,base,Enclosure Box Case,<p>IP67 IP65 Aluminium Stainless Steel Metal Extrusion Electric Enclosure Hard Drive Electronic Enclosure Box Case</p>,<p>IP67 IP65 Aluminium Stainless Steel Metal Extrusion Electric Enclosure Hard Drive Electronic Enclosure Box Case</p>,,245,,,,1,100,1,Taxable Goods,"Catalog, Search",,,,21.jpg,Image,21.jpg,Image,21.jpg,Image
BE-22,Bag,simple,Default Category/Electronics/PC Components/Cases,base,aluminum case,<p>Color anodized extruded aluminum electronic enclosures custom made high quality aluminum case enclosure</p>,<p>Color anodized extruded aluminum electronic enclosures custom made high quality aluminum case enclosure</p>,,8.8,,,,1,100,1,Taxable Goods,"Catalog, Search",,,,22.jpg,Image,22.jpg,Image,22.jpg,Image
BE-23,Bag,simple,Default Category/Electronics/PC Components/Cases,base, Battery Case Enclosure,<p>SAIPWELL J Hinged Electronic PCB Board Clear Cover Battery Case Enclosure</p>,<p>SAIPWELL J Hinged Electronic PCB Board Clear Cover Battery Case Enclosure</p>,,30,,,,1,100,1,Taxable Goods,"Catalog, Search",,,,23.jpg,Image,23.jpg,Image,23.jpg,Image
BE-24,Bag,simple,Default Category/Electronics/PC Components/Cases,base,electronic plastic case outdoor lock boxes,<p>Custom-made case plastic enclosure for electronic device junction small plastic box electronic plastic case outdoor lock boxes</p>,<p>Custom-made case plastic enclosure for electronic device junction small plastic box electronic plastic case outdoor lock boxes</p>,,160,,,,1,100,1,Taxable Goods,"Catalog, Search",,,,24.jpg,Image,24.jpg,Image,24.jpg,Image
BE-25,Bag,simple,Default Category/Electronics/PC Components/Cases,base,aluminum electronic case,<p>JH-6040 Extruded aluminum electronic case enclosures</p>,<p>JH-6040 Extruded aluminum electronic case enclosures</p>,,145,,,,1,100,1,Taxable Goods,"Catalog, Search",,,,25.jpg,Image,25.jpg,Image,25.jpg,Image
BE-26,Bag,simple,Default Category/Electronics/Laptops/Macbooks,base,Body Skin for Macbook ,<p>Carbon Fiber Laptop Body Skin for Macbook Pro 13</p>,<p>Carbon Fiber Laptop Body Skin for Macbook Pro 13</p>,,42,,,,1,100,1,Taxable Goods,"Catalog, Search",,,,26.jpg,Image,26.jpg,Image,26.jpg,Image
BE-27,Bag,simple,Default Category/Electronics/Laptops/Macbooks,base,Skin Sticker For Macbook,<p>Custom Vinyl Decal Laptop Skin Sticker For Macbook With Many Patterns</p>,<p>Custom Vinyl Decal Laptop Skin Sticker For Macbook With Many Patterns</p>,,430,,,,1,100,1,Taxable Goods,"Catalog, Search",,,,27.jpg,Image,27.jpg,Image,27.jpg,Image
BE-28,Bag,simple,Default Category/Electronics/Laptops/Macbooks,base,film sticker for Macbook ,<p>Transparent TPU laptop skin laptop body protective film sticker for Macbook / Air / Pro</p>,<p>Transparent TPU laptop skin laptop body protective film sticker for Macbook / Air / Pro</p>,,8.1,,,,1,100,1,Taxable Goods,"Catalog, Search",,,,28.jpg,Image,28.jpg,Image,28.jpg,Image
BE-29,Bag,simple,Default Category/Electronics/Laptops/Macbooks,base, shell Sticker for Macboo,<p>New Arrival laptop Sticker for Macbook Pro Air 13 11 15 12 Inch Retina Touch Computer Skin shell Sticker for Macbook</p>,<p>New Arrival laptop Sticker for Macbook Pro Air 13 11 15 12 Inch Retina Touch Computer Skin shell Sticker for Macbook</p>,,2.68,,,,1,100,1,Taxable Goods,"Catalog, Search",,,,29.jpg,Image,29.jpg,Image,29.jpg,Image
BE-30,Bag,simple,Default Category/Electronics/Laptops/Macbooks,base,marble sticker skin for MacBook,<p>2017 wholesale laptop custom marble sticker skin for MacBook skin sticker for New MacBook Pro 13.3'' 15.4'' retina sticker</p>,<p>2017 wholesale laptop custom marble sticker skin for MacBook skin sticker for New MacBook Pro 13.3'' 15.4'' retina sticker</p>,,4.5,,,,1,100,1,Taxable Goods,"Catalog, Search",,,,30.jpg,Image,30.jpg,Image,30.jpg,Image
BE-31,Bag,simple,Default Category/Electronics/Laptops/Gaming Laptops,base, 16gb ram for msi laptop gaming,<p>wholesale electronics bulk gaming laptop oem 15.6 inch FHD IPS I5 6300HQ gtx 940M gaming 16gb ram for msi laptop gaming</p>,<p>wholesale electronics bulk gaming laptop oem 15.6 inch FHD IPS I5 6300HQ gtx 940M gaming 16gb ram for msi laptop gaming</p>,,553,,,,1,100,1,Taxable Goods,"Catalog, Search",,,,31.jpg,Image,31.jpg,Image,31.jpg,Image
BE-32,Bag,simple,Default Category/Electronics/Laptops/Gaming Laptops,base, intel core i3 i7 laptop,"<p>2018 Good price 16gb 32gb ram i3 i7 laptop gaming, New 13.3 14.1 15.6inch intel core i3 i7 laptop prices in china</p>","<p>2018 Good price 16gb 32gb ram i3 i7 laptop gaming, New 13.3 14.1 15.6inch intel core i3 i7 laptop prices in china</p>",,90,,,,1,100,1,Taxable Goods,"Catalog, Search",,,,32.jpg,Image,32.jpg,Image,32.jpg,Image
BE-33,Bag,simple,Default Category/Electronics/Laptops/Gaming Laptops,base, GTX 1080 SLi Gaming Laptop,"<p>Original MSI GT83VR TITAN 18.4"" GTX 1080 SLi Gaming Laptop + Mech. Keys i7-6920HQ, 64GB, 512GB+1TB, 8GB GTX1080 SLi, BD Win 10</p>","<p>Original MSI GT83VR TITAN 18.4"" GTX 1080 SLi Gaming Laptop + Mech. Keys i7-6920HQ, 64GB, 512GB+1TB, 8GB GTX1080 SLi, BD Win 10</p>",,299,,,,1,100,1,Taxable Goods,"Catalog, Search",,,,33.jpg,Image,33.jpg,Image,33.jpg,Image
BE-34,Bag,simple,Default Category/Electronics/Laptops/Gaming Laptops,base, laptop pc for gaming support ,<p>14 inch laptop with win10 big memory cheap laptop pc for gaming support 3G</p>,<p>14 inch laptop with win10 big memory cheap laptop pc for gaming support 3G</p>,,295.28,,,,1,100,1,Taxable Goods,"Catalog, Search",,,,34.jpg,Image,34.jpg,Image,34.jpg,Image
BE-35,Bag,simple,Default Category/Electronics/Laptops/Gaming Laptops,base,Gaming Laptop with Dedicated,<p>Narrow frame 15.6 inch Gaming Laptop with Dedicated Graphics card 6G Ram 512G SSD 2TB HDD</p>,<p>Narrow frame 15.6 inch Gaming Laptop with Dedicated Graphics card 6G Ram 512G SSD 2TB HDD</p>,,298,,,,1,100,1,Taxable Goods,"Catalog, Search",,,,35.jpg,Image,35.jpg,Image,35.jpg,Image
BE-36,Bag,simple,Default Category/Electronics/Laptops/All in ones | Desktop,base,desktop aio all in one pc,<p>wholesale electronics bulk 23.6 inch touch screen i3 desktop aio all in one pc</p>,<p>wholesale electronics bulk 23.6 inch touch screen i3 desktop aio all in one pc</p>,,467.63,,,,1,100,1,Taxable Goods,"Catalog, Search",,,,36.jpg,Image,36.jpg,Image,36.jpg,Image
BE-37,Bag,simple,Default Category/Electronics/Laptops/All in ones | Desktop,base,all in one touchscreen pc 1980*1020 ,<p>  23 all in one touchscreen pc 1980*1020 touch screen desktop computer new products 2016 consumer electronics   </p>,<p>  23 all in one touchscreen pc 1980*1020 touch screen desktop computer new products 2016 consumer electronics   </p>,,200,,,,1,100,1,Taxable Goods,"Catalog, Search",,,,37.jpg,Image,37.jpg,Image,37.jpg,Image
BE-38,Bag,simple,Default Category/Electronics/Laptops/All in ones | Desktop,base, all in one tv PC Computer 21.5,<p>  Office School All in One Desktop all in one tv PC Computer 21.5''   </p>,<p>  Office School All in One Desktop all in one tv PC Computer 21.5''   </p>,,223,,,,1,100,1,Taxable Goods,"Catalog, Search",,,,38.jpg,Image,38.jpg,Image,38.jpg,Image
BE-39,Bag,simple,Default Category/Electronics/Laptops/All in ones | Desktop,base,monoblock all in one computer pc desktop,<p>  computer monoblock all in one computer pc desktop all in one 23.8 inch curved surface i3 i7 i5 without cpu ssd ram diy computer   </p>,<p>  computer monoblock all in one computer pc desktop all in one 23.8 inch curved surface i3 i7 i5 without cpu ssd ram diy computer   </p>,,285,,,,1,100,1,Taxable Goods,"Catalog, Search",,,,39.jpg,Image,39.jpg,Image,39.jpg,Image
BE-40,Bag,simple,Default Category/Electronics/Laptops/All in ones | Desktop,base,all-in-one pc desktop ,<p>   27 inch desktop all-in-one pc desktop AMD i3 i5 i7 SSD HDD all in one pc  </p>,<p>   27 inch desktop all-in-one pc desktop AMD i3 i5 i7 SSD HDD all in one pc  </p>,,298,,,,1,100,1,Taxable Goods,"Catalog, Search",,,,40.jpg,Image,40.jpg,Image,40.jpg,Image
BE-41,Bag,simple,Default Category/Electronics/Laptops/2 in 1 Laptops,base, 2 in 1 Laptop Netbooks with 11.6 inch,<p>  2 in 1 Laptop Netbooks with 11.6 inch 360 degree rotary touch screen Quad Core 4G Ram 128G SSD   </p>,<p>  2 in 1 Laptop Netbooks with 11.6 inch 360 degree rotary touch screen Quad Core 4G Ram 128G SSD   </p>,,209,,,,1,100,1,Taxable Goods,"Catalog, Search",,,,41.jpg,Image,41.jpg,Image,41.jpg,Image
BE-42,Bag,simple,Default Category/Electronics/Laptops/2 in 1 Laptops,base, 2 in 1 gaming laptop oem ,<p>   wholesale electronics bulk 10inch tablet pc 10 mini laptop size 2 in 1 gaming laptop oem  </p>,<p>   wholesale electronics bulk 10inch tablet pc 10 mini laptop size 2 in 1 gaming laptop oem  </p>,,123,,,,1,100,1,Taxable Goods,"Catalog, Search",,,,42.jpg,Image,42.jpg,Image,42.jpg,Image
BE-43,Bag,simple,Default Category/Electronics/Laptops/2 in 1 Laptops,base,2 in 1 Tablet Laptop PC 10 inch 1,<p>  Factory Direct New 4GB 64GB 2 in 1 Tablet Laptop PC 10 inch IPS for Windows Tablet PC Win 10   </p>,<p>  Factory Direct New 4GB 64GB 2 in 1 Tablet Laptop PC 10 inch IPS for Windows Tablet PC Win 10   </p>,,117,,,,1,100,1,Taxable Goods,"Catalog, Search",,,,43.jpg,Image,43.jpg,Image,43.jpg,Image
BE-44,Bag,simple,Default Category/Electronics/Laptops/2 in 1 Laptops,base,2 in 1 Touch Screen Detachable Laptop,"<p>  10"" 2 in 1 Touch Screen Detachable Laptop 1.43GHz Z8350 10 inch   </p>","<p>  10"" 2 in 1 Touch Screen Detachable Laptop 1.43GHz Z8350 10 inch   </p>",,95.5,,,,1,100,1,Taxable Goods,"Catalog, Search",,,,44.jpg,Image,44.jpg,Image,44.jpg,Image
BE-45,Bag,simple,Default Category/Electronics/Laptops/2 in 1 Laptops,base,2 in 1 Tablet Laptop PC 10 inch,<p>   New 4GB 64GB 2 in 1 Tablet Laptop PC 10 inch IPS for Windows Tablet PC Dual OS Android Win  </p>,<p>   New 4GB 64GB 2 in 1 Tablet Laptop PC 10 inch IPS for Windows Tablet PC Dual OS Android Win  </p>,,185,,,,1,100,1,Taxable Goods,"Catalog, Search",,,,45.jpg,Image,45.jpg,Image,45.jpg,Image
BE-46,Bag,simple,Default Category/Electronics/Accessories/Hard Disks,base, 128 gb sata ssd hard disk,<p>   Biwin consumer electronics 1.8 MLC 128 gb sata ssd hard disk  </p>,<p>   Biwin consumer electronics 1.8 MLC 128 gb sata ssd hard disk  </p>,,55,,,,1,100,1,Taxable Goods,"Catalog, Search",,,,46.jpg,Image,46.jpg,Image,46.jpg,Image
BE-47,Bag,simple,Default Category/Electronics/Accessories/Hard Disks,base, portable hard disk drive,<p>  1tb OR 2 TB 2.5 hard disk 5400rpm usb3.0 portable hard disk drive   </p>,<p>  1tb OR 2 TB 2.5 hard disk 5400rpm usb3.0 portable hard disk drive   </p>,,45,,,,1,100,1,Taxable Goods,"Catalog, Search",,,,47.jpg,Image,47.jpg,Image,47.jpg,Image
BE-48,Bag,simple,Default Category/Electronics/Accessories/Hard Disks,base,Hard Disk 1TB ,<p>  High Quality Laptop Hard Drives Computer Machine Hdd 500Gb Disk 2TB USB3.0 Mobile Hard Disk 1TB   </p>,<p>  High Quality Laptop Hard Drives Computer Machine Hdd 500Gb Disk 2TB USB3.0 Mobile Hard Disk 1TB   </p>,,29,,,,1,100,1,Taxable Goods,"Catalog, Search",,,,48.jpg,Image,48.jpg,Image,48.jpg,Image
BE-49,Bag,simple,Default Category/Electronics/Accessories/Hard Disks,base,ssd hard disk ,<p>   Sumsung used ssd hard disk  </p>,<p>   Sumsung used ssd hard disk  </p>,,15,,,,1,100,1,Taxable Goods,"Catalog, Search",,,,49.jpg,Image,49.jpg,Image,49.jpg,Image
BE-50,Bag,simple,Default Category/Electronics/Accessories/Hard Disks,base,  Seagate Hard Disk 8TB ,<p>  Seagate Hard Disk 8TB SkyHawk HDD SATA 6Gb/s 256MB for NVR DVRs SDVR Internal Hard Drive for Ipfsmain Ipfs M2 ( ST8000NM0055)   </p>,<p>  Seagate Hard Disk 8TB SkyHawk HDD SATA 6Gb/s 256MB for NVR DVRs SDVR Internal Hard Drive for Ipfsmain Ipfs M2 ( ST8000NM0055)   </p>,,165,,,,1,100,1,Taxable Goods,"Catalog, Search",,,,50.png,Image,50.png,Image,50.png,Image
BE-51,Bag,simple,Default Category/Electronics/Accessories/Routers,base, new model wifi router hx009zt ,<p>   2017 new model wifi router hx009zt Computer Hardware & Software Routers Consumer Electronics  </p>,<p>   2017 new model wifi router hx009zt Computer Hardware & Software Routers Consumer Electronics  </p>,,19,,,,1,100,1,Taxable Goods,"Catalog, Search",,,,51.jpg,Image,51.jpg,Image,51.jpg,Image
BE-52,Bag,simple,Default Category/Electronics/Accessories/Routers,base,802.11n wireless wifi route,<p>  mediatek openwrt electronics 802.11n wireless wifi router with 192.168.1.1   </p>,<p>  mediatek openwrt electronics 802.11n wireless wifi router with 192.168.1.1   </p>,,18,,,,1,100,1,Taxable Goods,"Catalog, Search",,,,52.jpg,Image,52.jpg,Image,52.jpg,Image
BE-53,Bag,simple,Default Category/Electronics/Accessories/Routers,base,Electronic Bayonet Wireless Router  ,<p>   YINUO-LINK 2019 New AR9341 High Power HD Electronic Bayonet Wireless Router  </p>,<p>   YINUO-LINK 2019 New AR9341 High Power HD Electronic Bayonet Wireless Router  </p>,,100,,,,1,100,1,Taxable Goods,"Catalog, Search",,,,53.jpg,Image,53.jpg,Image,53.jpg,Image
BE-54,Bag,simple,Default Category/Electronics/Accessories/Routers,base, router with sim card,<p>  192.168.100.1 3g 4g 300mbps modem lte wifi wireless cpe router with sim card slot and RJ45   </p>,<p>  192.168.100.1 3g 4g 300mbps modem lte wifi wireless cpe router with sim card slot and RJ45   </p>,,19,,,,1,100,1,Taxable Goods,"Catalog, Search",,,,54.jpg,Image,54.jpg,Image,54.jpg,Image
BE-55,Bag,simple,Default Category/Electronics/Accessories/Routers,base,Openwrt 3g route,<p>   Industrial Mobile Dongle 4g modem lte router wifi sim card slot Openwrt 3g router  </p>,<p>   Industrial Mobile Dongle 4g modem lte router wifi sim card slot Openwrt 3g router  </p>,,24.57,,,,1,100,1,Taxable Goods,"Catalog, Search",,,,55.jpg,Image,55.jpg,Image,55.jpg,Image
BE-56,Bag,simple,Default Category/Electronics/Accessories/Printers,base, flatbed printer,<p>    Save electronics fast speed tshirt PRINTER best quality tshirt flatbed printer </p>,<p>    Save electronics fast speed tshirt PRINTER best quality tshirt flatbed printer </p>,,5700,,,,1,100,1,Taxable Goods,"Catalog, Search",,,,56.jpg,Image,56.jpg,Image,56.jpg,Image
BE-57,Bag,simple,Default Category/Electronics/Accessories/Printers,base, Electronic uv printer,<p>   Electronic uv printer with photoprint can print on all surface  </p>,<p>   Electronic uv printer with photoprint can print on all surface  </p>,,5688,,,,1,100,1,Taxable Goods,"Catalog, Search",,,,57.jpg,Image,57.jpg,Image,57.jpg,Image
BE-58,Bag,simple,Default Category/Electronics/Accessories/Printers,base, electronic board printer,<p>  8 colors uv electronic board printer   </p>,<p>  8 colors uv electronic board printer   </p>,,15990,,,,1,100,1,Taxable Goods,"Catalog, Search",,,,58.jpg,Image,58.jpg,Image,58.jpg,Image
BE-59,Bag,simple,Default Category/Electronics/Accessories/Printers,base,flatbed printer /electronics,<p>   price of vinyl printer/uv flatbed printer /electronics  </p>,<p>   price of vinyl printer/uv flatbed printer /electronics  </p>,,1800,,,,1,100,1,Taxable Goods,"Catalog, Search",,,,59.jpg,Image,59.jpg,Image,59.jpg,Image
BE-60,Bag,simple,Default Category/Electronics/Accessories/Printers,base,electronic lighter printer,<p>  Hot Sale Direct Print electronic lighter printer   </p>,<p>  Hot Sale Direct Print electronic lighter printer   </p>,,2500,,,,1,100,1,Taxable Goods,"Catalog, Search",,,,60.jpg,Image,60.jpg,Image,60.jpg,Image
BE-61,Bag,simple,Default Category/Electronics/Accessories/Monitors,base,electronic Viewfinder for camera,<p>   FEELWORLD HD 3.5 monitor DSLR LCD electronic Viewfinder for camera  </p>,<p>   FEELWORLD HD 3.5 monitor DSLR LCD electronic Viewfinder for camera  </p>,,168,,,,1,100,1,Taxable Goods,"Catalog, Search",,,,61.jpg,Image,61.jpg,Image,61.jpg,Image
BE-62,Bag,simple,Default Category/Electronics/Accessories/Monitors,base, LCD Monitor,<p>  7 Inch LCD Monitor Low Vision Portable Electronic Reading Magnifier   </p>,<p>  7 Inch LCD Monitor Low Vision Portable Electronic Reading Magnifier   </p>,,62,,,,1,100,1,Taxable Goods,"Catalog, Search",,,,62.jpg,Image,62.jpg,Image,62.jpg,Image
BE-63,Bag,simple,Default Category/Electronics/Accessories/Monitors,base, Monitor With Sun-hood,<p>   5 Inch Ips Small lcd Electronic On-camera Monitor Field Video Monitor With Sun-hood  </p>,<p>   5 Inch Ips Small lcd Electronic On-camera Monitor Field Video Monitor With Sun-hood  </p>,,60,,,,1,100,1,Taxable Goods,"Catalog, Search",,,,63.jpg,Image,63.jpg,Image,63.jpg,Image
BE-64,Bag,simple,Default Category/Electronics/Accessories/Monitors,base, Broadcast Monitor Widescreen ,"<p>   3.5"" Electronic ViewFinder LCD HD-SDI Broadcast Monitor Widescreen 15:9 for DSLR Camera and Camcorder  </p>","<p>   3.5"" Electronic ViewFinder LCD HD-SDI Broadcast Monitor Widescreen 15:9 for DSLR Camera and Camcorder  </p>",,220,,,,1,100,1,Taxable Goods,"Catalog, Search",,,,64.png,Image,64.png,Image,64.png,Image
BE-65,Bag,simple,Default Category/Electronics/Accessories/Monitors,base,Monitor with SDI & HDMI,<p>  Lilliput Electronics 7-inch HD Field Monitor with SDI & HDMI Cross Conversion   </p>,<p>  Lilliput Electronics 7-inch HD Field Monitor with SDI & HDMI Cross Conversion   </p>,,358,,,,1,100,1,Taxable Goods,"Catalog, Search",,,,65.jpg,Image,65.jpg,Image,65.jpg,Image
BE-66,Bag,simple,Default Category/Electronics/Accessories/USB Drives,base,Custom USB Flash Drive,<p>   Bulk cheap Colorful 4GB Swivel USB Memory Stick Metal Custom USB Flash Drive  </p>,<p>   Bulk cheap Colorful 4GB Swivel USB Memory Stick Metal Custom USB Flash Drive  </p>,,3.8,,,,1,100,1,Taxable Goods,"Catalog, Search",,,,66.jpg,Image,66.jpg,Image,66.jpg,Image
BE-67,Bag,simple,Default Category/Electronics/Accessories/USB Drives,base,stick glasses usb flash drive,<p>  Very cheap electronic products service stick glasses usb flash drive   </p>,<p>  Very cheap electronic products service stick glasses usb flash drive   </p>,,2,,,,1,100,1,Taxable Goods,"Catalog, Search",,,,67.png,Image,67.png,Image,67.png,Image
BE-68,Bag,simple,Default Category/Electronics/Accessories/USB Drives,base,  Electronics manufacturer Crystal Usb 3.0,<p>   Electronics manufacturer Crystal Usb 3.0 pen drive 8gb 16gb 32gb  </p>,<p>   Electronics manufacturer Crystal Usb 3.0 pen drive 8gb 16gb 32gb  </p>,,15,,,,1,100,1,Taxable Goods,"Catalog, Search",,,,68.jpg,Image,68.jpg,Image,68.jpg,Image
BE-69,Bag,simple,Default Category/Electronics/Accessories/USB Drives,base,electronic cigarette lighter pen drive,<p>   High quality safety rechargeable USB flash drive no gas electronic cigarette lighter pen drive  </p>,<p>   High quality safety rechargeable USB flash drive no gas electronic cigarette lighter pen drive  </p>,,10,,,,1,100,1,Taxable Goods,"Catalog, Search",,,,69.jpg,Image,69.jpg,Image,69.jpg,Image
BE-70,Bag,simple,Default Category/Electronics/Accessories/USB Drives,base,musical instrumental pen drive,"<p>  musical note violin guitar electronic keyboard usb stick flash drive, musical instrumental pen drive   </p>","<p>  musical note violin guitar electronic keyboard usb stick flash drive, musical instrumental pen drive   </p>",,2.2,,,,1,100,1,Taxable Goods,"Catalog, Search",,,,70.jpg,Image,70.jpg,Image,70.jpg,Image
BE-71,Bag,simple,Default Category/Electronics/Televisions/LED,base,  Buy Bulk Electronics Smart led,<p>   Buy Bulk Electronics Smart led tv 32'' 39'' big hd tv  </p>,<p>   Buy Bulk Electronics Smart led tv 32'' 39'' big hd tv  </p>,,80,,,,1,100,1,Taxable Goods,"Catalog, Search",,,,71.jpg,Image,71.jpg,Image,71.jpg,Image
BE-72,Bag,simple,Default Category/Electronics/Televisions/LED,base,  Consumer electronics led ,<p>  Consumer electronics led tv price bangladesh televisores 23 inch led tv   </p>,<p>  Consumer electronics led tv price bangladesh televisores 23 inch led tv   </p>,,45,,,,1,100,1,Taxable Goods,"Catalog, Search",,,,72.jpg,Image,72.jpg,Image,72.jpg,Image
BE-73,Bag,simple,Default Category/Electronics/Televisions/LED,base, cheapest consumer electronic led,<p>  cheapest consumer electronic led tv 19 inch television china wholesale   </p>,<p>  cheapest consumer electronic led tv 19 inch television china wholesale   </p>,,60,,,,1,100,1,Taxable Goods,"Catalog, Search",,,,73.jpg,Image,73.jpg,Image,73.jpg,Image
BE-74,Bag,simple,Default Category/Electronics/Televisions/LED,base, 4K led,<p>   Electronics smart television 49 inch 4K led tv  </p>,<p>   Electronics smart television 49 inch 4K led tv  </p>,,220,,,,1,100,1,Taxable Goods,"Catalog, Search",,,,74.jpg,Image,74.jpg,Image,74.jpg,Image
BE-75,Bag,simple,Default Category/Electronics/Televisions/LED,base,  wholesale 32 inch led ,<p>  wholesale 32 inch led tv electronics tv chinese tv brands   </p>,<p>  wholesale 32 inch led tv electronics tv chinese tv brands   </p>,,85,,,,1,100,1,Taxable Goods,"Catalog, Search",,,,75.jpg,Image,75.jpg,Image,75.jpg,Image
BE-76,Bag,simple,Default Category/Electronics/Televisions/4K UHD,base,Smart LED TV,<p>  Electronics smart UHD television 4k 55 inch Smart LED TV   </p>,<p>  Electronics smart UHD television 4k 55 inch Smart LED TV   </p>,,280,,,,1,100,1,Taxable Goods,"Catalog, Search",,,,76.jpg,Image,76.jpg,Image,76.jpg,Image
BE-77,Bag,simple,Default Category/Electronics/Televisions/4K UHD,base, 4K 55 inch Smart LED TV,<p>   Electronics Smart UHD Television 4K 55 inch Smart LED TV  </p>,<p>   Electronics Smart UHD Television 4K 55 inch Smart LED TV  </p>,,230,,,,1,100,1,Taxable Goods,"Catalog, Search",,,,77.png,Image,77.png,Image,77.png,Image
BE-78,Bag,simple,Default Category/Electronics/Televisions/4K UHD,base, 4K 55 inch Smart LED TV 2,<p>   Electronics smart UHD television 4k 55 inch Smart LED TV  </p>,<p>   Electronics smart UHD television 4k 55 inch Smart LED TV  </p>,,225,,,,1,100,1,Taxable Goods,"Catalog, Search",,,,78.jpg,Image,78.jpg,Image,78.jpg,Image
BE-79,Bag,simple,Default Category/Electronics/Televisions/4K UHD,base,cheap price Electronics smart LED TV,<p>  good quality cheap price Electronics smart UHD television 4k 55 inch Smart LED TV   </p>,<p>  good quality cheap price Electronics smart UHD television 4k 55 inch Smart LED TV   </p>,,246,,,,1,100,1,Taxable Goods,"Catalog, Search",,,,79.jpg,Image,79.jpg,Image,79.jpg,Image
BE-80,Bag,simple,Default Category/Electronics/Televisions/4K UHD,base, 1080p Smart LED TV ,<p>  Electronics smart UHD television 4k 55 inch 1080p Smart LED TV   </p>,<p>  Electronics smart UHD television 4k 55 inch 1080p Smart LED TV   </p>,,220,,,,1,100,1,Taxable Goods,"Catalog, Search",,,,80.jpg,Image,80.jpg,Image,80.jpg,Image
BE-81,Bag,simple,Default Category/Electronics/Televisions/Smart TV,base, tv electronic smart 1,"<p>   Best Price Full hd 14 40 43 55"" 60"" 75 inch tv electronic smart  </p>","<p>   Best Price Full hd 14 40 43 55"" 60"" 75 inch tv electronic smart  </p>",,300,,,,1,100,1,Taxable Goods,"Catalog, Search",,,,81.jpg,Image,81.jpg,Image,81.jpg,Image
BE-82,Bag,simple,Default Category/Electronics/Televisions/Smart TV,base,19 Inch electronics smart tv,<p>   Latest slim flat screen television 19 Inch electronics smart tvs  </p>,<p>   Latest slim flat screen television 19 Inch electronics smart tvs  </p>,,51,,,,1,100,1,Taxable Goods,"Catalog, Search",,,,82.jpg,Image,82.jpg,Image,82.jpg,Image
BE-83,Bag,simple,Default Category/Electronics/Televisions/Smart TV,base, Wall Mounted TV,"<p>  19"" Smart Waterproof Electronic Advertising Screens Bathroom Wall Mounted TV   </p>","<p>  19"" Smart Waterproof Electronic Advertising Screens Bathroom Wall Mounted TV   </p>",,288,,,,1,100,1,Taxable Goods,"Catalog, Search",,,,83.jpg,Image,83.jpg,Image,83.jpg,Image
BE-84,Bag,simple,Default Category/Electronics/Televisions/Smart TV,base,40 Inch electronics smart tv,<p>   Latest design ultra slim flat screen 40 Inch electronics smart tvs  </p>,<p>   Latest design ultra slim flat screen 40 Inch electronics smart tvs  </p>,,185,,,,1,100,1,Taxable Goods,"Catalog, Search",,,,84.jpg,Image,84.jpg,Image,84.jpg,Image
BE-85,Bag,simple,Default Category/Electronics/Televisions/Smart TV,base, TV with WIFI Televisions ,<p>   FHD Electronic LCD 42inch Smart LED TV with WIFI Televisions  </p>,<p>   FHD Electronic LCD 42inch Smart LED TV with WIFI Televisions  </p>,,140,,,,1,100,1,Taxable Goods,"Catalog, Search",,,,85.jpg,Image,85.jpg,Image,85.jpg,Image
BE-86,Bag,simple,"Default Category/Electronics/Televisions/55""Full HD",base, tv electronic smart 2,"<p>  Cheap Price Full hd 55"" 65"" 75 inch tv electronic smart   </p>","<p>  Cheap Price Full hd 55"" 65"" 75 inch tv electronic smart   </p>",,299,,,,1,100,1,Taxable Goods,"Catalog, Search",,,,86.jpg,Image,86.jpg,Image,86.jpg,Image
BE-87,Bag,simple,"Default Category/Electronics/Televisions/55""Full HD",base, tv electronic smart ,"<p>   Best Price Full hd 14 40 43 55"" 60"" 75 inch tv electronic smart  </p>","<p>   Best Price Full hd 14 40 43 55"" 60"" 75 inch tv electronic smart  </p>",,300,,,,1,100,1,Taxable Goods,"Catalog, Search",,,,87.jpg,Image,87.jpg,Image,87.jpg,Image
BE-88,Bag,simple,"Default Category/Electronics/Televisions/55""Full HD",base, Full HD Television 40 inch Smart LED TV,"<p>   China LCD TV OEM Factory Wholesale Cheap Price and 32"" - 55"" Hotel TV Use Full HD Television 40 inch Smart LED TV  </p>","<p>   China LCD TV OEM Factory Wholesale Cheap Price and 32"" - 55"" Hotel TV Use Full HD Television 40 inch Smart LED TV  </p>",,118,,,,1,100,1,Taxable Goods,"Catalog, Search",,,,88.jpg,Image,88.jpg,Image,88.jpg,Image
BE-89,Bag,simple,"Default Category/Electronics/Televisions/55""Full HD",base,FULL hd Cheap HD Smart LED,"<p>   cheap LED tv 32"" FULL hd Cheap HD Smart LED TV 32"" 40"" 43"" 46"" 50"" 55 inch LED LCD TV  </p>","<p>   cheap LED tv 32"" FULL hd Cheap HD Smart LED TV 32"" 40"" 43"" 46"" 50"" 55 inch LED LCD TV  </p>",,110,,,,1,100,1,Taxable Goods,"Catalog, Search",,,,89.jpg,Image,89.jpg,Image,89.jpg,Image
BE-90,Bag,simple,"Default Category/Electronics/Televisions/55""Full HD",base,Cheap Full HD Smart LED TV,"<p>  Cheap Full HD Smart LED TV 32"" 40"" 42"" 46"" 50"" 55 inch LED LCD TV Price   </p>","<p>  Cheap Full HD Smart LED TV 32"" 40"" 42"" 46"" 50"" 55 inch LED LCD TV Price   </p>",,80,,,,1,100,1,Taxable Goods,"Catalog, Search",,,,90.jpg,Image,90.jpg,Image,90.jpg,Image
BE-91,Bag,simple,Default Category/Electronics/Home Audio&Video/Speakers,base,speaker with remote ,<p>   8gb led speaker quran lamp for quran speaker with remote manufacturers  </p>,<p>   8gb led speaker quran lamp for quran speaker with remote manufacturers  </p>,,17,,,,1,100,1,Taxable Goods,"Catalog, Search",,,,91.jpg,Image,91.jpg,Image,91.jpg,Image
BE-92,Bag,simple,Default Category/Electronics/Home Audio&Video/Speakers,base, mic conference room speakers ,<p>   TEVO-A100 hot sale USB conference room phone speaker speakerphone mic conference room speakers  </p>,<p>   TEVO-A100 hot sale USB conference room phone speaker speakerphone mic conference room speakers  </p>,,75,,,,1,100,1,Taxable Goods,"Catalog, Search",,,,92.jpg,Image,92.jpg,Image,92.jpg,Image
BE-93,Bag,simple,Default Category/Electronics/Home Audio&Video/Speakers,base, Bookshelf Speakers  ,<p>  Tonewinner TD-S1 Wooden HIFI Passive Bookshelf Speakers   </p>,<p>  Tonewinner TD-S1 Wooden HIFI Passive Bookshelf Speakers   </p>,,358,,,,1,100,1,Taxable Goods,"Catalog, Search",,,,93.jpg,Image,93.jpg,Image,93.jpg,Image
BE-94,Bag,simple,Default Category/Electronics/Home Audio&Video/Speakers,base,Video Luggage Speaker ,<p> 2018 New Trending SK712 Mobile Trolley Video Luggage Speaker 40W With 14 inch LED Screen    </p>,<p> 2018 New Trending SK712 Mobile Trolley Video Luggage Speaker 40W With 14 inch LED Screen    </p>,,71.2,,,,1,100,1,Taxable Goods,"Catalog, Search",,,,94.jpg,Image,94.jpg,Image,94.jpg,Image
BE-95,Bag,simple,Default Category/Electronics/Home Audio&Video/Speakers,base,trolley speaker with WIFI,<p>   Video speaker Stage speaker Dancing/Audio trolley speaker with WIFI function  </p>,<p>   Video speaker Stage speaker Dancing/Audio trolley speaker with WIFI function  </p>,,110.6,,,,1,100,1,Taxable Goods,"Catalog, Search",,,,95.jpg,Image,95.jpg,Image,95.jpg,Image
BE-96,Bag,simple,Default Category/Electronics/Home Audio&Video/Home Theatres,base, W8 Home Theatre,<p>  K80 W8 Home Theatre System 5.1   </p>,<p>  K80 W8 Home Theatre System 5.1   </p>,,105,,,,1,100,1,Taxable Goods,"Catalog, Search",,,,96.jpg,Image,96.jpg,Image,96.jpg,Image
BE-97,Bag,simple,Default Category/Electronics/Home Audio&Video/Home Theatres,base, home theater with remote,<p>   good price blue tooth speaker 5.1 home theater with remote/USB/SD/FM  </p>,<p>   good price blue tooth speaker 5.1 home theater with remote/USB/SD/FM  </p>,,65,,,,1,100,1,Taxable Goods,"Catalog, Search",,,,97.jpg,Image,97.jpg,Image,97.jpg,Image
BE-98,Bag,simple,Default Category/Electronics/Home Audio&Video/Home Theatres,base, source 5.1 home theatre,<p>  Advanced services Multi-channel local source 5.1 home theatre   </p>,<p>  Advanced services Multi-channel local source 5.1 home theatre   </p>,,25,,,,1,100,1,Taxable Goods,"Catalog, Search",,,,98.jpg,Image,98.jpg,Image,98.jpg,Image
BE-99,Bag,simple,Default Category/Electronics/Home Audio&Video/Home Theatres,base, video home theatre ,<p>  Professional portable audio amplifier video home theatre system outdoor audio   </p>,<p>  Professional portable audio amplifier video home theatre system outdoor audio   </p>,,39,,,,1,100,1,Taxable Goods,"Catalog, Search",,,,99.jpg,Image,99.jpg,Image,99.jpg,Image
BE-100,Bag,simple,Default Category/Electronics/Home Audio&Video/Home Theatres,base, Video & Accessories Home Theatre,"<p>   Smart R I N G Consumer Electronics Home Audio, Video & Accessories Home Theatre System Mobile Phone Soundbar Sound System  </p>","<p>   Smart R I N G Consumer Electronics Home Audio, Video & Accessories Home Theatre System Mobile Phone Soundbar Sound System  </p>",,7.9,,,,1,100,1,Taxable Goods,"Catalog, Search",,,,100.jpg,Image,100.jpg,Image,100.jpg,Image
BE-101,Bag,simple,Default Category/Electronics/Home Audio&Video/Projectors,base, full hd projector 1080p ,"<p>   Home theater smartphone best video projector,logo full hd projector 1080p  </p>","<p>   Home theater smartphone best video projector,logo full hd projector 1080p  </p>",,86,,,,1,100,1,Taxable Goods,"Catalog, Search",,,,101.jpg,Image,101.jpg,Image,101.jpg,Image
BE-102,Bag,simple,Default Category/Electronics/Home Audio&Video/Projectors,base,Cinema Video Projector ,<p>  DLP LED 1280x800 HD 3D Support 1080P Android System WiFi Bluetooth Home Theater Portable Mini Cinema Video Projector   </p>,<p>  DLP LED 1280x800 HD 3D Support 1080P Android System WiFi Bluetooth Home Theater Portable Mini Cinema Video Projector   </p>,,218,,,,1,100,1,Taxable Goods,"Catalog, Search",,,,102.jpg,Image,102.jpg,Image,102.jpg,Image
BE-103,Bag,simple,Default Category/Electronics/Home Audio&Video/Projectors,base,Multimedia projector ,<p>   Hot Sell Portable Android WIFI Digital Mini DLP projector Home Cinema Video Multimedia projector  </p>,<p>   Hot Sell Portable Android WIFI Digital Mini DLP projector Home Cinema Video Multimedia projector  </p>,,158,,,,1,100,1,Taxable Goods,"Catalog, Search",,,,103.jpg,Image,103.jpg,Image,103.jpg,Image
BE-104,Bag,simple,Default Category/Electronics/Home Audio&Video/Projectors,base, FULL HD projector,"<p>   Projector, Cheerlux FULL HD projector 3200 lumens video projector, 180"" projection size support 1080P hdmi usb av vga headphone,  </p>","<p>   Projector, Cheerlux FULL HD projector 3200 lumens video projector, 180"" projection size support 1080P hdmi usb av vga headphone,  </p>",,109,,,,1,100,1,Taxable Goods,"Catalog, Search",,,,104.jpg,Image,104.jpg,Image,104.jpg,Image
BE-105,Bag,simple,Default Category/Electronics/Home Audio&Video/Projectors,base, video DLP projector,<p>  Smart Android Wifi Pocket Portable Dlp Projector Home 1200 Lumens Bluetooth Outdoor video DLP projector   </p>,<p>  Smart Android Wifi Pocket Portable Dlp Projector Home 1200 Lumens Bluetooth Outdoor video DLP projector   </p>,,209,,,,1,100,1,Taxable Goods,"Catalog, Search",,,,105.jpg,Image,105.jpg,Image,105.jpg,Image
BE-106,Bag,simple,Default Category/Electronics/Home Audio&Video/Headphones,base,Wireless Infrared Headphone,<p>   IR300D Stereo Mini Dual Channel Wireless Infrared Headphone From INDA  </p>,<p>   IR300D Stereo Mini Dual Channel Wireless Infrared Headphone From INDA  </p>,,8,,,,1,100,1,Taxable Goods,"Catalog, Search",,,,106.jpg,Image,106.jpg,Image,106.jpg,Image
BE-107,Bag,simple,Default Category/Electronics/Home Audio&Video/Headphones,base, bluetooth headset,"<p>  Home audio, video & accessories bluetooth headset for usa wireless headset for usa market   </p>","<p>  Home audio, video & accessories bluetooth headset for usa wireless headset for usa market   </p>",,6,,,,1,100,1,Taxable Goods,"Catalog, Search",,,,107.jpg,Image,107.jpg,Image,107.jpg,Image
BE-108,Bag,simple,Default Category/Electronics/Home Audio&Video/Headphones,base, Bluetooth Headphones,<p>  Wireless Headphones Earbuds Bluetooth Headphones Waterproof IPX5   </p>,<p>  Wireless Headphones Earbuds Bluetooth Headphones Waterproof IPX5   </p>,,39.9,,,,1,100,1,Taxable Goods,"Catalog, Search",,,,108.jpg,Image,108.jpg,Image,108.jpg,Image
BE-109,Bag,simple,Default Category/Electronics/Home Audio&Video/Headphones,base, V5 wireless bluetooth Earphone,"<p>  2019 V5 wireless bluetooth Earphone TWS Headphone , OEM Headphone bluetooth Earphone wireless earbuds For iPhone for Samsung S9   </p>","<p>  2019 V5 wireless bluetooth Earphone TWS Headphone , OEM Headphone bluetooth Earphone wireless earbuds For iPhone for Samsung S9   </p>",,12.88,,,,1,100,1,Taxable Goods,"Catalog, Search",,,,109.jpg,Image,109.jpg,Image,109.jpg,Image
BE-110,Bag,simple,Default Category/Electronics/Home Audio&Video/Headphones,base,Mic Sports Headset ,<p>  USB Type-C Earphones Bass Noise Cancelling Headphones Magnetic Earbuds with Mic Sports Headset   </p>,<p>  USB Type-C Earphones Bass Noise Cancelling Headphones Magnetic Earbuds with Mic Sports Headset   </p>,,2.2,,,,1,100,1,Taxable Goods,"Catalog, Search",,,,110.jpg,Image,110.jpg,Image,110.jpg,Image
BE-111,Bag,simple,Default Category/Electronics/Home Audio&Video/TV Accessories,base, Articulating Slim Tv,"<p>  TV Accessories Articulating Slim Tv Swivel Bracket for Wall Mounting 19"" ~ 37"" TV Size   </p>","<p>  TV Accessories Articulating Slim Tv Swivel Bracket for Wall Mounting 19"" ~ 37"" TV Size   </p>",,5,,,,1,100,1,Taxable Goods,"Catalog, Search",,,,111.jpg,Image,111.jpg,Image,111.jpg,Image
BE-112,Bag,simple,Default Category/Electronics/Home Audio&Video/TV Accessories,base, vesa stand tv,<p>  Easy fixed accessories vesa stand tv wall mount bracket   </p>,<p>  Easy fixed accessories vesa stand tv wall mount bracket   </p>,,3,,,,1,100,1,Taxable Goods,"Catalog, Search",,,,112.jpg,Image,112.jpg,Image,112.jpg,Image
BE-113,Bag,simple,Default Category/Electronics/Home Audio&Video/TV Accessories,base,  Audio Video System Accessory,<p>   Audio Video System Accessory Vesa 200x200 Tilting LCD TV Wall Mount Bracket  </p>,<p>   Audio Video System Accessory Vesa 200x200 Tilting LCD TV Wall Mount Bracket  </p>,,13,,,,1,100,1,Taxable Goods,"Catalog, Search",,,,113.jpg,Image,113.jpg,Image,113.jpg,Image
BE-114,Bag,simple,Default Category/Electronics/Home Audio&Video/TV Accessories,base, universal electronics accessories,"<p>  universal electronics accessories simple design slid tv mount for 32-55""   </p>","<p>  universal electronics accessories simple design slid tv mount for 32-55""   </p>",,4,,,,1,100,1,Taxable Goods,"Catalog, Search",,,,114.jpg,Image,114.jpg,Image,114.jpg,Image
BE-115,Bag,simple,Default Category/Electronics/Home Audio&Video/TV Accessories,base,"TV Accessories 14""-42"" ","<p>  TV Accessories 14""-42"" Tv Wall Mount Brackets Manufacturer HB27   </p>","<p>  TV Accessories 14""-42"" Tv Wall Mount Brackets Manufacturer HB27   </p>",,1.14,,,,1,100,1,Taxable Goods,"Catalog, Search",,,,115.jpg,Image,115.jpg,Image,115.jpg,Image
BE-116,Bag,simple,Default Category/Electronics/Video Games/Playstation 4,base,Charging Station Stand ,<p>  Dual USB Charging Station Charging Stand for Sony Playstation 4 Controller For PS4 Controller Charging Station Stand   </p>,<p>  Dual USB Charging Station Charging Stand for Sony Playstation 4 Controller For PS4 Controller Charging Station Stand   </p>,,1.85,,,,1,100,1,Taxable Goods,"Catalog, Search",,,,116.jpg,Image,116.jpg,Image,116.jpg,Image
BE-117,Bag,simple,Default Category/Electronics/Video Games/Playstation 5,base, case for Sony PlayStation 4,"<p>   Colorful PS4 controller silicone case, slim silicone protective case for Sony PlayStation 4 controller  </p>","<p>   Colorful PS4 controller silicone case, slim silicone protective case for Sony PlayStation 4 controller  </p>",,1.32,,,,1,100,1,Taxable Goods,"Catalog, Search",,,,117.jpg,Image,117.jpg,Image,117.jpg,Image
BE-118,Bag,simple,Default Category/Electronics/Video Games/Playstation 6,base, Controller Skin Decal For PS4,<p>  TECTINTER Spiderman Design Skin Sticker For Sony Playstation 4 Pro Console & 2PCS Controller Skin Decal For PS4 Pro Game Console   </p>,<p>  TECTINTER Spiderman Design Skin Sticker For Sony Playstation 4 Pro Console & 2PCS Controller Skin Decal For PS4 Pro Game Console   </p>,,2,,,,1,100,1,Taxable Goods,"Catalog, Search",,,,118.jpg,Image,118.jpg,Image,118.jpg,Image
BE-119,Bag,simple,Default Category/Electronics/Video Games/Playstation 7,base,Controlled Radiator For Sony Playstation 4,<p>  Turbo Cooling Fan External USB Cooler Auto Temperature Controlled Radiator For Sony Playstation 4 Console   </p>,<p>  Turbo Cooling Fan External USB Cooler Auto Temperature Controlled Radiator For Sony Playstation 4 Console   </p>,,4,,,,1,100,1,Taxable Goods,"Catalog, Search",,,,119.jpg,Image,119.jpg,Image,119.jpg,Image
BE-120,Bag,simple,Default Category/Electronics/Video Games/Playstation 8,base, Keyboard for Sony Playstation 4,<p> Hot Selling Mini bluetooth wireless Message chatpad Keyboard for Sony Playstation 4 PS4 Controller    </p>,<p> Hot Selling Mini bluetooth wireless Message chatpad Keyboard for Sony Playstation 4 PS4 Controller    </p>,,8.5,,,,1,100,1,Taxable Goods,"Catalog, Search",,,,120.jpg,Image,120.jpg,Image,120.jpg,Image
BE-121,Bag,simple,Default Category/Electronics/Video Games/Xbox One,base,Charger Kit for Xbox One,<p>   Dual Charging Dock Station Controller Charger Kit for Xbox One  </p>,<p>   Dual Charging Dock Station Controller Charger Kit for Xbox One  </p>,,2.8,,,,1,100,1,Taxable Goods,"Catalog, Search",,,,121.jpg,Image,121.jpg,Image,121.jpg,Image
BE-122,Bag,simple,Default Category/Electronics/Video Games/Xbox One,base,Sticker Protector For Xbox one,<p>  Game Decals Decal Skin Sticker Protector For Xbox one Console Controller Decorate Video Game Accessories   </p>,<p>  Game Decals Decal Skin Sticker Protector For Xbox one Console Controller Decorate Video Game Accessories   </p>,,2.45,,,,1,100,1,Taxable Goods,"Catalog, Search",,,,122.jpg,Image,122.jpg,Image,122.jpg,Image
BE-123,Bag,simple,Default Category/Electronics/Video Games/Xbox One,base,Charging Dock Station with 2PACKS,<p>  Private Dual Controller Charging Dock Station with 2PACKS Rechargeable 600 mAh Battery for Xbox One/S/X   </p>,<p>  Private Dual Controller Charging Dock Station with 2PACKS Rechargeable 600 mAh Battery for Xbox One/S/X   </p>,,4.99,,,,1,100,1,Taxable Goods,"Catalog, Search",,,,123.jpg,Image,123.jpg,Image,123.jpg,Image
BE-124,Bag,simple,Default Category/Electronics/Video Games/Xbox One,base,Kinect Adapter for XBOX One ,<p>  Cost effective Kinect Adapter for XBOX One S sensor   </p>,<p>  Cost effective Kinect Adapter for XBOX One S sensor   </p>,,23,,,,1,100,1,Taxable Goods,"Catalog, Search",,,,124.jpg,Image,124.jpg,Image,124.jpg,Image
BE-125,Bag,simple,Default Category/Electronics/Video Games/Xbox One,base, Charging Stand with 2 Cooling Fan for Xbox One,<p>   New Arrival Multifunctional Charging Stand with 2 Cooling Fan for Xbox One X Console Stand  </p>,<p>   New Arrival Multifunctional Charging Stand with 2 Cooling Fan for Xbox One X Console Stand  </p>,,8.8,,,,1,100,1,Taxable Goods,"Catalog, Search",,,,125.jpg,Image,125.jpg,Image,125.jpg,Image
BE-126,Bag,simple,Default Category/Electronics/Video Games/Nintendo Switch,base, Case For Nintendo Switch ,<p>   Shockproof Carri Light Universal Touch Display EVA Video Game Case For Nintendo Switch Console & Accessories  </p>,<p>   Shockproof Carri Light Universal Touch Display EVA Video Game Case For Nintendo Switch Console & Accessories  </p>,,2.9,,,,1,100,1,Taxable Goods,"Catalog, Search",,,,126.jpg,Image,126.jpg,Image,126.jpg,Image
BE-127,Bag,simple,Default Category/Electronics/Video Games/Nintendo Switch,base, Sticker Cover for Nintendo Switch ,<p>  Console Video Game Decal Skin Sticker Cover for Nintendo Switch   </p>,<p>  Console Video Game Decal Skin Sticker Cover for Nintendo Switch   </p>,,2.99,,,,1,100,1,Taxable Goods,"Catalog, Search",,,,127.jpg,Image,127.jpg,Image,127.jpg,Image
BE-128,Bag,simple,Default Category/Electronics/Video Games/Nintendo Switch,base,Joystick Gamepad For Nintendo Switch ,<p>  Controller Grips For Nintendo Switch Joy-Con Video Game Joystick Gamepad For Nintendo Switch   </p>,<p>  Controller Grips For Nintendo Switch Joy-Con Video Game Joystick Gamepad For Nintendo Switch   </p>,,2.9,,,,1,100,1,Taxable Goods,"Catalog, Search",,,,128.jpg,Image,128.jpg,Image,128.jpg,Image
BE-129,Bag,simple,Default Category/Electronics/Video Games/Nintendo Switch,base,Carrying Case for Nintendo Switch,<p>  Nintendos Switch Case EVA Protective Hard Shell Carrying Case for Nintendo Switch   </p>,<p>  Nintendos Switch Case EVA Protective Hard Shell Carrying Case for Nintendo Switch   </p>,,3.7,,,,1,100,1,Taxable Goods,"Catalog, Search",,,,129.jpg,Image,129.jpg,Image,129.jpg,Image
BE-130,Bag,simple,Default Category/Electronics/Video Games/Nintendo Switch,base, game accessories for Nintendo Switch,<p>   power supply case design video mobile other game accessories for Nintendo Switch  </p>,<p>   power supply case design video mobile other game accessories for Nintendo Switch  </p>,,17,,,,1,100,1,Taxable Goods,"Catalog, Search",,,,130.jpg,Image,130.jpg,Image,130.jpg,Image
BE-131,Bag,simple,Default Category/Electronics/Video Games/Gaming Accessories,base, trigger hand grip for Playstation 4,<p>   trigger hand grip for Playstation 4 Pro for PS4 Controller Gaming Accessories  </p>,<p>   trigger hand grip for Playstation 4 Pro for PS4 Controller Gaming Accessories  </p>,,2.6,,,,1,100,1,Taxable Goods,"Catalog, Search",,,,131.jpg,Image,131.jpg,Image,131.jpg,Image
BE-132,Bag,simple,Default Category/Electronics/Video Games/Gaming Accessories,base,board portable switch TV ,"<p>  For nintendo switch dock with PCB board portable switch TV dock gaming accessories
FOB Reference Price:Get La   </p>","<p>  For nintendo switch dock with PCB board portable switch TV dock gaming accessories
FOB Reference Price:Get La   </p>",,22.4,,,,1,100,1,Taxable Goods,"Catalog, Search",,,,132.jpg,Image,132.jpg,Image,132.jpg,Image
BE-133,Bag,simple,Default Category/Electronics/Video Games/Gaming Accessories,base, Handle Hand Grip,<p>  High quality Handle Hand Grip For New Nintendo 2DS XL Console Gaming Accessory   </p>,<p>  High quality Handle Hand Grip For New Nintendo 2DS XL Console Gaming Accessory   </p>,,2,,,,1,100,1,Taxable Goods,"Catalog, Search",,,,133.jpg,Image,133.jpg,Image,133.jpg,Image
BE-134,Bag,simple,Default Category/Electronics/Video Games/Gaming Accessories,base,switch TV dock gaming accessories  ,<p>  For nintendo switch dock portable switch TV dock gaming accessories   </p>,<p>  For nintendo switch dock portable switch TV dock gaming accessories   </p>,,15,,,,1,100,1,Taxable Goods,"Catalog, Search",,,,134.jpg,Image,134.jpg,Image,134.jpg,Image
BE-135,Bag,simple,Default Category/Electronics/Video Games/Gaming Accessories,base,trigger mobile accessories,<p>  Vodbov portable game grip gaming trigger mobile accessories   </p>,<p>  Vodbov portable game grip gaming trigger mobile accessories   </p>,,1.27,,,,1,100,1,Taxable Goods,"Catalog, Search",,,,135.jpg,Image,135.jpg,Image,135.jpg,Image
BE-136,Bag,simple,Default Category/Electronics/Cameras/Action Cameras,base, HD 1080P Action Camera,"<p>  Hot!! HD 1080P Action Camera, Sunglasses Camera Manual, HD Camera Glasses   </p>","<p>  Hot!! HD 1080P Action Camera, Sunglasses Camera Manual, HD Camera Glasses   </p>",,25,,,,1,100,1,Taxable Goods,"Catalog, Search",,,,136.jpg,Image,136.jpg,Image,136.jpg,Image
BE-137,Bag,simple,Default Category/Electronics/Cameras/Action Cameras,base,Flash Light Wifi 4K Action Camera,<p>  HDKing OEM Factory Allwinner V3 with XDV APP and Flash Light Wifi 4K Action Camera   </p>,<p>  HDKing OEM Factory Allwinner V3 with XDV APP and Flash Light Wifi 4K Action Camera   </p>,,22,,,,1,100,1,Taxable Goods,"Catalog, Search",,,,137.jpg,Image,137.jpg,Image,137.jpg,Image
BE-138,Bag,simple,Default Category/Electronics/Cameras/Action Cameras,base, Standard Version 1080p,<p>  SJ4000+ Plus WiFi Standard Version 1080p full hd Action Camera sport dv camera   </p>,<p>  SJ4000+ Plus WiFi Standard Version 1080p full hd Action Camera sport dv camera   </p>,,10,,,,1,100,1,Taxable Goods,"Catalog, Search",,,,138.jpg,Image,138.jpg,Image,138.jpg,Image
BE-139,Bag,simple,Default Category/Electronics/Cameras/Action Cameras,base,Waterproof Action Camera ,<p>   High Quality Wifi Ultra HD 4k Touch Screen Waterproof Action Camera  </p>,<p>   High Quality Wifi Ultra HD 4k Touch Screen Waterproof Action Camera  </p>,,49,,,,1,100,1,Taxable Goods,"Catalog, Search",,,,139.jpg,Image,139.jpg,Image,139.jpg,Image
BE-140,Bag,simple,Default Category/Electronics/Cameras/Action Cameras,base,Smartphone Cameras DSLRs,<p>   Compact Smartphone Cameras DSLRs stand 360 degree Portable Mini tripod with Phone Holder/Clip  </p>,<p>   Compact Smartphone Cameras DSLRs stand 360 degree Portable Mini tripod with Phone Holder/Clip  </p>,,3.31,,,,1,100,1,Taxable Goods,"Catalog, Search",,,,140.jpg,Image,140.jpg,Image,140.jpg,Image
BE-141,Bag,simple,Default Category/Electronics/Cameras/DSLRs,base,Microphone For Camera Dslrs,<p>  Cheap Wireless Microphone For Camera Dslrs Singing   </p>,<p>  Cheap Wireless Microphone For Camera Dslrs Singing   </p>,,25,,,,1,100,1,Taxable Goods,"Catalog, Search",,,,141.jpg,Image,141.jpg,Image,141.jpg,Image
BE-142,Bag,simple,Default Category/Electronics/Cameras/DSLRs,base, Smartphones Compact Cameras and DSLRs,<p>  Premium Mini Table Top stand for Gopro Smartphones Compact Cameras and DSLRs   </p>,<p>  Premium Mini Table Top stand for Gopro Smartphones Compact Cameras and DSLRs   </p>,,0.7,,,,1,100,1,Taxable Goods,"Catalog, Search",,,,142.jpg,Image,142.jpg,Image,142.jpg,Image
BE-143,Bag,simple,Default Category/Electronics/Cameras/DSLRs,base,Degree Ball Head for DSLRs,<p>   ZOMEI Z669C Carbon Fiber Tripod Stand with 360-Degree Ball Head for DSLRs  </p>,<p>   ZOMEI Z669C Carbon Fiber Tripod Stand with 360-Degree Ball Head for DSLRs  </p>,,74,,,,1,100,1,Taxable Goods,"Catalog, Search",,,,143.jpg,Image,143.jpg,Image,143.jpg,Image
BE-144,Bag,simple,Default Category/Electronics/Cameras/DSLRs,base,Electronic Gimbal for DSLRs and Cameras  ,<p>  Handheld Stabilizer 3 Axis Electronic Gimbal for DSLRs and Cameras   </p>,<p>  Handheld Stabilizer 3 Axis Electronic Gimbal for DSLRs and Cameras   </p>,,60,,,,1,100,1,Taxable Goods,"Catalog, Search",,,,144.jpg,Image,144.jpg,Image,144.jpg,Image
BE-145,Bag,simple,Default Category/Electronics/Cameras/DSLRs,base,camera with loop recording ,<p>  2018 new arrival US/AU/EU standard hidden camera action detetcting camera with loop recording external TF card   </p>,<p>  2018 new arrival US/AU/EU standard hidden camera action detetcting camera with loop recording external TF card   </p>,,35,,,,1,100,1,Taxable Goods,"Catalog, Search",,,,145.jpg,Image,145.jpg,Image,145.jpg,Image
BE-146,Bag,simple,Default Category/Electronics/Cameras/Point & Shoot,base,Flash LED Light Camera,<p>  KERUI Simulation Security Dome Dummy Camera with Flash LED Light Camera   </p>,<p>  KERUI Simulation Security Dome Dummy Camera with Flash LED Light Camera   </p>,,0.48,,,,1,100,1,Taxable Goods,"Catalog, Search",,,,146.jpg,Image,146.jpg,Image,146.jpg,Image
BE-147,Bag,simple,Default Category/Electronics/Cameras/Point & Shoot,base, Waterproof Camera with 6mm Lens,<p>    Newest Hot IR Waterproof Camera with 6mm Lens 25M IR Range JD-WP1168 </p>,<p>    Newest Hot IR Waterproof Camera with 6mm Lens 25M IR Range JD-WP1168 </p>,,55.24,,,,1,100,1,Taxable Goods,"Catalog, Search",,,,147.jpg,Image,147.jpg,Image,147.jpg,Image
BE-148,Bag,simple,Default Category/Electronics/Cameras/Point & Shoot,base,Sony Star Light Camera,<p>  Best Quality Varifocal Lens 2MP 1080P Sony Star Light Camera with IR Cut PST-AHD201DH   </p>,<p>  Best Quality Varifocal Lens 2MP 1080P Sony Star Light Camera with IR Cut PST-AHD201DH   </p>,,29.99,,,,1,100,1,Taxable Goods,"Catalog, Search",,,,148.jpg,Image,148.jpg,Image,148.jpg,Image
BE-149,Bag,simple,Default Category/Electronics/Cameras/Point & Shoot,base, ip camera outdoor ,<p>  Top sale!! HD 1080P solar wireless ip camera outdoor   </p>,<p>  Top sale!! HD 1080P solar wireless ip camera outdoor   </p>,,35,,,,1,100,1,Taxable Goods,"Catalog, Search",,,,149.jpg,Image,149.jpg,Image,149.jpg,Image
BE-150,Bag,simple,Default Category/Electronics/Cameras/Point & Shoot,base, Manual SLR Camera Flash,<p>  Manual SLR Camera Flash Lights/Speedlite VILTROX JY-680A Speedlight Studio Light for 5d mark iii Studio Flash   </p>,<p>  Manual SLR Camera Flash Lights/Speedlite VILTROX JY-680A Speedlight Studio Light for 5d mark iii Studio Flash   </p>,,25,,,,1,100,1,Taxable Goods,"Catalog, Search",,,,150.jpg,Image,150.jpg,Image,150.jpg,Image
BE-151,Bag,simple,Default Category/Electronics/Cameras/Lenses & Flash,base,camera flash ZM860T Speed Light,<p>  ZoMei photographic equipment high speed TTL camera flash ZM860T Speed Light   </p>,<p>  ZoMei photographic equipment high speed TTL camera flash ZM860T Speed Light   </p>,,27,,,,1,100,1,Taxable Goods,"Catalog, Search",,,,151.jpg,Image,151.jpg,Image,151.jpg,Image
BE-152,Bag,simple,Default Category/Electronics/Cameras/Lenses & Flash,base,Mini Camera Board Lenses ,<p>  LEM-5025i-M12-MP3 1/2'' Format High resolution Mini Camera Board Lenses   </p>,<p>  LEM-5025i-M12-MP3 1/2'' Format High resolution Mini Camera Board Lenses   </p>,,47,,,,1,100,1,Taxable Goods,"Catalog, Search",,,,152.jpg,Image,152.jpg,Image,152.jpg,Image
BE-153,Bag,simple,Default Category/Electronics/Cameras/Lenses & Flash,base, mobile camera lenses  ,<p>  Tanla FX160 eagle eye Wholesale products Smartphone mobile camera lenses   </p>,<p>  Tanla FX160 eagle eye Wholesale products Smartphone mobile camera lenses   </p>,,9.99,,,,1,100,1,Taxable Goods,"Catalog, Search",,,,153.jpg,Image,153.jpg,Image,153.jpg,Image
BE-154,Bag,simple,Default Category/Electronics/Cameras/Lenses & Flash,base, Lens for iphone Samsung Android  ,<p>  4K HD Professional Optical Glass Camera Kit 0.6X Super Wide Angle Lens Universal Clip-On Phone Lens for iphone Samsung Android   </p>,<p>  4K HD Professional Optical Glass Camera Kit 0.6X Super Wide Angle Lens Universal Clip-On Phone Lens for iphone Samsung Android   </p>,,8.2,,,,1,100,1,Taxable Goods,"Catalog, Search",,,,154.jpg,Image,154.jpg,Image,154.jpg,Image
BE-155,Bag,simple,Default Category/Electronics/Cameras/Lenses & Flash,base, cheap camera accessories,<p>  Chinese suppliers wholesale high quality cheap camera accessories   </p>,<p>  Chinese suppliers wholesale high quality cheap camera accessories   </p>,,1.5,,,,1,100,1,Taxable Goods,"Catalog, Search",,,,155.jpg,Image,155.jpg,Image,155.jpg,Image
BE-156,Bag,simple,Default Category/Electronics/Cameras/Accessories,base,Camera Accessory LED video,<p>  YONGNUO Camera Accessory LED video light with built-in battery YN360II   </p>,<p>  YONGNUO Camera Accessory LED video light with built-in battery YN360II   </p>,,86,,,,1,100,1,Taxable Goods,"Catalog, Search",,,,156.jpg,Image,156.jpg,Image,156.jpg,Image
BE-157,Bag,simple,Default Category/Electronics/Cameras/Accessories,base, Case Floaty Cover For GoPro Hero ,<p>   Hoshi Foam Soft Floating Housing Surfing Case Floaty Cover For GoPro Hero 7 6 5 Action Sport Camera Accessories  </p>,<p>   Hoshi Foam Soft Floating Housing Surfing Case Floaty Cover For GoPro Hero 7 6 5 Action Sport Camera Accessories  </p>,,2.65,,,,1,100,1,Taxable Goods,"Catalog, Search",,,,157.jpg,Image,157.jpg,Image,157.jpg,Image
BE-158,Bag,simple,Default Category/Electronics/Cameras/Accessories,base, Promotion for GoPro Accessories,<p>  Promotion for GoPro Accessories Sports Action Camera Accessories Set /Kits /Pack Storage Bag Extreme sport motion Accessories   </p>,<p>  Promotion for GoPro Accessories Sports Action Camera Accessories Set /Kits /Pack Storage Bag Extreme sport motion Accessories   </p>,,13,,,,1,100,1,Taxable Goods,"Catalog, Search",,,,158.jpg,Image,158.jpg,Image,158.jpg,Image
BE-159,Bag,simple,Default Category/Electronics/Cameras/Accessories,base,Underwater Waterproof Case ,<p>  Action Video Camera Accessory for Xiaoyi 4K 40m Underwater Waterproof Case Housing Shell   </p>,<p>  Action Video Camera Accessory for Xiaoyi 4K 40m Underwater Waterproof Case Housing Shell   </p>,,5.9,,,,1,100,1,Taxable Goods,"Catalog, Search",,,,159.jpg,Image,159.jpg,Image,159.jpg,Image
BE-160,Bag,simple,Default Category/Electronics/Cameras/Accessories,base,Case Headset Accessories For Apple,<p>  Shockproof Portable Earphone Bags Cases For AirPod Storage Hard Bag Box Headphones Case Headset Accessories For Apple AirPod   </p>,<p>  Shockproof Portable Earphone Bags Cases For AirPod Storage Hard Bag Box Headphones Case Headset Accessories For Apple AirPod   </p>,,1.6,,,,1,100,1,Taxable Goods,"Catalog, Search",,,,160.jpg,Image,160.jpg,Image,160.jpg,Image
BE-161,Bag,simple,Default Category/Mobiles/Accessories/Headsets,base,Case Headset Accessories For Apple AirPod ,<p>  Shockproof Portable Earphone Bags Cases For AirPod Storage Hard Bag Box Headphones Case Headset Accessories For Apple AirPod   </p>,<p>  Shockproof Portable Earphone Bags Cases For AirPod Storage Hard Bag Box Headphones Case Headset Accessories For Apple AirPod   </p>,,1.6,,,,1,100,1,Taxable Goods,"Catalog, Search",,,,161.jpg,Image,161.jpg,Image,161.jpg,Image
BE-162,Bag,simple,Default Category/Mobiles/Accessories/Headsets,base, Headset Accessories  ,<p>  Headphones Case Headset Travel Bag with Space Patent Reserve Headset Accessories   </p>,<p>  Headphones Case Headset Travel Bag with Space Patent Reserve Headset Accessories   </p>,,20,,,,1,100,1,Taxable Goods,"Catalog, Search",,,,162.jpg,Image,162.jpg,Image,162.jpg,Image
BE-163,Bag,simple,Default Category/Mobiles/Accessories/Headsets,base,Cover Waterproof for iphone 7 8 Headset Accessories,<p>  Soft Silicone Case For air pods For Air Pods Shockproof Earphone Protective Cover Waterproof for iphone 7 8 Headset Accessories   </p>,<p>  Soft Silicone Case For air pods For Air Pods Shockproof Earphone Protective Cover Waterproof for iphone 7 8 Headset Accessories   </p>,,0.75,,,,1,100,1,Taxable Goods,"Catalog, Search",,,,163.jpg,Image,163.jpg,Image,163.jpg,Image
BE-164,Bag,simple,Default Category/Mobiles/Accessories/Headsets,base, Covers Accessories for Apple Earphone,<p>  For AirPods Hooks and Covers Accessories for Apple Earphone Earbuds 3 Pairs   </p>,<p>  For AirPods Hooks and Covers Accessories for Apple Earphone Earbuds 3 Pairs   </p>,,2.29,,,,1,100,1,Taxable Goods,"Catalog, Search",,,,164.jpg,Image,164.jpg,Image,164.jpg,Image
BE-165,Bag,simple,Default Category/Mobiles/Accessories/Headsets,base,Smartwatch Accessories ,<p>  replace bands for Fitbit Charge 3 Strap Replacement TPE Bracelet Band Men Women Diamond Pattern Smartwatch Accessories   </p>,<p>  replace bands for Fitbit Charge 3 Strap Replacement TPE Bracelet Band Men Women Diamond Pattern Smartwatch Accessories   </p>,,0.45,,,,1,100,1,Taxable Goods,"Catalog, Search",,,,165.jpg,Image,165.jpg,Image,165.jpg,Image
BE-166,Bag,simple,Default Category/Mobiles/Accessories/SmartWatches,base,Women Smartwatch Accessories ,<p>  replace Silicone bands for Fitbit Charge 3 Strap Replacement TPE Bracelet Band Men Women Smartwatch Accessories   </p>,<p>  replace Silicone bands for Fitbit Charge 3 Strap Replacement TPE Bracelet Band Men Women Smartwatch Accessories   </p>,,1.42,,,,1,100,1,Taxable Goods,"Catalog, Search",,,,166.jpg,Image,166.jpg,Image,166.jpg,Image
BE-167,Bag,simple,Default Category/Mobiles/Accessories/SmartWatches,base,Smartwatch Rose Gold,<p>  Bracelet with Rhinestones Diamond for Fitbit Versa Smartwatch Rose Gold   </p>,<p>  Bracelet with Rhinestones Diamond for Fitbit Versa Smartwatch Rose Gold   </p>,,7,,,,1,100,1,Taxable Goods,"Catalog, Search",,,,167.jpg,Image,167.jpg,Image,167.jpg,Image
BE-168,Bag,simple,Default Category/Mobiles/Accessories/SmartWatches,base,watch case for garmin vivosmart hr,<p>  High quality smartwatch accessoris watch case for garmin vivosmart hr   </p>,<p>  High quality smartwatch accessoris watch case for garmin vivosmart hr   </p>,,1.6,,,,1,100,1,Taxable Goods,"Catalog, Search",,,,168.jpg,Image,168.jpg,Image,168.jpg,Image
BE-169,Bag,simple,Default Category/Mobiles/Accessories/SmartWatches,base,Stainless steel strap For Fitbit ,<p>   Stainless steel strap For Fitbit Versa band bracelet metal wristband watchband belt Smartwatch accessories metal clasp  </p>,<p>   Stainless steel strap For Fitbit Versa band bracelet metal wristband watchband belt Smartwatch accessories metal clasp  </p>,,5,,,,1,100,1,Taxable Goods,"Catalog, Search",,,,169.jpg,Image,169.jpg,Image,169.jpg,Image
BE-170,Bag,simple,Default Category/Mobiles/Accessories/SmartWatches,base,Case Bag for Powerbank,<p>   Universal Hard Shell EVA Carrying Storage Travel Case Bag for Powerbank HDD / Electronics/Accessories Extra Large  </p>,<p>   Universal Hard Shell EVA Carrying Storage Travel Case Bag for Powerbank HDD / Electronics/Accessories Extra Large  </p>,,2.5,,,,1,100,1,Taxable Goods,"Catalog, Search",,,,170.jpg,Image,170.jpg,Image,170.jpg,Image
BE-171,Bag,simple,Default Category/Mobiles/Accessories/Powerbanks,base, Case Cover Skin Shell Sleeve,<p>  Silicone Protector Case Cover Skin Shell Sleeve for Xiaomi 20000mAh Powerbank 2C Power Bank Accessories   </p>,<p>  Silicone Protector Case Cover Skin Shell Sleeve for Xiaomi 20000mAh Powerbank 2C Power Bank Accessories   </p>,,0.35,,,,1,100,1,Taxable Goods,"Catalog, Search",,,,171.jpg,Image,171.jpg,Image,171.jpg,Image
BE-172,Bag,simple,Default Category/Mobiles/Accessories/Powerbanks,base, powerbank 20000mah phone accessory,<p>  2019 new arrivals wireless powerbank 20000mah phone accessory   </p>,<p>  2019 new arrivals wireless powerbank 20000mah phone accessory   </p>,,6,,,,1,100,1,Taxable Goods,"Catalog, Search",,,,172.jpg,Image,172.jpg,Image,172.jpg,Image
BE-173,Bag,simple,Default Category/Mobiles/Accessories/Powerbanks,base,products portable power source,<p>   Cute design emergency use universal digital products portable power source  </p>,<p>   Cute design emergency use universal digital products portable power source  </p>,,5.8,,,,1,100,1,Taxable Goods,"Catalog, Search",,,,173.jpg,Image,173.jpg,Image,173.jpg,Image
BE-174,Bag,simple,Default Category/Mobiles/Accessories/Powerbanks,base, New Trending Phone Accessories for powerbank,<p>  New Trending Phone Accessories universal finger magnetic powerbank power bank station for table   </p>,<p>  New Trending Phone Accessories universal finger magnetic powerbank power bank station for table   </p>,,37.49,,,,1,100,1,Taxable Goods,"Catalog, Search",,,,174.jpg,Image,174.jpg,Image,174.jpg,Image
BE-175,Bag,simple,Default Category/Mobiles/Accessories/Powerbanks,base, cable phone accessories smart ,<p>  2018 Trending Shenzhen Factory usb data charger cable phone accessories smart charging cable usb charging cable For iphone 8   </p>,<p>  2018 Trending Shenzhen Factory usb data charger cable phone accessories smart charging cable usb charging cable For iphone 8   </p>,,0.54,,,,1,100,1,Taxable Goods,"Catalog, Search",,,,175.jpg,Image,175.jpg,Image,175.jpg,Image
BE-176,Bag,simple,Default Category/Mobiles/Accessories/Cables & Chargers,base,charger 5v 1a powe,<p>  adaptor ac dc 5v/5w 110v ac to 5v 1 amp 5 volt power adapter transformator ce 5v1a output wall charger 5v 1a power supply   </p>,<p>  adaptor ac dc 5v/5w 110v ac to 5v 1 amp 5 volt power adapter transformator ce 5v1a output wall charger 5v 1a power supply   </p>,,1.53,,,,1,100,1,Taxable Goods,"Catalog, Search",,,,176.jpg,Image,176.jpg,Image,176.jpg,Image
BE-177,Bag,simple,Default Category/Mobiles/Accessories/Cables & Chargers,base,Charger cable for All Smart Phone 1m 2m 3m,<p>   Wholesale Mobile phone accessories High Quality data Charger 3.0A amp Output Charger cable for All Smart Phone 1m 2m 3m  </p>,<p>   Wholesale Mobile phone accessories High Quality data Charger 3.0A amp Output Charger cable for All Smart Phone 1m 2m 3m  </p>,,1.19,,,,1,100,1,Taxable Goods,"Catalog, Search",,,,177.jpg,Image,177.jpg,Image,177.jpg,Image
BE-178,Bag,simple,Default Category/Mobiles/Accessories/Cables & Chargers,base, 3 in 1 cable for all phones,<p> Free accessories mobile phone charger aa battery emergency 3 in 1 cable for all phones    </p>,<p> Free accessories mobile phone charger aa battery emergency 3 in 1 cable for all phones    </p>,,1.37,,,,1,100,1,Taxable Goods,"Catalog, Search",,,,178.png,Image,178.png,Image,178.png,Image
BE-179,Bag,simple,Default Category/Mobiles/Accessories/Cables & Chargers,base, charger cable flat usb,<p>  Cell phone accessories usb charger cable flat usb cable for Samsung   </p>,<p>  Cell phone accessories usb charger cable flat usb cable for Samsung   </p>,,0.54,,,,1,100,1,Taxable Goods,"Catalog, Search",,,,179.jpg,Image,179.jpg,Image,179.jpg,Image
BE-180,Bag,simple,Default Category/Mobiles/Accessories/Cables & Chargers,base, Fitness Tracker Accessories,<p>  Promotional Gift Pedometer Smart Health Bracelet Fitness Tracker Accessories   </p>,<p>  Promotional Gift Pedometer Smart Health Bracelet Fitness Tracker Accessories   </p>,,7,,,,1,100,1,Taxable Goods,"Catalog, Search",,,,180.jpg,Image,180.jpg,Image,180.jpg,Image
BE-181,Bag,simple,Default Category/Mobiles/Accessories/Fitness Trackers,base,Smart Band 2 Mi Wristband ,<p>  Smartphone Accessories Wholesale Mi Band2 Pulse Rate Monitoring Fitness Tracker Bracelet Smart Band 2 Mi Wristband   </p>,<p>  Smartphone Accessories Wholesale Mi Band2 Pulse Rate Monitoring Fitness Tracker Bracelet Smart Band 2 Mi Wristband   </p>,,17.5,,,,1,100,1,Taxable Goods,"Catalog, Search",,,,181.jpg,Image,181.jpg,Image,181.jpg,Image
BE-182,Bag,simple,Default Category/Mobiles/Accessories/Fitness Trackers,base,Smart fitness band,<p> r 0.96inch cheap color price OEM Smart fitness band    </p>,<p> r 0.96inch cheap color price OEM Smart fitness band    </p>,,21.5,,,,1,100,1,Taxable Goods,"Catalog, Search",,,,182.jpg,Image,182.jpg,Image,182.jpg,Image
BE-183,Bag,simple,Default Category/Mobiles/Accessories/Fitness Trackers,base,Smart Heart Rate Monitor Fitness Tracker,<p>  2018 New Original Xiao mi Mi band 3 Wristband Bracelet Smart Heart Rate Monitor Fitness Tracker mobile phone accessories   </p>,<p>  2018 New Original Xiao mi Mi band 3 Wristband Bracelet Smart Heart Rate Monitor Fitness Tracker mobile phone accessories   </p>,,23,,,,1,100,1,Taxable Goods,"Catalog, Search",,,,183.jpg,Image,183.jpg,Image,183.jpg,Image
BE-184,Bag,simple,Default Category/Mobiles/Accessories/Fitness Trackers,base, PLUS OEM fitness tracker ,<p>  Cellphone accessories blet.0 smart wrist band 115 PLUS OEM fitness tracker smart bracelet app   </p>,<p>  Cellphone accessories blet.0 smart wrist band 115 PLUS OEM fitness tracker smart bracelet app   </p>,,9.99,,,,1,100,1,Taxable Goods,"Catalog, Search",,,,184.png,Image,184.png,Image,184.png,Image
BE-185,Bag,simple,Default Category/Mobiles/Accessories/Fitness Trackers,base,case for eletronic tools,<p>  Different surface material power bank custom size EVA case for eletronic tools   </p>,<p>  Different surface material power bank custom size EVA case for eletronic tools   </p>,,2,,,,1,100,1,Taxable Goods,"Catalog, Search",,,,185.jpg,Image,185.jpg,Image,185.jpg,Image
BE-186,Bag,simple,Default Category/Mobiles/cases & Coverd/cases & Coverd,base,Case Storage for Small Electronics,<p>  Universal Carrying Case Storage for Small Electronics Hard Drives Portable Devices and Accessories   </p>,<p>  Universal Carrying Case Storage for Small Electronics Hard Drives Portable Devices and Accessories   </p>,,2.25,,,,1,100,1,Taxable Goods,"Catalog, Search",,,,186.jpg,Image,186.jpg,Image,186.jpg,Image
BE-187,Bag,simple,Default Category/Mobiles/cases & Coverd/cases & Coverd,base,hard drive cases,<p>   USB Phone Charger and Cable Electronics Accessories Cases polyfunctional hard drive cases  </p>,<p>   USB Phone Charger and Cable Electronics Accessories Cases polyfunctional hard drive cases  </p>,,5,,,,1,100,1,Taxable Goods,"Catalog, Search",,,,187.jpg,Image,187.jpg,Image,187.jpg,Image
BE-188,Bag,simple,Default Category/Mobiles/cases & Coverd/cases & Coverd,base,electronics accessories case,<p>  portable travel storage carrying electronics accessories case   </p>,<p>  portable travel storage carrying electronics accessories case   </p>,,2.53,,,,1,100,1,Taxable Goods,"Catalog, Search",,,,188.png,Image,188.png,Image,188.png,Image
BE-189,Bag,simple,Default Category/Mobiles/cases & Coverd/cases & Coverd,base, Smatree Travel Case Electronics Bag ,<p>   Smatree Travel Case Electronics Bag Compatible Cables for Digital Accessories/Memory Cards/Apple Pen/iPad Mini 7.9''  </p>,<p>   Smatree Travel Case Electronics Bag Compatible Cables for Digital Accessories/Memory Cards/Apple Pen/iPad Mini 7.9''  </p>,,10,,,,1,100,1,Taxable Goods,"Catalog, Search",,,,189.jpg,Image,189.jpg,Image,189.jpg,Image
BE-190,Bag,simple,Default Category/Mobiles/cases & Coverd/cases & Coverd,base,industrial android tablet 14 inch ,<p>  industrial android tablet 14 inch IPS screen android 4.4 system support Bluetooth/ethernet/wifi/3g   </p>,<p>  industrial android tablet 14 inch IPS screen android 4.4 system support Bluetooth/ethernet/wifi/3g   </p>,,108,,,,1,100,1,Taxable Goods,"Catalog, Search",,,,190.png,Image,190.png,Image,190.png,Image
BE-191,Bag,simple,Default Category/Mobiles/Tablets/Tablets,base,rugged tablet UHF RFID reader  ,<p>  Newest 8 inch Android 8.1 rugged tablet UHF RFID reader   </p>,<p>  Newest 8 inch Android 8.1 rugged tablet UHF RFID reader   </p>,,350,,,,1,100,1,Taxable Goods,"Catalog, Search",,,,191.jpg,Image,191.jpg,Image,191.jpg,Image
BE-192,Bag,simple,Default Category/Mobiles/Tablets/Tablets,base,Android 7.0 10 Inch Tablet ,<p>    New Product 8000mAh Battery Dual Band WiFi 4G Lte 2GB RAM 32GBROM Android 7.0 10 Inch Tablet   </p>,<p>    New Product 8000mAh Battery Dual Band WiFi 4G Lte 2GB RAM 32GBROM Android 7.0 10 Inch Tablet   </p>,,80,,,,1,100,1,Taxable Goods,"Catalog, Search",,,,192.jpg,Image,192.jpg,Image,192.jpg,Image
BE-193,Bag,simple,Default Category/Mobiles/Tablets/Tablets,base, Easy Touch Tablet 10,"<p>  Easy Touch Tablet 10"" 12"" 13"" 14"" 15"" 17"" 18"" 21"" 24"" Smart Android Pos/Medical/Industrial/KIOSK Tablet PC All In One   </p>","<p>  Easy Touch Tablet 10"" 12"" 13"" 14"" 15"" 17"" 18"" 21"" 24"" Smart Android Pos/Medical/Industrial/KIOSK Tablet PC All In One   </p>",,250,,,,1,100,1,Taxable Goods,"Catalog, Search",,,,193.jpg,Image,193.jpg,Image,193.jpg,Image
BE-194,Bag,simple,Default Category/Mobiles/Tablets/Tablets,base,32gb android tablet ,"<p>   10""inch HD screen 2gb raw internal storage 32gb android tablet  </p>","<p>   10""inch HD screen 2gb raw internal storage 32gb android tablet  </p>",,59.25,,,,1,100,1,Taxable Goods,"Catalog, Search",,,,194.jpg,Image,194.jpg,Image,194.jpg,Image
BE-195,Bag,simple,Default Category/Mobiles/Tablets/Tablets,base, Case For Samsung Galaxy S10Plus   ,<p> S10 Low Price Ultra Slim Fit Transparent Back Cover TPU Smartphone Case For Samsung Galaxy S10Plus    </p>,<p> S10 Low Price Ultra Slim Fit Transparent Back Cover TPU Smartphone Case For Samsung Galaxy S10Plus    </p>,,0.4,,,,1,100,1,Taxable Goods,"Catalog, Search",,,,195.jpg,Image,195.jpg,Image,195.jpg,Image
BE-196,Bag,simple,Default Category/Mobiles/Mobiles/Samsung,base,Case For S10 Plus ,"<p>  Matte Hard Plastic Phone Cover For Samsung Galaxy S10 Plus, Back Mobile Phone PC Case For S10 Plus   </p>","<p>  Matte Hard Plastic Phone Cover For Samsung Galaxy S10 Plus, Back Mobile Phone PC Case For S10 Plus   </p>",,0.9,,,,1,100,1,Taxable Goods,"Catalog, Search",,,,196.jpg,Image,196.jpg,Image,196.jpg,Image
BE-197,Bag,simple,Default Category/Mobiles/Mobiles/Samsung,base,Case For Galaxy S10 plus ,<p>  Factory Price For Samsung Galaxy S10 Plus Back Cover Air cushion Shockproof TPU Transparent Phone Case For Galaxy S10 plus   </p>,<p>  Factory Price For Samsung Galaxy S10 Plus Back Cover Air cushion Shockproof TPU Transparent Phone Case For Galaxy S10 plus   </p>,,0.35,,,,1,100,1,Taxable Goods,"Catalog, Search",,,,197.jpg,Image,197.jpg,Image,197.jpg,Image
BE-198,Bag,simple,Default Category/Mobiles/Mobiles/Samsung,base, Case Transparent For Samsung galaxy S10,<p>   Clear Electroplate TPU Case For Samsung S10 Case Transparent For Samsung galaxy S10 Cover Cell Phone Accessories  </p>,<p>   Clear Electroplate TPU Case For Samsung S10 Case Transparent For Samsung galaxy S10 Cover Cell Phone Accessories  </p>,,0.6,,,,1,100,1,Taxable Goods,"Catalog, Search",,,,198.jpg,Image,198.jpg,Image,198.jpg,Image
BE-199,Bag,simple,Default Category/Mobiles/Mobiles/Samsung,base," Case for Samsung Galaxy S10,S10 Plus,S10","<p>  Phone Cover Case for Samsung Galaxy S10,S10 Plus,S10 Lite Back Case   </p>","<p>  Phone Cover Case for Samsung Galaxy S10,S10 Plus,S10 Lite Back Case   </p>",,0.5,,,,1,100,1,Taxable Goods,"Catalog, Search",,,,199.jpg,Image,199.jpg,Image,199.jpg,Image
BE-200,Bag,simple,Default Category/Mobiles/Mobiles/Samsung,base, case for apple iphone 7 plus or 8 plus ,<p>  2019 Customized LOGO Mobile Accessories 5.5 inch mobile cover phone case for apple iphone 7 plus or 8 plus   </p>,<p>  2019 Customized LOGO Mobile Accessories 5.5 inch mobile cover phone case for apple iphone 7 plus or 8 plus   </p>,,2.13,,,,1,100,1,Taxable Goods,"Catalog, Search",,,,200.jpg,Image,200.jpg,Image,200.jpg,Image
BE-201,Bag,simple,Default Category/Mobiles/Mobiles/iPhone,base,Case Cover for Apple ,<p>   Anti-Scratch Soft TPU Phone Case Transparent Shockproof Mobile Phone Case Cover for Apple  </p>,<p>   Anti-Scratch Soft TPU Phone Case Transparent Shockproof Mobile Phone Case Cover for Apple  </p>,,0.45,,,,1,100,1,Taxable Goods,"Catalog, Search",,,,201.jpg,Image,201.jpg,Image,201.jpg,Image
BE-202,Bag,simple,Default Category/Mobiles/Mobiles/iPhone,base, Case For Apple iPhone Xs MAX 1,<p>   ATB Black Fit Women and Men Ultra Thin Soft TPU Back Mobile Cover Matte Surface Slim Phone Case For Apple iPhone Xs MAX  </p>,<p>   ATB Black Fit Women and Men Ultra Thin Soft TPU Back Mobile Cover Matte Surface Slim Phone Case For Apple iPhone Xs MAX  </p>,,0.85,,,,1,100,1,Taxable Goods,"Catalog, Search",,,,202.jpg,Image,202.jpg,Image,202.jpg,Image
BE-203,Bag,simple,Default Category/Mobiles/Mobiles/iPhone,base,Case For Apple iPhone XS MAX,<p>  Luxury Genuine Wood Bamboo Mobile Phone Back Case For Apple iPhone XS MAX   </p>,<p>  Luxury Genuine Wood Bamboo Mobile Phone Back Case For Apple iPhone XS MAX   </p>,,5.5,,,,1,100,1,Taxable Goods,"Catalog, Search",,,,203.jpg,Image,203.jpg,Image,203.jpg,Image
BE-204,Bag,simple,Default Category/Mobiles/Mobiles/iPhone,base, Case For Apple iPhone 8 ,<p> Mesh Cell Phone Case For Apple iPhone 8 Mobile With String    </p>,<p> Mesh Cell Phone Case For Apple iPhone 8 Mobile With String    </p>,,0.7,,,,1,100,1,Taxable Goods,"Catalog, Search",,,,204.jpg,Image,204.jpg,Image,204.jpg,Image
BE-205,Bag,simple,Default Category/Mobiles/Mobiles/iPhone,base, Battery Walkie Talkie Rugged Smartphone with NFC ,<p>  snopow mobile phone M5P LTE 4.5 Inch 4700mAh Battery Walkie Talkie Rugged Smartphone with NFC   </p>,<p>  snopow mobile phone M5P LTE 4.5 Inch 4700mAh Battery Walkie Talkie Rugged Smartphone with NFC   </p>,,180.1,,,,1,100,1,Taxable Goods,"Catalog, Search",,,,205.jpg,Image,205.jpg,Image,205.jpg,Image
BE-206,Bag,simple,Default Category/Mobiles/Mobiles/LT,base, LTE 4g smart phone  ,<p>  2018 hot selling made in usa brand 5s 6 6s 7 7plus 6s plus 8 x mobile phone LTE 4g smart phone   </p>,<p>  2018 hot selling made in usa brand 5s 6 6s 7 7plus 6s plus 8 x mobile phone LTE 4g smart phone   </p>,,350,,,,1,100,1,Taxable Goods,"Catalog, Search",,,,206.jpg,Image,206.jpg,Image,206.jpg,Image
BE-207,Bag,simple,Default Category/Mobiles/Mobiles/LT,base,Luxury Mobile,<p>  UNIWA M10 5.0 Inch Fingerprint Unlock Android 7.0 IP68 Waterproof 4G LTE 4000mAh Battery Chinese Luxury Mobile Phone   </p>,<p>  UNIWA M10 5.0 Inch Fingerprint Unlock Android 7.0 IP68 Waterproof 4G LTE 4000mAh Battery Chinese Luxury Mobile Phone   </p>,,100,,,,1,100,1,Taxable Goods,"Catalog, Search",,,,207.jpg,Image,207.jpg,Image,207.jpg,Image
BE-208,Bag,simple,Default Category/Mobiles/Mobiles/LT,base,Rugged mobile phone 4G ,<p>   HiDON 4.7 inch Rugged mobile phone 4G LTE 2G+16G Android 7.0 Rugged Smartphone with Waikie-Talkie and PTT Function  </p>,<p>   HiDON 4.7 inch Rugged mobile phone 4G LTE 2G+16G Android 7.0 Rugged Smartphone with Waikie-Talkie and PTT Function  </p>,,2,,,,1,100,1,Taxable Goods,"Catalog, Search",,,,208.jpg,Image,208.jpg,Image,208.jpg,Image
BE-209,Bag,simple,Default Category/Mobiles/Mobiles/LT,base,Phone with Fingerprint NFC Wireless Charging,<p>  Erhino 5.7 inch Octa Core Android OS 8.1 LTE 4G IP68 Waterproof Rugged Mobile Phone with Fingerprint NFC Wireless Charging   </p>,<p>  Erhino 5.7 inch Octa Core Android OS 8.1 LTE 4G IP68 Waterproof Rugged Mobile Phone with Fingerprint NFC Wireless Charging   </p>,,245,,,,1,100,1,Taxable Goods,"Catalog, Search",,,,209.jpg,Image,209.jpg,Image,209.jpg,Image
BE-210,Bag,simple,Default Category/Mobiles/Mobiles/LT,base, Smallest single sim mobile,<p>  Smallest single sim mobile phone with voice changer A20 mini phone mobile   </p>,<p>  Smallest single sim mobile phone with voice changer A20 mini phone mobile   </p>,,8.8,,,,1,100,1,Taxable Goods,"Catalog, Search",,,,210.jpg,Image,210.jpg,Image,210.jpg,Image
BE-211,Bag,simple,Default Category/Mobiles/Mobiles/Others,base, Feature Phone 3G ,<p>  2G Feature Phone 3G Smart Phone with Dual Camera OEM Brand Smart Mobile   </p>,<p>  2G Feature Phone 3G Smart Phone with Dual Camera OEM Brand Smart Mobile   </p>,,30,,,,1,100,1,Taxable Goods,"Catalog, Search",,,,211.jpg,Image,211.jpg,Image,211.jpg,Image
BE-212,Bag,simple,Default Category/Mobiles/Mobiles/Others,base, Xiaomi Redmi Note 6 Pro,"<p>   International version Original Xiaomi Redmi Note 6 Pro, 3GB+32GB, Global Official Version 6.2 inch Screen Android 8.1 Mobile  </p>","<p>   International version Original Xiaomi Redmi Note 6 Pro, 3GB+32GB, Global Official Version 6.2 inch Screen Android 8.1 Mobile  </p>",,160,,,,1,100,1,Taxable Goods,"Catalog, Search",,,,212.jpg,Image,212.jpg,Image,212.jpg,Image
BE-213,Bag,simple,Default Category/Mobiles/Mobiles/Others,base,Lowest Price 5inch IP68 ,<p>  Lowest Price 5inch IP68 Waterproof Rugged Mobile Phone 4g Lte Android7.0 2GB+16GB AGM A8 SE Original Rugged Mobile   </p>,<p>  Lowest Price 5inch IP68 Waterproof Rugged Mobile Phone 4g Lte Android7.0 2GB+16GB AGM A8 SE Original Rugged Mobile   </p>,,145,,,,1,100,1,Taxable Goods,"Catalog, Search",,,,213.jpg,Image,213.jpg,Image,213.jpg,Image
BE-214,Bag,simple,Default Category/Mobiles/Mobiles/Others,base,smartphone 4g,<p>   2018 New arrival HD oem smartphone 4g lte fingerprint cell phone cheap basic china mobile  </p>,<p>   2018 New arrival HD oem smartphone 4g lte fingerprint cell phone cheap basic china mobile  </p>,,42,,,,1,100,1,Taxable Goods,"Catalog, Search",,,,214.jpg,Image,214.jpg,Image,214.jpg,Image
BE-215,Bag,simple,Default Category/Mobiles/Mobiles/Others,base, Huawei Mate 10,"<p>   Original Huawei Mate 10 smart mobile phone Kirin 9, 4GB+ 64GB, Official Global ROM, Dual Back Cameras  </p>","<p>   Original Huawei Mate 10 smart mobile phone Kirin 9, 4GB+ 64GB, Official Global ROM, Dual Back Cameras  </p>",,430,,,,1,100,1,Taxable Goods,"Catalog, Search",,,,215.jpg,Image,215.jpg,Image,215.jpg,Image
