sku,attribute_set_code,categories,product_type,product_websites,name,description,short_description,weight,price,special_price,special_price_from_date,special_price_to_date,product_online,qty,is_in_stock,tax_class_name,visibility,meta_title,meta_keywords,meta_description,base_image,base_image_label,small_image,small_image_label,thumbnail_image,thumbnail_image_label,reviewed_by_content_entry,errors
FW-45,Bag,"Default Category/Bazzarry Fashion/women/Bags & Accessories/cross body bags",simple,base," Elegant Women's PU","<p> Stylish SUSEN Women's Elegant Women's PU Leather Cross Body Bag  </p>","<p> Stylish SUSEN Women's Elegant Women's PU Leather Cross Body Bag  </p>",1,9.52,,,,1,100,20,"Taxable Goods","Catalog, Search",,,,96.jpg,Image,96.jpg,Image,96.jpg,Image,yes,
FW-46,Bag,"Default Category/Bazzarry Fashion/women/Bags & Accessories/cross body bags",simple,base,"women's pu leather crossbodi ","<p>  Fashion women's pu leather crossbodi bag 4pcs printed handbags set large ladies shoulder purse sling cross body tote bags </p>","<p>  Fashion women's pu leather crossbodi bag 4pcs printed handbags set large ladies shoulder purse sling cross body tote bags </p>",1,6,,,,1,100,20,"Taxable Goods","Catalog, Search",,,,97.jpg,Image,97.jpg,Image,97.jpg,Image,yes,
PMEPG01,Default,"Perfumes, Health& Beauty/Skin care/Face Care",simple,base,"??? ?? ???? ?????  ads eye studio gel eyeliner","??? ???? ????? 2 ?? 1 ?? ADS EYE Studio  ???? ?????? ??? ??? ??? ??? ???? ????? ??? ??????? (2 ???). ???? ????? ????? ??? ?????? ???? ??????","??? ???? ?????  ???? ?????? ??? ??? ???",1,8,,,,1,20,,"Taxable Goods","Catalog, Search",,,,11.jpg,Image,11.jpg,Image,11.jpg,Image,yes,"Please make sure attribute ""fbb_fees"" is not empty."
