2020-03-23T11:06:22+00:00 INFO (6): #0 /home/bazzarry/webapps/bazzarry-website/vendor/magento/zendframework1/library/Zend/Db/Statement/Pdo.php(228): PDOStatement->execute(Array)
#1 /home/bazzarry/webapps/bazzarry-website/vendor/magento/framework/DB/Statement/Pdo/Mysql.php(93): Zend_Db_Statement_Pdo->_execute(Array)
#2 /home/bazzarry/webapps/bazzarry-website/vendor/magento/zendframework1/library/Zend/Db/Statement.php(303): Magento\Framework\DB\Statement\Pdo\Mysql->_execute(Array)
#3 /home/bazzarry/webapps/bazzarry-website/vendor/magento/zendframework1/library/Zend/Db/Adapter/Abstract.php(480): Zend_Db_Statement->execute(Array)
#4 /home/bazzarry/webapps/bazzarry-website/vendor/magento/zendframework1/library/Zend/Db/Adapter/Pdo/Abstract.php(238): Zend_Db_Adapter_Abstract->query('UPDATE catalogi...', Array)
#5 /home/bazzarry/webapps/bazzarry-website/vendor/magento/framework/DB/Adapter/Pdo/Mysql.php(533): Zend_Db_Adapter_Pdo_Abstract->query('UPDATE catalogi...', Array)
#6 /home/bazzarry/webapps/bazzarry-website/vendor/magento/framework/DB/Adapter/Pdo/Mysql.php(605): Magento\Framework\DB\Adapter\Pdo\Mysql->_query('UPDATE catalogi...', Array)
#7 /home/bazzarry/webapps/bazzarry-website/app/code/Tigren/MultiInventory/Override/Amasty/Model/ResourceModel/Warehouse/Item.php(88): Magento\Framework\DB\Adapter\Pdo\Mysql->query('UPDATE catalogi...')
#8 /home/bazzarry/webapps/bazzarry-website/app/code/Tigren/MultiInventory/Observer/UpdateWarehouseItemStatus.php(44): Tigren\MultiInventory\Override\Amasty\Model\ResourceModel\Warehouse\Item->updateItemStatus()
#9 /home/bazzarry/webapps/bazzarry-website/vendor/magento/framework/Event/Invoker/InvokerDefault.php(72): Tigren\MultiInventory\Observer\UpdateWarehouseItemStatus->execute(Object(Magento\Framework\Event\Observer))
#10 /home/bazzarry/webapps/bazzarry-website/vendor/magento/framework/Event/Invoker/InvokerDefault.php(60): Magento\Framework\Event\Invoker\InvokerDefault->_callObserverMethod(Object(Tigren\MultiInventory\Observer\UpdateWarehouseItemStatus), Object(Magento\Framework\Event\Observer))
#11 /home/bazzarry/webapps/bazzarry-website/vendor/magento/framework/Event/Manager.php(66): Magento\Framework\Event\Invoker\InvokerDefault->dispatch(Array, Object(Magento\Framework\Event\Observer))
#12 /home/bazzarry/webapps/bazzarry-website/generated/code/Magento/Framework/Event/Manager/Proxy.php(95): Magento\Framework\Event\Manager->dispatch('amasty_multi_in...', Array)
#13 /home/bazzarry/webapps/bazzarry-website/vendor/amasty/module-multi-warehouse-inventory/Model/Indexer/Warehouse/AbstractAction.php(256): Magento\Framework\Event\Manager\Proxy->dispatch('amasty_multi_in...', Array)
#14 /home/bazzarry/webapps/bazzarry-website/vendor/amasty/module-multi-warehouse-inventory/Model/Indexer/Warehouse/AbstractAction.php(141): Amasty\MultiInventory\Model\Indexer\Warehouse\AbstractAction->createEvent()
#15 /home/bazzarry/webapps/bazzarry-website/vendor/amasty/module-multi-warehouse-inventory/Model/Indexer/Warehouse/Action/Full.php(20): Amasty\MultiInventory\Model\Indexer\Warehouse\AbstractAction->reindexAll()
#16 /home/bazzarry/webapps/bazzarry-website/vendor/amasty/module-multi-warehouse-inventory/Model/Indexer/Warehouse.php(58): Amasty\MultiInventory\Model\Indexer\Warehouse\Action\Full->execute()
#17 /home/bazzarry/webapps/bazzarry-website/vendor/magento/module-indexer/Model/Indexer.php(412): Amasty\MultiInventory\Model\Indexer\Warehouse->executeFull()
#18 /home/bazzarry/webapps/bazzarry-website/vendor/magento/module-indexer/Model/Indexer/DependencyDecorator.php(248): Magento\Indexer\Model\Indexer->reindexAll()
#19 /home/bazzarry/webapps/bazzarry-website/vendor/magento/module-indexer/Console/Command/IndexerReindexCommand.php(86): Magento\Indexer\Model\Indexer\DependencyDecorator->reindexAll()
#20 /home/bazzarry/webapps/bazzarry-website/vendor/symfony/console/Command/Command.php(245): Magento\Indexer\Console\Command\IndexerReindexCommand->execute(Object(Symfony\Component\Console\Input\ArgvInput), Object(Symfony\Component\Console\Output\ConsoleOutput))
#21 /home/bazzarry/webapps/bazzarry-website/vendor/symfony/console/Application.php(835): Symfony\Component\Console\Command\Command->run(Object(Symfony\Component\Console\Input\ArgvInput), Object(Symfony\Component\Console\Output\ConsoleOutput))
#22 /home/bazzarry/webapps/bazzarry-website/vendor/symfony/console/Application.php(185): Symfony\Component\Console\Application->doRunCommand(Object(Magento\Indexer\Console\Command\IndexerReindexCommand), Object(Symfony\Component\Console\Input\ArgvInput), Object(Symfony\Component\Console\Output\ConsoleOutput))
#23 /home/bazzarry/webapps/bazzarry-website/vendor/magento/framework/Console/Cli.php(102): Symfony\Component\Console\Application->doRun(Object(Symfony\Component\Console\Input\ArgvInput), Object(Symfony\Component\Console\Output\ConsoleOutput))
#24 /home/bazzarry/webapps/bazzarry-website/vendor/symfony/console/Application.php(117): Magento\Framework\Console\Cli->doRun(Object(Symfony\Component\Console\Input\ArgvInput), Object(Symfony\Component\Console\Output\ConsoleOutput))
#25 /home/bazzarry/webapps/bazzarry-website/bin/magento(23): Symfony\Component\Console\Application->run()
#26 {main}
2020-03-23T11:12:13+00:00 INFO (6): #0 /home/bazzarry/webapps/bazzarry-website/vendor/magento/zendframework1/library/Zend/Db/Statement/Pdo.php(228): PDOStatement->execute(Array)
#1 /home/bazzarry/webapps/bazzarry-website/vendor/magento/framework/DB/Statement/Pdo/Mysql.php(93): Zend_Db_Statement_Pdo->_execute(Array)
#2 /home/bazzarry/webapps/bazzarry-website/vendor/magento/zendframework1/library/Zend/Db/Statement.php(303): Magento\Framework\DB\Statement\Pdo\Mysql->_execute(Array)
#3 /home/bazzarry/webapps/bazzarry-website/vendor/magento/zendframework1/library/Zend/Db/Adapter/Abstract.php(480): Zend_Db_Statement->execute(Array)
#4 /home/bazzarry/webapps/bazzarry-website/vendor/magento/zendframework1/library/Zend/Db/Adapter/Pdo/Abstract.php(238): Zend_Db_Adapter_Abstract->query('UPDATE catalogi...', Array)
#5 /home/bazzarry/webapps/bazzarry-website/vendor/magento/framework/DB/Adapter/Pdo/Mysql.php(533): Zend_Db_Adapter_Pdo_Abstract->query('UPDATE catalogi...', Array)
#6 /home/bazzarry/webapps/bazzarry-website/vendor/magento/framework/DB/Adapter/Pdo/Mysql.php(605): Magento\Framework\DB\Adapter\Pdo\Mysql->_query('UPDATE catalogi...', Array)
#7 /home/bazzarry/webapps/bazzarry-website/app/code/Tigren/MultiInventory/Override/Amasty/Model/ResourceModel/Warehouse/Item.php(88): Magento\Framework\DB\Adapter\Pdo\Mysql->query('UPDATE catalogi...')
#8 /home/bazzarry/webapps/bazzarry-website/app/code/Tigren/MultiInventory/Observer/UpdateWarehouseItemStatus.php(44): Tigren\MultiInventory\Override\Amasty\Model\ResourceModel\Warehouse\Item->updateItemStatus()
#9 /home/bazzarry/webapps/bazzarry-website/vendor/magento/framework/Event/Invoker/InvokerDefault.php(72): Tigren\MultiInventory\Observer\UpdateWarehouseItemStatus->execute(Object(Magento\Framework\Event\Observer))
#10 /home/bazzarry/webapps/bazzarry-website/vendor/magento/framework/Event/Invoker/InvokerDefault.php(60): Magento\Framework\Event\Invoker\InvokerDefault->_callObserverMethod(Object(Tigren\MultiInventory\Observer\UpdateWarehouseItemStatus), Object(Magento\Framework\Event\Observer))
#11 /home/bazzarry/webapps/bazzarry-website/vendor/magento/framework/Event/Manager.php(66): Magento\Framework\Event\Invoker\InvokerDefault->dispatch(Array, Object(Magento\Framework\Event\Observer))
#12 /home/bazzarry/webapps/bazzarry-website/generated/code/Magento/Framework/Event/Manager/Proxy.php(95): Magento\Framework\Event\Manager->dispatch('amasty_multi_in...', Array)
#13 /home/bazzarry/webapps/bazzarry-website/vendor/amasty/module-multi-warehouse-inventory/Model/Indexer/Warehouse/AbstractAction.php(256): Magento\Framework\Event\Manager\Proxy->dispatch('amasty_multi_in...', Array)
#14 /home/bazzarry/webapps/bazzarry-website/vendor/amasty/module-multi-warehouse-inventory/Model/Indexer/Warehouse/AbstractAction.php(141): Amasty\MultiInventory\Model\Indexer\Warehouse\AbstractAction->createEvent()
#15 /home/bazzarry/webapps/bazzarry-website/vendor/amasty/module-multi-warehouse-inventory/Model/Indexer/Warehouse/Action/Full.php(20): Amasty\MultiInventory\Model\Indexer\Warehouse\AbstractAction->reindexAll()
#16 /home/bazzarry/webapps/bazzarry-website/vendor/amasty/module-multi-warehouse-inventory/Model/Indexer/Warehouse.php(58): Amasty\MultiInventory\Model\Indexer\Warehouse\Action\Full->execute()
#17 /home/bazzarry/webapps/bazzarry-website/vendor/magento/module-indexer/Model/Indexer.php(412): Amasty\MultiInventory\Model\Indexer\Warehouse->executeFull()
#18 /home/bazzarry/webapps/bazzarry-website/vendor/magento/module-indexer/Model/Indexer/DependencyDecorator.php(248): Magento\Indexer\Model\Indexer->reindexAll()
#19 /home/bazzarry/webapps/bazzarry-website/vendor/magento/module-indexer/Console/Command/IndexerReindexCommand.php(86): Magento\Indexer\Model\Indexer\DependencyDecorator->reindexAll()
#20 /home/bazzarry/webapps/bazzarry-website/vendor/symfony/console/Command/Command.php(245): Magento\Indexer\Console\Command\IndexerReindexCommand->execute(Object(Symfony\Component\Console\Input\ArgvInput), Object(Symfony\Component\Console\Output\ConsoleOutput))
#21 /home/bazzarry/webapps/bazzarry-website/vendor/symfony/console/Application.php(835): Symfony\Component\Console\Command\Command->run(Object(Symfony\Component\Console\Input\ArgvInput), Object(Symfony\Component\Console\Output\ConsoleOutput))
#22 /home/bazzarry/webapps/bazzarry-website/vendor/symfony/console/Application.php(185): Symfony\Component\Console\Application->doRunCommand(Object(Magento\Indexer\Console\Command\IndexerReindexCommand), Object(Symfony\Component\Console\Input\ArgvInput), Object(Symfony\Component\Console\Output\ConsoleOutput))
#23 /home/bazzarry/webapps/bazzarry-website/vendor/magento/framework/Console/Cli.php(102): Symfony\Component\Console\Application->doRun(Object(Symfony\Component\Console\Input\ArgvInput), Object(Symfony\Component\Console\Output\ConsoleOutput))
#24 /home/bazzarry/webapps/bazzarry-website/vendor/symfony/console/Application.php(117): Magento\Framework\Console\Cli->doRun(Object(Symfony\Component\Console\Input\ArgvInput), Object(Symfony\Component\Console\Output\ConsoleOutput))
#25 /home/bazzarry/webapps/bazzarry-website/bin/magento(23): Symfony\Component\Console\Application->run()
#26 {main}
2020-03-23T11:12:51+00:00 INFO (6): Array
(
    [0] => Array
        (
            [file] => /home/bazzarry/webapps/bazzarry-website/vendor/magento/framework/DB/Statement/Pdo/Mysql.php
            [line] => 93
            [function] => _execute
            [class] => Zend_Db_Statement_Pdo
            [type] => ->
        )

    [1] => Array
        (
            [file] => /home/bazzarry/webapps/bazzarry-website/vendor/magento/zendframework1/library/Zend/Db/Statement.php
            [line] => 303
            [function] => _execute
            [class] => Magento\Framework\DB\Statement\Pdo\Mysql
            [type] => ->
        )

    [2] => Array
        (
            [file] => /home/bazzarry/webapps/bazzarry-website/vendor/magento/zendframework1/library/Zend/Db/Adapter/Abstract.php
            [line] => 480
            [function] => execute
            [class] => Zend_Db_Statement
            [type] => ->
        )

    [3] => Array
        (
            [file] => /home/bazzarry/webapps/bazzarry-website/vendor/magento/zendframework1/library/Zend/Db/Adapter/Pdo/Abstract.php
            [line] => 238
            [function] => query
            [class] => Zend_Db_Adapter_Abstract
            [type] => ->
        )

    [4] => Array
        (
            [file] => /home/bazzarry/webapps/bazzarry-website/vendor/magento/framework/DB/Adapter/Pdo/Mysql.php
            [line] => 533
            [function] => query
            [class] => Zend_Db_Adapter_Pdo_Abstract
            [type] => ->
        )

    [5] => Array
        (
            [file] => /home/bazzarry/webapps/bazzarry-website/vendor/magento/framework/DB/Adapter/Pdo/Mysql.php
            [line] => 605
            [function] => _query
            [class] => Magento\Framework\DB\Adapter\Pdo\Mysql
            [type] => ->
        )

    [6] => Array
        (
            [file] => /home/bazzarry/webapps/bazzarry-website/app/code/Tigren/MultiInventory/Override/Amasty/Model/ResourceModel/Warehouse/Item.php
            [line] => 88
            [function] => query
            [class] => Magento\Framework\DB\Adapter\Pdo\Mysql
            [type] => ->
        )

    [7] => Array
        (
            [file] => /home/bazzarry/webapps/bazzarry-website/app/code/Tigren/MultiInventory/Observer/UpdateWarehouseItemStatus.php
            [line] => 44
            [function] => updateItemStatus
            [class] => Tigren\MultiInventory\Override\Amasty\Model\ResourceModel\Warehouse\Item
            [type] => ->
        )

    [8] => Array
        (
            [file] => /home/bazzarry/webapps/bazzarry-website/vendor/magento/framework/Event/Invoker/InvokerDefault.php
            [line] => 72
            [function] => execute
            [class] => Tigren\MultiInventory\Observer\UpdateWarehouseItemStatus
            [type] => ->
        )

    [9] => Array
        (
            [file] => /home/bazzarry/webapps/bazzarry-website/vendor/magento/framework/Event/Invoker/InvokerDefault.php
            [line] => 60
            [function] => _callObserverMethod
            [class] => Magento\Framework\Event\Invoker\InvokerDefault
            [type] => ->
        )

    [10] => Array
        (
            [file] => /home/bazzarry/webapps/bazzarry-website/vendor/magento/framework/Event/Manager.php
            [line] => 66
            [function] => dispatch
            [class] => Magento\Framework\Event\Invoker\InvokerDefault
            [type] => ->
        )

    [11] => Array
        (
            [file] => /home/bazzarry/webapps/bazzarry-website/generated/code/Magento/Framework/Event/Manager/Proxy.php
            [line] => 95
            [function] => dispatch
            [class] => Magento\Framework\Event\Manager
            [type] => ->
        )

    [12] => Array
        (
            [file] => /home/bazzarry/webapps/bazzarry-website/vendor/amasty/module-multi-warehouse-inventory/Model/Indexer/Warehouse/AbstractAction.php
            [line] => 256
            [function] => dispatch
            [class] => Magento\Framework\Event\Manager\Proxy
            [type] => ->
        )

    [13] => Array
        (
            [file] => /home/bazzarry/webapps/bazzarry-website/vendor/amasty/module-multi-warehouse-inventory/Model/Indexer/Warehouse/AbstractAction.php
            [line] => 141
            [function] => createEvent
            [class] => Amasty\MultiInventory\Model\Indexer\Warehouse\AbstractAction
            [type] => ->
        )

    [14] => Array
        (
            [file] => /home/bazzarry/webapps/bazzarry-website/vendor/amasty/module-multi-warehouse-inventory/Model/Indexer/Warehouse/Action/Full.php
            [line] => 20
            [function] => reindexAll
            [class] => Amasty\MultiInventory\Model\Indexer\Warehouse\AbstractAction
            [type] => ->
        )

    [15] => Array
        (
            [file] => /home/bazzarry/webapps/bazzarry-website/vendor/amasty/module-multi-warehouse-inventory/Model/Indexer/Warehouse.php
            [line] => 58
            [function] => execute
            [class] => Amasty\MultiInventory\Model\Indexer\Warehouse\Action\Full
            [type] => ->
        )

    [16] => Array
        (
            [file] => /home/bazzarry/webapps/bazzarry-website/vendor/magento/module-indexer/Model/Indexer.php
            [line] => 412
            [function] => executeFull
            [class] => Amasty\MultiInventory\Model\Indexer\Warehouse
            [type] => ->
        )

    [17] => Array
        (
            [file] => /home/bazzarry/webapps/bazzarry-website/vendor/magento/module-indexer/Model/Indexer/DependencyDecorator.php
            [line] => 248
            [function] => reindexAll
            [class] => Magento\Indexer\Model\Indexer
            [type] => ->
        )

    [18] => Array
        (
            [file] => /home/bazzarry/webapps/bazzarry-website/vendor/magento/module-indexer/Console/Command/IndexerReindexCommand.php
            [line] => 86
            [function] => reindexAll
            [class] => Magento\Indexer\Model\Indexer\DependencyDecorator
            [type] => ->
        )

    [19] => Array
        (
            [file] => /home/bazzarry/webapps/bazzarry-website/vendor/symfony/console/Command/Command.php
            [line] => 245
            [function] => execute
            [class] => Magento\Indexer\Console\Command\IndexerReindexCommand
            [type] => ->
        )

    [20] => Array
        (
            [file] => /home/bazzarry/webapps/bazzarry-website/vendor/symfony/console/Application.php
            [line] => 835
            [function] => run
            [class] => Symfony\Component\Console\Command\Command
            [type] => ->
        )

    [21] => Array
        (
            [file] => /home/bazzarry/webapps/bazzarry-website/vendor/symfony/console/Application.php
            [line] => 185
            [function] => doRunCommand
            [class] => Symfony\Component\Console\Application
            [type] => ->
        )

    [22] => Array
        (
            [file] => /home/bazzarry/webapps/bazzarry-website/vendor/magento/framework/Console/Cli.php
            [line] => 102
            [function] => doRun
            [class] => Symfony\Component\Console\Application
            [type] => ->
        )

    [23] => Array
        (
            [file] => /home/bazzarry/webapps/bazzarry-website/vendor/symfony/console/Application.php
            [line] => 117
            [function] => doRun
            [class] => Magento\Framework\Console\Cli
            [type] => ->
        )

    [24] => Array
        (
            [file] => /home/bazzarry/webapps/bazzarry-website/bin/magento
            [line] => 23
            [function] => run
            [class] => Symfony\Component\Console\Application
            [type] => ->
        )

)

2020-03-23T11:13:03+00:00 INFO (6): Array
(
    [0] => Array
        (
            [file] => /home/bazzarry/webapps/bazzarry-website/vendor/magento/framework/DB/Statement/Pdo/Mysql.php
            [line] => 93
            [function] => _execute
            [class] => Zend_Db_Statement_Pdo
            [type] => ->
        )

    [1] => Array
        (
            [file] => /home/bazzarry/webapps/bazzarry-website/vendor/magento/zendframework1/library/Zend/Db/Statement.php
            [line] => 303
            [function] => _execute
            [class] => Magento\Framework\DB\Statement\Pdo\Mysql
            [type] => ->
        )

    [2] => Array
        (
            [file] => /home/bazzarry/webapps/bazzarry-website/vendor/magento/zendframework1/library/Zend/Db/Adapter/Abstract.php
            [line] => 480
            [function] => execute
            [class] => Zend_Db_Statement
            [type] => ->
        )

    [3] => Array
        (
            [file] => /home/bazzarry/webapps/bazzarry-website/vendor/magento/zendframework1/library/Zend/Db/Adapter/Pdo/Abstract.php
            [line] => 238
            [function] => query
            [class] => Zend_Db_Adapter_Abstract
            [type] => ->
        )

    [4] => Array
        (
            [file] => /home/bazzarry/webapps/bazzarry-website/vendor/magento/framework/DB/Adapter/Pdo/Mysql.php
            [line] => 533
            [function] => query
            [class] => Zend_Db_Adapter_Pdo_Abstract
            [type] => ->
        )

    [5] => Array
        (
            [file] => /home/bazzarry/webapps/bazzarry-website/vendor/magento/framework/DB/Adapter/Pdo/Mysql.php
            [line] => 605
            [function] => _query
            [class] => Magento\Framework\DB\Adapter\Pdo\Mysql
            [type] => ->
        )

    [6] => Array
        (
            [file] => /home/bazzarry/webapps/bazzarry-website/app/code/Tigren/MultiInventory/Override/Amasty/Model/ResourceModel/Warehouse/Item.php
            [line] => 88
            [function] => query
            [class] => Magento\Framework\DB\Adapter\Pdo\Mysql
            [type] => ->
        )

    [7] => Array
        (
            [file] => /home/bazzarry/webapps/bazzarry-website/app/code/Tigren/MultiInventory/Observer/UpdateWarehouseItemStatus.php
            [line] => 44
            [function] => updateItemStatus
            [class] => Tigren\MultiInventory\Override\Amasty\Model\ResourceModel\Warehouse\Item
            [type] => ->
        )

    [8] => Array
        (
            [file] => /home/bazzarry/webapps/bazzarry-website/vendor/magento/framework/Event/Invoker/InvokerDefault.php
            [line] => 72
            [function] => execute
            [class] => Tigren\MultiInventory\Observer\UpdateWarehouseItemStatus
            [type] => ->
        )

    [9] => Array
        (
            [file] => /home/bazzarry/webapps/bazzarry-website/vendor/magento/framework/Event/Invoker/InvokerDefault.php
            [line] => 60
            [function] => _callObserverMethod
            [class] => Magento\Framework\Event\Invoker\InvokerDefault
            [type] => ->
        )

    [10] => Array
        (
            [file] => /home/bazzarry/webapps/bazzarry-website/vendor/magento/framework/Event/Manager.php
            [line] => 66
            [function] => dispatch
            [class] => Magento\Framework\Event\Invoker\InvokerDefault
            [type] => ->
        )

    [11] => Array
        (
            [file] => /home/bazzarry/webapps/bazzarry-website/generated/code/Magento/Framework/Event/Manager/Proxy.php
            [line] => 95
            [function] => dispatch
            [class] => Magento\Framework\Event\Manager
            [type] => ->
        )

    [12] => Array
        (
            [file] => /home/bazzarry/webapps/bazzarry-website/vendor/amasty/module-multi-warehouse-inventory/Model/Indexer/Warehouse/AbstractAction.php
            [line] => 256
            [function] => dispatch
            [class] => Magento\Framework\Event\Manager\Proxy
            [type] => ->
        )

    [13] => Array
        (
            [file] => /home/bazzarry/webapps/bazzarry-website/vendor/amasty/module-multi-warehouse-inventory/Model/Indexer/Warehouse/AbstractAction.php
            [line] => 141
            [function] => createEvent
            [class] => Amasty\MultiInventory\Model\Indexer\Warehouse\AbstractAction
            [type] => ->
        )

    [14] => Array
        (
            [file] => /home/bazzarry/webapps/bazzarry-website/vendor/amasty/module-multi-warehouse-inventory/Model/Indexer/Warehouse/Action/Full.php
            [line] => 20
            [function] => reindexAll
            [class] => Amasty\MultiInventory\Model\Indexer\Warehouse\AbstractAction
            [type] => ->
        )

    [15] => Array
        (
            [file] => /home/bazzarry/webapps/bazzarry-website/vendor/amasty/module-multi-warehouse-inventory/Model/Indexer/Warehouse.php
            [line] => 58
            [function] => execute
            [class] => Amasty\MultiInventory\Model\Indexer\Warehouse\Action\Full
            [type] => ->
        )

    [16] => Array
        (
            [file] => /home/bazzarry/webapps/bazzarry-website/vendor/magento/module-indexer/Model/Indexer.php
            [line] => 412
            [function] => executeFull
            [class] => Amasty\MultiInventory\Model\Indexer\Warehouse
            [type] => ->
        )

    [17] => Array
        (
            [file] => /home/bazzarry/webapps/bazzarry-website/vendor/magento/module-indexer/Model/Indexer/DependencyDecorator.php
            [line] => 248
            [function] => reindexAll
            [class] => Magento\Indexer\Model\Indexer
            [type] => ->
        )

    [18] => Array
        (
            [file] => /home/bazzarry/webapps/bazzarry-website/vendor/magento/module-indexer/Model/Processor.php
            [line] => 69
            [function] => reindexAll
            [class] => Magento\Indexer\Model\Indexer\DependencyDecorator
            [type] => ->
        )

    [19] => Array
        (
            [file] => /home/bazzarry/webapps/bazzarry-website/vendor/magento/framework/Interception/Interceptor.php
            [line] => 58
            [function] => reindexAllInvalid
            [class] => Magento\Indexer\Model\Processor
            [type] => ->
        )

    [20] => Array
        (
            [file] => /home/bazzarry/webapps/bazzarry-website/vendor/magento/framework/Interception/Interceptor.php
            [line] => 138
            [function] => ___callParent
            [class] => Magento\Indexer\Model\Processor\Interceptor
            [type] => ->
        )

    [21] => Array
        (
            [file] => /home/bazzarry/webapps/bazzarry-website/vendor/magento/framework/Interception/Interceptor.php
            [line] => 153
            [function] => Magento\Framework\Interception\{closure}
            [class] => Magento\Indexer\Model\Processor\Interceptor
            [type] => ->
        )

    [22] => Array
        (
            [file] => /home/bazzarry/webapps/bazzarry-website/generated/code/Magento/Indexer/Model/Processor/Interceptor.php
            [line] => 26
            [function] => ___callPlugins
            [class] => Magento\Indexer\Model\Processor\Interceptor
            [type] => ->
        )

    [23] => Array
        (
            [file] => /home/bazzarry/webapps/bazzarry-website/vendor/magento/module-indexer/Cron/ReindexAllInvalid.php
            [line] => 31
            [function] => reindexAllInvalid
            [class] => Magento\Indexer\Model\Processor\Interceptor
            [type] => ->
        )

    [24] => Array
        (
            [function] => execute
            [class] => Magento\Indexer\Cron\ReindexAllInvalid
            [type] => ->
        )

    [25] => Array
        (
            [file] => /home/bazzarry/webapps/bazzarry-website/vendor/magento/module-cron/Observer/ProcessCronQueueObserver.php
            [line] => 314
            [function] => call_user_func_array
        )

    [26] => Array
        (
            [file] => /home/bazzarry/webapps/bazzarry-website/vendor/magento/module-cron/Observer/ProcessCronQueueObserver.php
            [line] => 720
            [function] => _runJob
            [class] => Magento\Cron\Observer\ProcessCronQueueObserver
            [type] => ->
        )

    [27] => Array
        (
            [file] => /home/bazzarry/webapps/bazzarry-website/vendor/magento/module-cron/Observer/ProcessCronQueueObserver.php
            [line] => 240
            [function] => processPendingJobs
            [class] => Magento\Cron\Observer\ProcessCronQueueObserver
            [type] => ->
        )

    [28] => Array
        (
            [file] => /home/bazzarry/webapps/bazzarry-website/vendor/magento/module-cron/Observer/ProcessCronQueueObserver.php
            [line] => 269
            [function] => Magento\Cron\Observer\{closure}
            [class] => Magento\Cron\Observer\ProcessCronQueueObserver
            [type] => ->
        )

    [29] => Array
        (
            [file] => /home/bazzarry/webapps/bazzarry-website/vendor/magento/module-cron/Observer/ProcessCronQueueObserver.php
            [line] => 241
            [function] => lockGroup
            [class] => Magento\Cron\Observer\ProcessCronQueueObserver
            [type] => ->
        )

    [30] => Array
        (
            [file] => /home/bazzarry/webapps/bazzarry-website/vendor/magento/framework/Interception/Interceptor.php
            [line] => 58
            [function] => execute
            [class] => Magento\Cron\Observer\ProcessCronQueueObserver
            [type] => ->
        )

    [31] => Array
        (
            [file] => /home/bazzarry/webapps/bazzarry-website/vendor/magento/framework/Interception/Interceptor.php
            [line] => 138
            [function] => ___callParent
            [class] => Magento\Cron\Observer\ProcessCronQueueObserver\Interceptor
            [type] => ->
        )

    [32] => Array
        (
            [file] => /home/bazzarry/webapps/bazzarry-website/vendor/magento/framework/Interception/Interceptor.php
            [line] => 153
            [function] => Magento\Framework\Interception\{closure}
            [class] => Magento\Cron\Observer\ProcessCronQueueObserver\Interceptor
            [type] => ->
        )

    [33] => Array
        (
            [file] => /home/bazzarry/webapps/bazzarry-website/generated/code/Magento/Cron/Observer/ProcessCronQueueObserver/Interceptor.php
            [line] => 26
            [function] => ___callPlugins
            [class] => Magento\Cron\Observer\ProcessCronQueueObserver\Interceptor
            [type] => ->
        )

    [34] => Array
        (
            [file] => /home/bazzarry/webapps/bazzarry-website/vendor/magento/framework/Event/Invoker/InvokerDefault.php
            [line] => 72
            [function] => execute
            [class] => Magento\Cron\Observer\ProcessCronQueueObserver\Interceptor
            [type] => ->
        )

    [35] => Array
        (
            [file] => /home/bazzarry/webapps/bazzarry-website/vendor/magento/framework/Event/Invoker/InvokerDefault.php
            [line] => 60
            [function] => _callObserverMethod
            [class] => Magento\Framework\Event\Invoker\InvokerDefault
            [type] => ->
        )

    [36] => Array
        (
            [file] => /home/bazzarry/webapps/bazzarry-website/vendor/magento/framework/Event/Manager.php
            [line] => 66
            [function] => dispatch
            [class] => Magento\Framework\Event\Invoker\InvokerDefault
            [type] => ->
        )

    [37] => Array
        (
            [file] => /home/bazzarry/webapps/bazzarry-website/generated/code/Magento/Framework/Event/Manager/Proxy.php
            [line] => 95
            [function] => dispatch
            [class] => Magento\Framework\Event\Manager
            [type] => ->
        )

    [38] => Array
        (
            [file] => /home/bazzarry/webapps/bazzarry-website/vendor/magento/framework/App/Cron.php
            [line] => 86
            [function] => dispatch
            [class] => Magento\Framework\Event\Manager\Proxy
            [type] => ->
        )

    [39] => Array
        (
            [file] => /home/bazzarry/webapps/bazzarry-website/vendor/magento/module-cron/Console/Command/CronCommand.php
            [line] => 117
            [function] => launch
            [class] => Magento\Framework\App\Cron
            [type] => ->
        )

    [40] => Array
        (
            [file] => /home/bazzarry/webapps/bazzarry-website/vendor/symfony/console/Command/Command.php
            [line] => 245
            [function] => execute
            [class] => Magento\Cron\Console\Command\CronCommand
            [type] => ->
        )

    [41] => Array
        (
            [file] => /home/bazzarry/webapps/bazzarry-website/vendor/symfony/console/Application.php
            [line] => 835
            [function] => run
            [class] => Symfony\Component\Console\Command\Command
            [type] => ->
        )

    [42] => Array
        (
            [file] => /home/bazzarry/webapps/bazzarry-website/vendor/symfony/console/Application.php
            [line] => 185
            [function] => doRunCommand
            [class] => Symfony\Component\Console\Application
            [type] => ->
        )

    [43] => Array
        (
            [file] => /home/bazzarry/webapps/bazzarry-website/vendor/magento/framework/Console/Cli.php
            [line] => 102
            [function] => doRun
            [class] => Symfony\Component\Console\Application
            [type] => ->
        )

    [44] => Array
        (
            [file] => /home/bazzarry/webapps/bazzarry-website/vendor/symfony/console/Application.php
            [line] => 117
            [function] => doRun
            [class] => Magento\Framework\Console\Cli
            [type] => ->
        )

    [45] => Array
        (
            [file] => /home/bazzarry/webapps/bazzarry-website/bin/magento
            [line] => 23
            [function] => run
            [class] => Symfony\Component\Console\Application
            [type] => ->
        )

)

